EESchema Schematic File Version 2
LIBS:power
LIBS:MyKiCadLibs-Lib
LIBS:DEV-CoreTwo-cache
EELAYER 25 0
EELAYER END
$Descr A4 11693 8268
encoding utf-8
Sheet 2 8
Title "CoreOne - XMOS 200 Platform"
Date "2017-02-08"
Rev "1.0"
Comp "Open Hardware DSP Platform - www.ohdsp.org"
Comment1 "MERCHANTABILITY, SATISFACTORY QUALITY AND FITNESS FOR A PARTICULAR PURPOSE."
Comment2 "is distributed WITHOUT ANY EXPRESS OR IMPLIED WARRANTY, INCLUDING OF"
Comment3 "Licensed under the TAPR Open Hardware License (www.tapr.org/OHL). This documentation"
Comment4 "Copyright Paul Janicki 2017"
$EndDescr
$Comp
L GNDD #PWR203
U 1 1 54DA1026
P 1150 4200
F 0 "#PWR203" H 1150 3950 60  0001 C CNN
F 1 "GNDD" H 1150 4050 60  0000 C CNN
F 2 "" H 1150 4200 60  0000 C CNN
F 3 "" H 1150 4200 60  0000 C CNN
	1    1150 4200
	1    0    0    -1  
$EndComp
$Comp
L GNDD #PWR215
U 1 1 54DA105A
P 4050 4000
F 0 "#PWR215" H 4050 3750 60  0001 C CNN
F 1 "GNDD" H 4050 3850 60  0000 C CNN
F 2 "" H 4050 4000 60  0000 C CNN
F 3 "" H 4050 4000 60  0000 C CNN
	1    4050 4000
	1    0    0    -1  
$EndComp
$Comp
L GNDD #PWR221
U 1 1 54DA12D4
P 5850 4250
F 0 "#PWR221" H 5850 4000 60  0001 C CNN
F 1 "GNDD" H 5850 4100 60  0000 C CNN
F 2 "" H 5850 4250 60  0000 C CNN
F 3 "" H 5850 4250 60  0000 C CNN
	1    5850 4250
	1    0    0    -1  
$EndComp
$Comp
L GNDD #PWR202
U 1 1 54DA1308
P 1150 2200
F 0 "#PWR202" H 1150 1950 60  0001 C CNN
F 1 "GNDD" H 1150 2050 60  0000 C CNN
F 2 "" H 1150 2200 60  0000 C CNN
F 3 "" H 1150 2200 60  0000 C CNN
	1    1150 2200
	1    0    0    -1  
$EndComp
$Comp
L VCC #PWR201
U 1 1 54DA4B8B
P 950 1450
F 0 "#PWR201" H 950 1300 60  0001 C CNN
F 1 "VCC" H 950 1600 60  0000 C CNN
F 2 "" H 950 1450 60  0000 C CNN
F 3 "" H 950 1450 60  0000 C CNN
	1    950  1450
	1    0    0    -1  
$EndComp
$Comp
L GNDD #PWR205
U 1 1 54DA689D
P 1500 4200
F 0 "#PWR205" H 1500 3950 60  0001 C CNN
F 1 "GNDD" H 1500 4050 60  0000 C CNN
F 2 "" H 1500 4200 60  0000 C CNN
F 3 "" H 1500 4200 60  0000 C CNN
	1    1500 4200
	1    0    0    -1  
$EndComp
$Comp
L GNDD #PWR227
U 1 1 54DA7D4A
P 6450 4250
F 0 "#PWR227" H 6450 4000 60  0001 C CNN
F 1 "GNDD" H 6450 4100 60  0000 C CNN
F 2 "" H 6450 4250 60  0000 C CNN
F 3 "" H 6450 4250 60  0000 C CNN
	1    6450 4250
	1    0    0    -1  
$EndComp
Text Notes 800  850  0    118  ~ 0
Power Supply
$Comp
L VCC #PWR217
U 1 1 54E988AC
P 4400 5850
F 0 "#PWR217" H 4400 5700 60  0001 C CNN
F 1 "VCC" H 4400 6000 60  0000 C CNN
F 2 "" H 4400 5850 60  0000 C CNN
F 3 "" H 4400 5850 60  0000 C CNN
	1    4400 5850
	1    0    0    -1  
$EndComp
$Comp
L PWR_FLAG #FLG201
U 1 1 54E9EF28
P 1250 1450
F 0 "#FLG201" H 1250 1545 30  0001 C CNN
F 1 "PWR_FLAG" H 1250 1630 30  0000 C CNN
F 2 "" H 1250 1450 60  0000 C CNN
F 3 "" H 1250 1450 60  0000 C CNN
	1    1250 1450
	1    0    0    -1  
$EndComp
$Comp
L GNDD #PWR206
U 1 1 54E53D95
P 1750 7050
F 0 "#PWR206" H 1750 6800 60  0001 C CNN
F 1 "GNDD" H 1750 6900 60  0000 C CNN
F 2 "" H 1750 7050 60  0000 C CNN
F 3 "" H 1750 7050 60  0000 C CNN
	1    1750 7050
	1    0    0    -1  
$EndComp
$Comp
L GNDD #PWR216
U 1 1 54E5499B
P 4200 6900
F 0 "#PWR216" H 4200 6650 60  0001 C CNN
F 1 "GNDD" H 4200 6750 60  0000 C CNN
F 2 "" H 4200 6900 60  0000 C CNN
F 3 "" H 4200 6900 60  0000 C CNN
	1    4200 6900
	1    0    0    -1  
$EndComp
$Comp
L GNDD #PWR213
U 1 1 54E562EF
P 3750 7400
F 0 "#PWR213" H 3750 7150 60  0001 C CNN
F 1 "GNDD" H 3750 7250 60  0000 C CNN
F 2 "" H 3750 7400 60  0000 C CNN
F 3 "" H 3750 7400 60  0000 C CNN
	1    3750 7400
	1    0    0    -1  
$EndComp
Text Notes 1200 5950 0    60   ~ 0
4.5V-15V input voltage range\nMaximum current draw:\n1.1A @ 4.5V\n0.4A @ 15V
$Comp
L LED D202
U 1 1 54E5948E
P 6000 6900
F 0 "D202" H 6000 7000 50  0000 C CNN
F 1 "Green LED 1206" H 6000 7100 50  0000 C CNN
F 2 "MyKiCadLibs-Footprints:SMD-1206" H 6000 6900 60  0001 C CNN
F 3 "" H 6000 6900 60  0000 C CNN
F 4 "1206" H 6000 6900 60  0001 C CNN "Size"
F 5 "Green LED - SMD - Vf 1.8V to 2.2V" H 6000 6900 60  0001 C CNN "Description"
	1    6000 6900
	0    1    1    0   
$EndComp
$Comp
L GNDD #PWR223
U 1 1 54E5949B
P 6000 7150
F 0 "#PWR223" H 6000 6900 60  0001 C CNN
F 1 "GNDD" H 6000 7000 60  0000 C CNN
F 2 "" H 6000 7150 60  0000 C CNN
F 3 "" H 6000 7150 60  0000 C CNN
	1    6000 7150
	1    0    0    -1  
$EndComp
Text Notes 1200 5550 0    118  ~ 0
Power Input
Text Notes 800  1000 0    60   ~ 0
Two SMPS generate 3v3 and 1v0
$Comp
L GNDD #PWR225
U 1 1 5631F912
P 6150 4250
F 0 "#PWR225" H 6150 4000 60  0001 C CNN
F 1 "GNDD" H 6150 4100 60  0000 C CNN
F 2 "" H 6150 4250 60  0000 C CNN
F 3 "" H 6150 4250 60  0000 C CNN
	1    6150 4250
	1    0    0    -1  
$EndComp
Text Notes 5775 3400 0    60   ~ 0
1.0V 1.5A Supply
Text Notes 8550 2350 0    60   ~ 0
External 3V3 connections.\nDo not overload these!\nRecommend 100mA max.\n
$Comp
L MNT_HOLE MNT201
U 1 1 56E77C6A
P 8550 5850
F 0 "MNT201" H 8550 5950 60  0000 C CNN
F 1 "MNT_HOLE" H 8550 5950 60  0001 C CNN
F 2 "MyKiCadLibs-Footprints:MNT_HOLE_3.2mm" H 8550 5950 60  0001 C CNN
F 3 "" H 8550 5950 60  0000 C CNN
F 4 "Mounting hole" H 8550 5850 60  0001 C CNN "Description"
	1    8550 5850
	1    0    0    -1  
$EndComp
Text Notes 8350 5650 0    60   ~ 0
Mounting Holes and Fiducials
$Comp
L MNT_HOLE FID201
U 1 1 56E9E8FD
P 9350 5850
F 0 "FID201" H 9350 5950 60  0000 C CNN
F 1 "MNT_HOLE" H 9350 5950 60  0001 C CNN
F 2 "MyKiCadLibs-Footprints:FID-1MM-3MM" H 9350 5950 60  0001 C CNN
F 3 "" H 9350 5950 60  0000 C CNN
F 4 "Fiducial" H 9350 5850 60  0001 C CNN "Description"
	1    9350 5850
	1    0    0    -1  
$EndComp
$Comp
L CP1 C201
U 1 1 5714CF67
P 1150 1950
F 0 "C201" H 1200 2050 50  0000 L CNN
F 1 "220u" H 1200 1850 50  0000 L CNN
F 2 "MyKiCadLibs-Footprints:CAP-TH-D6.3mmP2.5mm" H 1150 1950 60  0001 C CNN
F 3 "" H 1150 1950 60  0000 C CNN
F 4 "16V" H 1205 1765 50  0000 L CNN "Voltage"
F 5 "2.5mm pitch, 6.3mm diameter" H 1150 2250 40  0001 L CNN "Type"
F 6 "Aluminium electrolytic capacitor" H 1150 2350 40  0001 L CNN "Description"
	1    1150 1950
	1    0    0    -1  
$EndComp
$Comp
L CP1 C210
U 1 1 5714D6B3
P 4200 6600
F 0 "C210" H 4250 6700 50  0000 L CNN
F 1 "220u" H 4250 6500 50  0000 L CNN
F 2 "MyKiCadLibs-Footprints:CAP-TH-D6.3mmP2.5mm" H 4200 6600 60  0001 C CNN
F 3 "" H 4200 6600 60  0000 C CNN
F 4 "16V" H 4255 6415 50  0000 L CNN "Voltage"
F 5 "2.5mm pitch, 6.3mm diameter" H 4200 6900 40  0001 L CNN "Type"
F 6 "Aluminium electrolytic capacitor" H 4200 7000 40  0001 L CNN "Description"
	1    4200 6600
	1    0    0    -1  
$EndComp
$Comp
L C C209
U 1 1 57156536
P 3750 7150
F 0 "C209" H 3750 7250 40  0000 L CNN
F 1 "100p" H 3760 7065 40  0000 L CNN
F 2 "MyKiCadLibs-Footprints:SMD-0805" H 3788 7000 30  0001 C CNN
F 3 "" H 3750 7250 60  0000 C CNN
F 4 "50V" H 3815 7000 40  0000 C CNN "Voltage"
F 5 "C0G" H 3820 6925 40  0000 C CNN "Type"
F 6 "Ceramic capacitor" H 3750 7450 40  0001 L CNN "Description"
F 7 "5%" H 4150 7650 40  0001 C CNN "Tolerance"
F 8 "0805" H 3750 7150 60  0001 C CNN "Size"
	1    3750 7150
	1    0    0    -1  
$EndComp
$Comp
L CP1 C227
U 1 1 5715DFCB
P 6800 4000
F 0 "C227" H 6850 4100 50  0000 L CNN
F 1 "220u" H 6850 3900 50  0000 L CNN
F 2 "MyKiCadLibs-Footprints:CAP-TH-D6.3mmP2.5mm" H 6800 4000 60  0001 C CNN
F 3 "" H 6800 4000 60  0000 C CNN
F 4 "10V" H 6855 3815 50  0000 L CNN "Voltage"
F 5 "2.5mm pitch, 6.3mm diameter" H 6800 4300 40  0001 L CNN "Type"
F 6 "Low impedance aluminium electrolytic capacitor - Panasonic FC, FR or similar" H 6800 4400 40  0001 L CNN "Description"
	1    6800 4000
	1    0    0    -1  
$EndComp
$Comp
L INDUCTOR L201
U 1 1 571725F8
P 3200 6300
F 0 "L201" V 3150 6300 40  0000 C CNN
F 1 "600R@100MHz" V 3300 6300 40  0000 C CNN
F 2 "MyKiCadLibs-Footprints:SMD-0805" H 3200 6300 60  0001 C CNN
F 3 "" H 3200 6300 60  0000 C CNN
F 4 "=>1A" V 3350 6300 40  0000 C CNN "Current"
F 5 "Ferrite bead, current rating 1A or higher, 600R@100MHz" V 3400 6350 40  0001 C CNN "Description"
F 6 "0805" V 3200 6300 60  0001 C CNN "Size"
	1    3200 6300
	0    -1   -1   0   
$EndComp
$Comp
L CONN_2x1 P201
U 1 1 57182425
P 1700 6300
F 0 "P201" V 2195 6145 40  0000 C CNN
F 1 "CONN_2x1" V 2140 6260 40  0000 C CNN
F 2 "MyKiCadLibs-Footprints:CONN-2WAY-2.54mm-3.81mm-SPACING" H 2040 6190 60  0001 C CNN
F 3 "" H 2040 6190 60  0000 C CNN
F 4 "2 way screw terminal, any 2.54mm to 3.81mm pitch part" H 1950 6050 40  0001 C CNN "Description"
	1    1700 6300
	-1   0    0    -1  
$EndComp
$Comp
L CONN_2x1 P202
U 1 1 5718A88A
P 9250 2650
F 0 "P202" V 9745 2495 40  0000 C CNN
F 1 "CONN_2x1" V 9690 2610 40  0000 C CNN
F 2 "MyKiCadLibs-Footprints:CONN_SIL_2_1MM" H 9590 2540 60  0001 C CNN
F 3 "" H 9590 2540 60  0000 C CNN
F 4 "1x2 2.54mm pitch pin header" H 9500 2400 40  0001 C CNN "Description"
	1    9250 2650
	1    0    0    -1  
$EndComp
$Comp
L C C212
U 1 1 57145274
P 4950 6600
F 0 "C212" H 4950 6700 40  0000 L CNN
F 1 "100n" H 4960 6515 40  0000 L CNN
F 2 "MyKiCadLibs-Footprints:SMD-0805" H 4988 6450 30  0001 C CNN
F 3 "" H 4950 6700 60  0000 C CNN
F 4 "50V" H 5015 6450 40  0000 C CNN "Voltage"
F 5 "X7R" H 5020 6375 40  0000 C CNN "Type"
F 6 "Ceramic capacitor" H 4950 6900 40  0001 L CNN "Description"
F 7 "10%" H 5350 7100 40  0001 C CNN "Tolerance"
F 8 "0805" H 4950 6600 60  0001 C CNN "Size"
	1    4950 6600
	1    0    0    1   
$EndComp
$Comp
L C C211
U 1 1 5714560E
P 4600 6600
F 0 "C211" H 4600 6700 40  0000 L CNN
F 1 "22u" H 4610 6515 40  0000 L CNN
F 2 "MyKiCadLibs-Footprints:SMD-0805" H 4638 6450 30  0001 C CNN
F 3 "" H 4600 6700 60  0000 C CNN
F 4 "25V" H 4665 6450 40  0000 C CNN "Voltage"
F 5 "X5R" H 4670 6375 40  0000 C CNN "Type"
F 6 "Ceramic capacitor" H 4600 6900 40  0001 L CNN "Description"
F 7 "20%" H 5000 7100 40  0001 C CNN "Tolerance"
F 8 "0805" H 4600 6600 60  0001 C CNN "Size"
	1    4600 6600
	1    0    0    1   
$EndComp
$Comp
L C C231
U 1 1 57146B36
P 8650 3150
F 0 "C231" H 8650 3250 40  0000 L CNN
F 1 "100n" H 8660 3065 40  0000 L CNN
F 2 "MyKiCadLibs-Footprints:SMD-0805" H 8688 3000 30  0001 C CNN
F 3 "" H 8650 3250 60  0000 C CNN
F 4 "50V" H 8715 3000 40  0000 C CNN "Voltage"
F 5 "X7R" H 8720 2925 40  0000 C CNN "Type"
F 6 "Ceramic capacitor" H 8650 3450 40  0001 L CNN "Description"
F 7 "10%" H 9050 3650 40  0001 C CNN "Tolerance"
F 8 "0805" H 8650 3150 60  0001 C CNN "Size"
	1    8650 3150
	1    0    0    -1  
$EndComp
$Comp
L C C218
U 1 1 57149DB2
P 5850 4000
F 0 "C218" H 5850 4100 40  0000 L CNN
F 1 "22u" H 5860 3915 40  0000 L CNN
F 2 "MyKiCadLibs-Footprints:SMD-0805" H 5888 3850 30  0001 C CNN
F 3 "" H 5850 4100 60  0000 C CNN
F 4 "10V" H 5915 3850 40  0000 C CNN "Voltage"
F 5 "X5R" H 5920 3775 40  0000 C CNN "Type"
F 6 "Ceramic capacitor" H 5850 4300 40  0001 L CNN "Description"
F 7 "20%" H 6250 4500 40  0001 C CNN "Tolerance"
F 8 "0805" H 5850 4000 60  0001 C CNN "Size"
	1    5850 4000
	1    0    0    -1  
$EndComp
$Comp
L C C221
U 1 1 57149EE6
P 6150 4000
F 0 "C221" H 6150 4100 40  0000 L CNN
F 1 "22u" H 6160 3915 40  0000 L CNN
F 2 "MyKiCadLibs-Footprints:SMD-0805" H 6188 3850 30  0001 C CNN
F 3 "" H 6150 4100 60  0000 C CNN
F 4 "10V" H 6215 3850 40  0000 C CNN "Voltage"
F 5 "X5R" H 6220 3775 40  0000 C CNN "Type"
F 6 "Ceramic capacitor" H 6150 4300 40  0001 L CNN "Description"
F 7 "20%" H 6550 4500 40  0001 C CNN "Tolerance"
F 8 "0805" H 6150 4000 60  0001 C CNN "Size"
	1    6150 4000
	1    0    0    -1  
$EndComp
$Comp
L C C224
U 1 1 57149FF1
P 6450 4000
F 0 "C224" H 6450 4100 40  0000 L CNN
F 1 "100n" H 6460 3915 40  0000 L CNN
F 2 "MyKiCadLibs-Footprints:SMD-0805" H 6488 3850 30  0001 C CNN
F 3 "" H 6450 4100 60  0000 C CNN
F 4 "50V" H 6515 3850 40  0000 C CNN "Voltage"
F 5 "X7R" H 6520 3775 40  0000 C CNN "Type"
F 6 "Ceramic capacitor" H 6450 4300 40  0001 L CNN "Description"
F 7 "10%" H 6850 4500 40  0001 C CNN "Tolerance"
F 8 "0805" H 6450 4000 60  0001 C CNN "Size"
	1    6450 4000
	1    0    0    -1  
$EndComp
$Comp
L C C205
U 1 1 5714C4A0
P 1500 3950
F 0 "C205" H 1500 4050 40  0000 L CNN
F 1 "100n" H 1510 3865 40  0000 L CNN
F 2 "MyKiCadLibs-Footprints:SMD-0805" H 1538 3800 30  0001 C CNN
F 3 "" H 1500 4050 60  0000 C CNN
F 4 "50V" H 1565 3800 40  0000 C CNN "Voltage"
F 5 "X7R" H 1570 3725 40  0000 C CNN "Type"
F 6 "Ceramic capacitor" H 1500 4250 40  0001 L CNN "Description"
F 7 "10%" H 1900 4450 40  0001 C CNN "Tolerance"
F 8 "0805" H 1500 3950 60  0001 C CNN "Size"
	1    1500 3950
	1    0    0    1   
$EndComp
$Comp
L C C202
U 1 1 5714C4AB
P 1150 3950
F 0 "C202" H 1150 4050 40  0000 L CNN
F 1 "22u" H 1160 3865 40  0000 L CNN
F 2 "MyKiCadLibs-Footprints:SMD-0805" H 1188 3800 30  0001 C CNN
F 3 "" H 1150 4050 60  0000 C CNN
F 4 "25V" H 1215 3800 40  0000 C CNN "Voltage"
F 5 "X5R" H 1220 3725 40  0000 C CNN "Type"
F 6 "Ceramic capacitor" H 1150 4250 40  0001 L CNN "Description"
F 7 "20%" H 1550 4450 40  0001 C CNN "Tolerance"
F 8 "0805" H 1150 3950 60  0001 C CNN "Size"
	1    1150 3950
	1    0    0    1   
$EndComp
$Comp
L R R201
U 1 1 570EE68B
P 2200 3900
F 0 "R201" V 2100 3900 40  0000 C CNN
F 1 "1k" V 2207 3901 40  0000 C CNN
F 2 "MyKiCadLibs-Footprints:SMD-0805" V 2130 3900 30  0001 C CNN
F 3 "" V 2120 3900 30  0000 C CNN
F 4 "100mW" V 2300 3900 40  0001 C CNN "Power"
F 5 "Thick or thin film resistor" V 2445 3900 40  0001 C CNN "Description"
F 6 "0805" V 2375 3900 40  0001 C CNN "Size"
F 7 "1%" V 2525 3900 40  0001 C CNN "Tolerance"
	1    2200 3900
	0    1    1    0   
$EndComp
$Comp
L R R206
U 1 1 570F0188
P 5250 3600
F 0 "R206" V 5200 3900 40  0000 C CNN
F 1 "8k25" V 5257 3601 40  0000 C CNN
F 2 "MyKiCadLibs-Footprints:SMD-0805" V 5180 3600 30  0001 C CNN
F 3 "" V 5170 3600 30  0000 C CNN
F 4 "100mW" V 5350 3600 40  0001 C CNN "Power"
F 5 "Thick or thin film resistor" V 5495 3600 40  0001 C CNN "Description"
F 6 "0805" V 5425 3600 40  0001 C CNN "Size"
F 7 "1%" V 5575 3600 40  0001 C CNN "Tolerance"
	1    5250 3600
	0    -1   1    0   
$EndComp
$Comp
L R R207
U 1 1 570F087A
P 5250 4000
F 0 "R207" V 5200 3700 40  0000 C CNN
F 1 "33k" V 5257 4001 40  0000 C CNN
F 2 "MyKiCadLibs-Footprints:SMD-0805" V 5180 4000 30  0001 C CNN
F 3 "" V 5170 4000 30  0000 C CNN
F 4 "100mW" V 5350 4000 40  0001 C CNN "Power"
F 5 "Thick or thin film resistor" V 5495 4000 40  0001 C CNN "Description"
F 6 "0805" V 5425 4000 40  0001 C CNN "Size"
F 7 "1%" V 5575 4000 40  0001 C CNN "Tolerance"
	1    5250 4000
	0    1    1    0   
$EndComp
$Comp
L R R208
U 1 1 570F0CC7
P 5250 4200
F 0 "R208" V 5200 4500 40  0000 C CNN
F 1 "0" V 5257 4201 40  0000 C CNN
F 2 "MyKiCadLibs-Footprints:SMD-0805" V 5180 4200 30  0001 C CNN
F 3 "" V 5170 4200 30  0000 C CNN
F 4 "100mW" V 5350 4200 40  0001 C CNN "Power"
F 5 "Thick or thin film resistor" V 5495 4200 40  0001 C CNN "Description"
F 6 "0805" V 5425 4200 40  0001 C CNN "Size"
F 7 "1%" V 5575 4200 40  0001 C CNN "Tolerance"
	1    5250 4200
	0    -1   1    0   
$EndComp
$Comp
L R R205
U 1 1 570E49A4
P 3750 6600
F 0 "R205" V 3670 6600 40  0000 C CNN
F 1 "47" V 3757 6601 40  0000 C CNN
F 2 "MyKiCadLibs-Footprints:SMD-0805" V 3680 6600 30  0001 C CNN
F 3 "" V 3670 6600 30  0000 C CNN
F 4 "100mW" V 3850 6600 40  0001 C CNN "Power"
F 5 "Thick or thin film resistor" V 3995 6600 40  0001 C CNN "Description"
F 6 "0805" V 3925 6600 40  0001 C CNN "Size"
F 7 "1%" V 4075 6600 40  0001 C CNN "Tolerance"
	1    3750 6600
	1    0    0    -1  
$EndComp
$Comp
L R R215
U 1 1 570E4DCF
P 6000 6350
F 0 "R215" V 5920 6350 40  0000 C CNN
F 1 "220" V 6007 6351 40  0000 C CNN
F 2 "MyKiCadLibs-Footprints:SMD-0805" V 5930 6350 30  0001 C CNN
F 3 "" V 5920 6350 30  0000 C CNN
F 4 "100mW" V 6100 6350 40  0001 C CNN "Power"
F 5 "Thick or thin film resistor" V 6245 6350 40  0001 C CNN "Description"
F 6 "0805" V 6175 6350 40  0001 C CNN "Size"
F 7 "1%" V 6325 6350 40  0001 C CNN "Tolerance"
	1    6000 6350
	1    0    0    -1  
$EndComp
$Comp
L SCHOTTKY_DIODE D201
U 1 1 57194B07
P 2450 6300
F 0 "D201" H 2450 6400 40  0000 C CNN
F 1 "B240A" H 2450 6200 40  0000 C CNN
F 2 "MyKiCadLibs-Footprints:DIODE-SMA" H 2450 6300 60  0001 C CNN
F 3 "~" H 2450 6300 60  0000 C CNN
F 4 "B240A 2A 40V Schottky Rectifier - SMA (DO-214AC)" H 2450 6300 60  0001 C CNN "Description"
	1    2450 6300
	1    0    0    -1  
$EndComp
$Comp
L MNT_HOLE MNT203
U 1 1 5727A158
P 8950 5850
F 0 "MNT203" H 8950 5950 60  0000 C CNN
F 1 "MNT_HOLE" H 8950 5950 60  0001 C CNN
F 2 "MyKiCadLibs-Footprints:MNT_HOLE_3.2mm" H 8950 5950 60  0001 C CNN
F 3 "" H 8950 5950 60  0000 C CNN
F 4 "Mounting hole" H 8950 5850 60  0001 C CNN "Description"
	1    8950 5850
	1    0    0    -1  
$EndComp
$Comp
L MNT_HOLE MNT202
U 1 1 5727A361
P 8550 6100
F 0 "MNT202" H 8550 6200 60  0000 C CNN
F 1 "MNT_HOLE" H 8550 6200 60  0001 C CNN
F 2 "MyKiCadLibs-Footprints:MNT_HOLE_3.2mm" H 8550 6200 60  0001 C CNN
F 3 "" H 8550 6200 60  0000 C CNN
F 4 "Mounting hole" H 8550 6100 60  0001 C CNN "Description"
	1    8550 6100
	1    0    0    -1  
$EndComp
$Comp
L MNT_HOLE MNT204
U 1 1 5727A63C
P 8950 6100
F 0 "MNT204" H 8950 6200 60  0000 C CNN
F 1 "MNT_HOLE" H 8950 6200 60  0001 C CNN
F 2 "MyKiCadLibs-Footprints:MNT_HOLE_3.2mm" H 8950 6200 60  0001 C CNN
F 3 "" H 8950 6200 60  0000 C CNN
F 4 "Mounting hole" H 8950 6100 60  0001 C CNN "Description"
	1    8950 6100
	1    0    0    -1  
$EndComp
$Comp
L MNT_HOLE FID203
U 1 1 5727AC23
P 9750 5850
F 0 "FID203" H 9750 5950 60  0000 C CNN
F 1 "MNT_HOLE" H 9750 5950 60  0001 C CNN
F 2 "MyKiCadLibs-Footprints:FID-1MM-3MM" H 9750 5950 60  0001 C CNN
F 3 "" H 9750 5950 60  0000 C CNN
F 4 "Fiducial" H 9750 5850 60  0001 C CNN "Description"
	1    9750 5850
	1    0    0    -1  
$EndComp
$Comp
L GNDD #PWR231
U 1 1 57C8E726
P 6800 4250
F 0 "#PWR231" H 6800 4000 60  0001 C CNN
F 1 "GNDD" H 6800 4100 60  0000 C CNN
F 2 "" H 6800 4250 60  0000 C CNN
F 3 "" H 6800 4250 60  0000 C CNN
	1    6800 4250
	1    0    0    -1  
$EndComp
$Comp
L GNDD #PWR219
U 1 1 57C8EBB7
P 4800 4250
F 0 "#PWR219" H 4800 4000 60  0001 C CNN
F 1 "GNDD" H 4800 4100 60  0000 C CNN
F 2 "" H 4800 4250 60  0000 C CNN
F 3 "" H 4800 4250 60  0000 C CNN
	1    4800 4250
	1    0    0    -1  
$EndComp
$Comp
L GNDD #PWR204
U 1 1 57C95C77
P 1450 2250
F 0 "#PWR204" H 1450 2000 60  0001 C CNN
F 1 "GNDD" H 1450 2100 60  0000 C CNN
F 2 "" H 1450 2250 60  0000 C CNN
F 3 "" H 1450 2250 60  0000 C CNN
	1    1450 2250
	1    0    0    -1  
$EndComp
$Comp
L GNDD #PWR214
U 1 1 57C95C7D
P 4050 2050
F 0 "#PWR214" H 4050 1800 60  0001 C CNN
F 1 "GNDD" H 4050 1900 60  0000 C CNN
F 2 "" H 4050 2050 60  0000 C CNN
F 3 "" H 4050 2050 60  0000 C CNN
	1    4050 2050
	1    0    0    -1  
$EndComp
$Comp
L GNDD #PWR220
U 1 1 57C95C83
P 5850 2300
F 0 "#PWR220" H 5850 2050 60  0001 C CNN
F 1 "GNDD" H 5850 2150 60  0000 C CNN
F 2 "" H 5850 2300 60  0000 C CNN
F 3 "" H 5850 2300 60  0000 C CNN
	1    5850 2300
	1    0    0    -1  
$EndComp
$Comp
L GNDD #PWR207
U 1 1 57C95C8F
P 1800 2250
F 0 "#PWR207" H 1800 2000 60  0001 C CNN
F 1 "GNDD" H 1800 2100 60  0000 C CNN
F 2 "" H 1800 2250 60  0000 C CNN
F 3 "" H 1800 2250 60  0000 C CNN
	1    1800 2250
	1    0    0    -1  
$EndComp
$Comp
L GNDD #PWR226
U 1 1 57C95C95
P 6450 2300
F 0 "#PWR226" H 6450 2050 60  0001 C CNN
F 1 "GNDD" H 6450 2150 60  0000 C CNN
F 2 "" H 6450 2300 60  0000 C CNN
F 3 "" H 6450 2300 60  0000 C CNN
	1    6450 2300
	1    0    0    -1  
$EndComp
$Comp
L GNDD #PWR224
U 1 1 57C95C9B
P 6150 2300
F 0 "#PWR224" H 6150 2050 60  0001 C CNN
F 1 "GNDD" H 6150 2150 60  0000 C CNN
F 2 "" H 6150 2300 60  0000 C CNN
F 3 "" H 6150 2300 60  0000 C CNN
	1    6150 2300
	1    0    0    -1  
$EndComp
Text Notes 5925 1450 0    60   ~ 0
3.3V 1A Supply
$Comp
L CP1 C229
U 1 1 57C95CB0
P 6800 2050
F 0 "C229" H 6850 2150 50  0000 L CNN
F 1 "220u" H 6850 1950 50  0000 L CNN
F 2 "MyKiCadLibs-Footprints:CAP-TH-D6.3mmP2.5mm" H 6800 2050 60  0001 C CNN
F 3 "" H 6800 2050 60  0000 C CNN
F 4 "10V" H 6855 1865 50  0000 L CNN "Voltage"
F 5 "2.5mm pitch, 6.3mm diameter" H 6800 2350 40  0001 L CNN "Type"
F 6 "Low impedance aluminium electrolytic capacitor - Panasonic FC, FR or similar" H 6800 2450 40  0001 L CNN "Description"
	1    6800 2050
	1    0    0    -1  
$EndComp
$Comp
L INDUCTOR L204
U 1 1 57C95CB8
P 4350 1550
F 0 "L204" V 4300 1550 40  0000 C CNN
F 1 "DR0608-153L" V 4450 1550 40  0000 C CNN
F 2 "MyKiCadLibs-Footprints:IND-TH-DR0608" H 4350 1550 60  0001 C CNN
F 3 "" H 4350 1550 60  0000 C CNN
F 4 "2.7A" V 4500 1550 40  0001 C CNN "Current"
F 5 "Coilcraft DR0608-153L DCR=0.052Ohm Isat=2.7A Irms=2.7A" V 4550 1600 40  0001 C CNN "Description"
	1    4350 1550
	0    -1   -1   0   
$EndComp
$Comp
L C C220
U 1 1 57C95CC3
P 5850 2050
F 0 "C220" H 5850 2150 40  0000 L CNN
F 1 "22u" H 5860 1965 40  0000 L CNN
F 2 "MyKiCadLibs-Footprints:SMD-0805" H 5888 1900 30  0001 C CNN
F 3 "" H 5850 2150 60  0000 C CNN
F 4 "10V" H 5915 1900 40  0000 C CNN "Voltage"
F 5 "X5R" H 5920 1825 40  0000 C CNN "Type"
F 6 "Ceramic capacitor" H 5850 2350 40  0001 L CNN "Description"
F 7 "20%" H 6250 2550 40  0001 C CNN "Tolerance"
F 8 "0805" H 5850 2050 60  0001 C CNN "Size"
	1    5850 2050
	1    0    0    -1  
$EndComp
$Comp
L C C223
U 1 1 57C95CCE
P 6150 2050
F 0 "C223" H 6150 2150 40  0000 L CNN
F 1 "22u" H 6160 1965 40  0000 L CNN
F 2 "MyKiCadLibs-Footprints:SMD-0805" H 6188 1900 30  0001 C CNN
F 3 "" H 6150 2150 60  0000 C CNN
F 4 "10V" H 6215 1900 40  0000 C CNN "Voltage"
F 5 "X5R" H 6220 1825 40  0000 C CNN "Type"
F 6 "Ceramic capacitor" H 6150 2350 40  0001 L CNN "Description"
F 7 "20%" H 6550 2550 40  0001 C CNN "Tolerance"
F 8 "0805" H 6150 2050 60  0001 C CNN "Size"
	1    6150 2050
	1    0    0    -1  
$EndComp
$Comp
L C C226
U 1 1 57C95CD9
P 6450 2050
F 0 "C226" H 6450 2150 40  0000 L CNN
F 1 "100n" H 6460 1965 40  0000 L CNN
F 2 "MyKiCadLibs-Footprints:SMD-0805" H 6488 1900 30  0001 C CNN
F 3 "" H 6450 2150 60  0000 C CNN
F 4 "50V" H 6515 1900 40  0000 C CNN "Voltage"
F 5 "X7R" H 6520 1825 40  0000 C CNN "Type"
F 6 "Ceramic capacitor" H 6450 2350 40  0001 L CNN "Description"
F 7 "10%" H 6850 2550 40  0001 C CNN "Tolerance"
F 8 "0805" H 6450 2050 60  0001 C CNN "Size"
	1    6450 2050
	1    0    0    -1  
$EndComp
$Comp
L C C207
U 1 1 57C95CE4
P 1800 2000
F 0 "C207" H 1800 2100 40  0000 L CNN
F 1 "100n" H 1810 1915 40  0000 L CNN
F 2 "MyKiCadLibs-Footprints:SMD-0805" H 1838 1850 30  0001 C CNN
F 3 "" H 1800 2100 60  0000 C CNN
F 4 "50V" H 1865 1850 40  0000 C CNN "Voltage"
F 5 "X7R" H 1870 1775 40  0000 C CNN "Type"
F 6 "Ceramic capacitor" H 1800 2300 40  0001 L CNN "Description"
F 7 "10%" H 2200 2500 40  0001 C CNN "Tolerance"
F 8 "0805" H 1800 2000 60  0001 C CNN "Size"
	1    1800 2000
	1    0    0    1   
$EndComp
$Comp
L C C204
U 1 1 57C95CEF
P 1450 2000
F 0 "C204" H 1450 2100 40  0000 L CNN
F 1 "22u" H 1460 1915 40  0000 L CNN
F 2 "MyKiCadLibs-Footprints:SMD-0805" H 1488 1850 30  0001 C CNN
F 3 "" H 1450 2100 60  0000 C CNN
F 4 "25V" H 1515 1850 40  0000 C CNN "Voltage"
F 5 "X5R" H 1520 1775 40  0000 C CNN "Type"
F 6 "Ceramic capacitor" H 1450 2300 40  0001 L CNN "Description"
F 7 "20%" H 1850 2500 40  0001 C CNN "Tolerance"
F 8 "0805" H 1450 2000 60  0001 C CNN "Size"
	1    1450 2000
	1    0    0    1   
$EndComp
$Comp
L R R212
U 1 1 57C95D03
P 5250 1650
F 0 "R212" V 5200 1950 40  0000 C CNN
F 1 "36k" V 5257 1651 40  0000 C CNN
F 2 "MyKiCadLibs-Footprints:SMD-0805" V 5180 1650 30  0001 C CNN
F 3 "" V 5170 1650 30  0000 C CNN
F 4 "100mW" V 5350 1650 40  0001 C CNN "Power"
F 5 "Thick or thin film resistor" V 5495 1650 40  0001 C CNN "Description"
F 6 "0805" V 5425 1650 40  0001 C CNN "Size"
F 7 "1%" V 5575 1650 40  0001 C CNN "Tolerance"
	1    5250 1650
	0    -1   1    0   
$EndComp
$Comp
L R R213
U 1 1 57C95D0D
P 5250 2050
F 0 "R213" V 5200 1750 40  0000 C CNN
F 1 "11k5" V 5257 2051 40  0000 C CNN
F 2 "MyKiCadLibs-Footprints:SMD-0805" V 5180 2050 30  0001 C CNN
F 3 "" V 5170 2050 30  0000 C CNN
F 4 "100mW" V 5350 2050 40  0001 C CNN "Power"
F 5 "Thick or thin film resistor" V 5495 2050 40  0001 C CNN "Description"
F 6 "0805" V 5425 2050 40  0001 C CNN "Size"
F 7 "1%" V 5575 2050 40  0001 C CNN "Tolerance"
	1    5250 2050
	0    1    1    0   
$EndComp
$Comp
L R R214
U 1 1 57C95D17
P 5250 2250
F 0 "R214" V 5200 2550 40  0000 C CNN
F 1 "0" V 5257 2251 40  0000 C CNN
F 2 "MyKiCadLibs-Footprints:SMD-0805" V 5180 2250 30  0001 C CNN
F 3 "" V 5170 2250 30  0000 C CNN
F 4 "100mW" V 5350 2250 40  0001 C CNN "Power"
F 5 "Thick or thin film resistor" V 5495 2250 40  0001 C CNN "Description"
F 6 "0805" V 5425 2250 40  0001 C CNN "Size"
F 7 "1%" V 5575 2250 40  0001 C CNN "Tolerance"
	1    5250 2250
	0    -1   1    0   
$EndComp
$Comp
L GNDD #PWR229
U 1 1 57C95D2C
P 6800 2300
F 0 "#PWR229" H 6800 2050 60  0001 C CNN
F 1 "GNDD" H 6800 2150 60  0000 C CNN
F 2 "" H 6800 2300 60  0000 C CNN
F 3 "" H 6800 2300 60  0000 C CNN
	1    6800 2300
	1    0    0    -1  
$EndComp
$Comp
L GNDD #PWR218
U 1 1 57C95D3F
P 4800 2300
F 0 "#PWR218" H 4800 2050 60  0001 C CNN
F 1 "GNDD" H 4800 2150 60  0000 C CNN
F 2 "" H 4800 2300 60  0000 C CNN
F 3 "" H 4800 2300 60  0000 C CNN
	1    4800 2300
	1    0    0    -1  
$EndComp
$Comp
L +3V3 #PWR228
U 1 1 57C9AC91
P 6800 1450
F 0 "#PWR228" H 6800 1300 50  0001 C CNN
F 1 "+3V3" H 6800 1590 50  0000 C CNN
F 2 "" H 6800 1450 50  0000 C CNN
F 3 "" H 6800 1450 50  0000 C CNN
	1    6800 1450
	1    0    0    -1  
$EndComp
$Comp
L +3V3 #PWR232
U 1 1 57C9B6AD
P 8650 2600
F 0 "#PWR232" H 8650 2450 50  0001 C CNN
F 1 "+3V3" H 8650 2740 50  0000 C CNN
F 2 "" H 8650 2600 50  0000 C CNN
F 3 "" H 8650 2600 50  0000 C CNN
	1    8650 2600
	1    0    0    -1  
$EndComp
$Comp
L +1V0 #PWR230
U 1 1 57F3F7F9
P 6800 3450
F 0 "#PWR230" H 6800 3300 50  0001 C CNN
F 1 "+1V0" H 6800 3590 50  0000 C CNN
F 2 "" H 6800 3450 50  0000 C CNN
F 3 "" H 6800 3450 50  0000 C CNN
	1    6800 3450
	1    0    0    -1  
$EndComp
Connection ~ 4050 3900
Wire Wire Line
	4050 3900 3950 3900
Wire Wire Line
	4050 3700 4050 4000
Connection ~ 4050 1950
Wire Wire Line
	4050 1750 4050 2050
Wire Wire Line
	3950 1950 4050 1950
Connection ~ 6450 1550
Wire Wire Line
	6800 1450 6800 1850
Connection ~ 6150 1550
Connection ~ 5850 1550
Connection ~ 5850 1650
Wire Wire Line
	5500 1650 5850 1650
Wire Wire Line
	5850 1550 5850 1850
Wire Wire Line
	4650 1550 6800 1550
Wire Wire Line
	4800 2250 5000 2250
Wire Wire Line
	4800 2300 4800 2250
Wire Wire Line
	5600 2250 5500 2250
Wire Wire Line
	5600 2050 5600 2250
Wire Wire Line
	5500 2050 5600 2050
Connection ~ 4800 1650
Wire Wire Line
	4800 1650 4800 2050
Wire Wire Line
	4800 2050 5000 2050
Wire Wire Line
	3950 1650 5000 1650
Wire Wire Line
	3950 1550 4050 1550
Connection ~ 2000 1550
Wire Wire Line
	2000 1550 2000 1950
Wire Wire Line
	6800 2300 6800 2250
Wire Wire Line
	3950 1850 4050 1850
Connection ~ 2850 1550
Wire Wire Line
	2850 1550 2850 1650
Wire Wire Line
	2850 1650 2950 1650
Wire Wire Line
	1450 1550 1450 1800
Connection ~ 1450 1550
Wire Wire Line
	1450 2250 1450 2200
Wire Wire Line
	5850 2300 5850 2250
Wire Wire Line
	1800 1550 1800 1800
Connection ~ 1800 1550
Wire Wire Line
	1800 2250 1800 2200
Wire Wire Line
	6450 2300 6450 2250
Wire Wire Line
	6450 1550 6450 1850
Wire Wire Line
	6150 1550 6150 1850
Wire Wire Line
	6150 2300 6150 2250
Wire Wire Line
	950  1550 2950 1550
Connection ~ 1250 1550
Wire Wire Line
	1250 1450 1250 1550
Connection ~ 6450 3500
Wire Wire Line
	6800 3450 6800 3800
Connection ~ 6150 3500
Connection ~ 5850 3500
Connection ~ 5850 3600
Wire Wire Line
	5500 3600 5850 3600
Wire Wire Line
	5850 3500 5850 3800
Wire Wire Line
	4650 3500 6800 3500
Wire Wire Line
	4800 4200 5000 4200
Wire Wire Line
	4800 4250 4800 4200
Wire Wire Line
	5600 4200 5500 4200
Wire Wire Line
	5600 4000 5600 4200
Wire Wire Line
	5500 4000 5600 4000
Connection ~ 4800 3600
Wire Wire Line
	4800 3600 4800 4000
Wire Wire Line
	4800 4000 5000 4000
Wire Wire Line
	3950 3600 5000 3600
Wire Wire Line
	3950 3500 4050 3500
Wire Wire Line
	6800 4250 6800 4200
Wire Wire Line
	950  3500 2950 3500
Connection ~ 950  1550
Wire Wire Line
	3950 3800 4050 3800
Connection ~ 2850 3500
Wire Wire Line
	2850 3600 2850 3500
Wire Wire Line
	2950 3600 2850 3600
Wire Wire Line
	1150 3500 1150 3750
Wire Wire Line
	1150 1550 1150 1750
Connection ~ 1150 1550
Connection ~ 1150 3500
Wire Wire Line
	1150 4200 1150 4150
Wire Wire Line
	5850 4250 5850 4200
Wire Wire Line
	1150 2200 1150 2150
Wire Wire Line
	1500 3500 1500 3750
Connection ~ 1500 3500
Wire Wire Line
	1500 4200 1500 4150
Wire Wire Line
	6450 4250 6450 4200
Wire Wire Line
	1700 6300 2250 6300
Wire Wire Line
	4400 6300 4400 5850
Wire Wire Line
	4950 6300 4950 6400
Connection ~ 4400 6300
Wire Wire Line
	4600 6300 4600 6400
Connection ~ 4600 6300
Wire Wire Line
	4200 6300 4200 6400
Connection ~ 4200 6300
Wire Wire Line
	4200 6800 4200 6900
Wire Wire Line
	4600 6850 4600 6800
Connection ~ 4200 6850
Wire Wire Line
	4950 6850 4950 6800
Connection ~ 4600 6850
Wire Wire Line
	3750 6300 3750 6350
Wire Wire Line
	3750 6850 3750 6950
Connection ~ 3750 6300
Wire Wire Line
	3750 7400 3750 7350
Wire Wire Line
	1750 6400 1700 6400
Wire Wire Line
	6000 6600 6000 6700
Wire Wire Line
	6000 7150 6000 7100
Wire Wire Line
	6000 6050 6000 6100
Wire Wire Line
	2650 6300 2900 6300
Wire Wire Line
	1750 6400 1750 7050
Wire Wire Line
	8650 2600 8650 2950
Wire Wire Line
	8650 3350 8650 3750
Wire Wire Line
	6450 3500 6450 3800
Wire Wire Line
	6150 3500 6150 3800
Wire Wire Line
	6150 4250 6150 4200
$Comp
L R R204
U 1 1 57EA78B3
P 2400 1950
F 0 "R204" V 2350 1650 40  0000 C CNN
F 1 "1k" V 2407 1951 40  0000 C CNN
F 2 "MyKiCadLibs-Footprints:SMD-0805" V 2330 1950 30  0001 C CNN
F 3 "" V 2320 1950 30  0000 C CNN
F 4 "100mW" V 2500 1950 40  0001 C CNN "Power"
F 5 "Thick or thin film resistor" V 2645 1950 40  0001 C CNN "Description"
F 6 "0805" V 2575 1950 40  0001 C CNN "Size"
F 7 "1%" V 2725 1950 40  0001 C CNN "Tolerance"
	1    2400 1950
	0    1    1    0   
$EndComp
Wire Wire Line
	2650 1950 2950 1950
Wire Wire Line
	2000 1950 2150 1950
$Comp
L C C208
U 1 1 57EAB33A
P 2800 2250
F 0 "C208" H 2800 2350 40  0000 L CNN
F 1 "100n" H 2810 2165 40  0000 L CNN
F 2 "MyKiCadLibs-Footprints:SMD-0805" H 2838 2100 30  0001 C CNN
F 3 "" H 2800 2350 60  0000 C CNN
F 4 "50V" H 2865 2100 40  0000 C CNN "Voltage"
F 5 "X7R" H 2870 2025 40  0000 C CNN "Type"
F 6 "Ceramic capacitor" H 2800 2550 40  0001 L CNN "Description"
F 7 "10%" H 3200 2750 40  0001 C CNN "Tolerance"
F 8 "0805" H 2800 2250 60  0001 C CNN "Size"
	1    2800 2250
	1    0    0    1   
$EndComp
$Comp
L GNDD #PWR211
U 1 1 57EAB532
P 2800 2550
F 0 "#PWR211" H 2800 2300 60  0001 C CNN
F 1 "GNDD" H 2800 2400 60  0000 C CNN
F 2 "" H 2800 2550 60  0000 C CNN
F 3 "" H 2800 2550 60  0000 C CNN
	1    2800 2550
	1    0    0    -1  
$EndComp
Wire Wire Line
	2800 2550 2800 2450
Connection ~ 6800 1550
Connection ~ 6800 3500
$Comp
L C C216
U 1 1 57EB80B5
P 5250 1850
F 0 "C216" V 5200 1950 40  0000 L CNN
F 1 "N/F" V 5300 1950 40  0000 L CNN
F 2 "MyKiCadLibs-Footprints:SMD-0805" H 5288 1700 30  0001 C CNN
F 3 "" H 5250 1950 60  0000 C CNN
F 4 "50V" H 5315 1700 40  0001 C CNN "Voltage"
F 5 "X7R" H 5320 1625 40  0001 C CNN "Type"
F 6 "Ceramic capacitor" H 5250 2150 40  0001 L CNN "Description"
F 7 "10%" H 5650 2350 40  0001 C CNN "Tolerance"
F 8 "0805" H 5250 1850 60  0001 C CNN "Size"
	1    5250 1850
	0    1    1    0   
$EndComp
Wire Wire Line
	5450 1850 5650 1850
Wire Wire Line
	5650 1850 5650 1650
Connection ~ 5650 1650
Wire Wire Line
	5050 1850 4800 1850
Connection ~ 4800 1850
$Comp
L C C214
U 1 1 57EBD6BA
P 5250 3800
F 0 "C214" V 5200 3900 40  0000 L CNN
F 1 "N/F" V 5300 3900 40  0000 L CNN
F 2 "MyKiCadLibs-Footprints:SMD-0805" H 5288 3650 30  0001 C CNN
F 3 "" H 5250 3900 60  0000 C CNN
F 4 "50V" H 5315 3650 40  0001 C CNN "Voltage"
F 5 "X7R" H 5320 3575 40  0001 C CNN "Type"
F 6 "Ceramic capacitor" H 5250 4100 40  0001 L CNN "Description"
F 7 "10%" H 5650 4300 40  0001 C CNN "Tolerance"
F 8 "0805" H 5250 3800 60  0001 C CNN "Size"
	1    5250 3800
	0    1    1    0   
$EndComp
Wire Wire Line
	5450 3800 5650 3800
Wire Wire Line
	5650 3800 5650 3600
Wire Wire Line
	5050 3800 4800 3800
Connection ~ 4800 3800
Connection ~ 5650 3600
$Comp
L GNDPWR #PWR210
U 1 1 581285EB
P 2550 7050
F 0 "#PWR210" H 2550 6850 50  0001 C CNN
F 1 "GNDPWR" H 2550 6920 50  0000 C CNN
F 2 "" H 2550 7000 50  0000 C CNN
F 3 "" H 2550 7000 50  0000 C CNN
	1    2550 7050
	1    0    0    -1  
$EndComp
Wire Wire Line
	2550 6500 2550 7050
$Comp
L R R202
U 1 1 581294F1
P 2150 6500
F 0 "R202" V 2070 6500 40  0000 C CNN
F 1 "10" V 2157 6501 40  0000 C CNN
F 2 "MyKiCadLibs-Footprints:SMD-0805" V 2080 6500 30  0001 C CNN
F 3 "" V 2070 6500 30  0000 C CNN
F 4 "100mW" V 2250 6500 40  0001 C CNN "Power"
F 5 "Thick or thin film resistor" V 2395 6500 40  0001 C CNN "Description"
F 6 "0805" V 2325 6500 40  0001 C CNN "Size"
F 7 "1%" V 2475 6500 40  0001 C CNN "Tolerance"
	1    2150 6500
	0    1    1    0   
$EndComp
$Comp
L R R209
U 1 1 5812979F
P 2150 6650
F 0 "R209" V 2070 6650 40  0000 C CNN
F 1 "10" V 2157 6651 40  0000 C CNN
F 2 "MyKiCadLibs-Footprints:SMD-0805" V 2080 6650 30  0001 C CNN
F 3 "" V 2070 6650 30  0000 C CNN
F 4 "100mW" V 2250 6650 40  0001 C CNN "Power"
F 5 "Thick or thin film resistor" V 2395 6650 40  0001 C CNN "Description"
F 6 "0805" V 2325 6650 40  0001 C CNN "Size"
F 7 "1%" V 2475 6650 40  0001 C CNN "Tolerance"
	1    2150 6650
	0    1    1    0   
$EndComp
Wire Wire Line
	1900 6500 1750 6500
Connection ~ 1750 6500
Wire Wire Line
	1900 6650 1750 6650
Connection ~ 1750 6650
Wire Wire Line
	2550 6650 2400 6650
Wire Wire Line
	2550 6500 2400 6500
Connection ~ 2550 6650
$Comp
L C C203
U 1 1 5812A1DB
P 2150 6900
F 0 "C203" V 2100 7000 40  0000 L CNN
F 1 "100n" V 2200 7000 40  0000 L CNN
F 2 "MyKiCadLibs-Footprints:SMD-0805" H 2188 6750 30  0001 C CNN
F 3 "" H 2150 7000 60  0000 C CNN
F 4 "50V" V 2100 6750 40  0000 C CNN "Voltage"
F 5 "X7R" V 2200 6750 40  0000 C CNN "Type"
F 6 "Ceramic capacitor" H 2150 7200 40  0001 L CNN "Description"
F 7 "10%" H 2550 7400 40  0001 C CNN "Tolerance"
F 8 "0805" H 2150 6900 60  0001 C CNN "Size"
	1    2150 6900
	0    -1   1    0   
$EndComp
Wire Wire Line
	2350 6900 2550 6900
Connection ~ 2550 6900
Wire Wire Line
	1950 6900 1750 6900
Connection ~ 1750 6900
Wire Wire Line
	950  1450 950  3500
$Comp
L IC-REG-ST1S40IDR U201
U 1 1 58627406
P 2950 1550
F 0 "U201" H 3450 1800 60  0000 C CNN
F 1 "IC-REG-ST1S40IDR" H 3450 1700 60  0000 C CNN
F 2 "MyKiCadLibs-Footprints:IC_SOIC_8" H 3450 900 60  0001 C CNN
F 3 "" H 2950 1550 60  0000 C CNN
F 4 "ST ST1S31 SO8 3 A DC step-down switching regulator" H 3450 1000 60  0001 C CNN "Description"
	1    2950 1550
	1    0    0    -1  
$EndComp
Wire Wire Line
	3950 1750 4050 1750
Connection ~ 4050 1850
Wire Wire Line
	2800 2050 2800 1950
Connection ~ 2800 1950
$Comp
L +3V3 #PWR222
U 1 1 5862C297
P 6000 6050
F 0 "#PWR222" H 6000 5900 50  0001 C CNN
F 1 "+3V3" H 6000 6190 50  0000 C CNN
F 2 "" H 6000 6050 50  0000 C CNN
F 3 "" H 6000 6050 50  0000 C CNN
	1    6000 6050
	1    0    0    -1  
$EndComp
$Comp
L INDUCTOR L202
U 1 1 58633591
P 4350 3500
F 0 "L202" V 4300 3500 40  0000 C CNN
F 1 "DR0608-332L" V 4450 3500 40  0000 C CNN
F 2 "MyKiCadLibs-Footprints:IND-TH-DR0608" H 4350 3500 60  0001 C CNN
F 3 "" H 4350 3500 60  0000 C CNN
F 4 "2.7A" V 4500 3500 40  0001 C CNN "Current"
F 5 "Coilcraft DR0608-332L DCR=0.012Ohm Isat=5.3A Irms=5.0A" V 4550 3550 40  0001 C CNN "Description"
	1    4350 3500
	0    -1   -1   0   
$EndComp
$Comp
L IC-REG-ST1S40IDR U202
U 1 1 58633E99
P 2950 3500
F 0 "U202" H 3450 3750 60  0000 C CNN
F 1 "IC-REG-ST1S40IDR" H 3450 3650 60  0000 C CNN
F 2 "MyKiCadLibs-Footprints:IC_SOIC_8" H 3450 2850 60  0001 C CNN
F 3 "" H 2950 3500 60  0000 C CNN
F 4 "ST ST1S31 SO8 3 A DC step-down switching regulator" H 3450 2950 60  0001 C CNN "Description"
	1    2950 3500
	1    0    0    -1  
$EndComp
Wire Wire Line
	2450 3900 2950 3900
$Comp
L C C206
U 1 1 5863429B
P 2850 4300
F 0 "C206" H 2850 4400 40  0000 L CNN
F 1 "100n" H 2860 4215 40  0000 L CNN
F 2 "MyKiCadLibs-Footprints:SMD-0805" H 2888 4150 30  0001 C CNN
F 3 "" H 2850 4400 60  0000 C CNN
F 4 "50V" H 2915 4150 40  0000 C CNN "Voltage"
F 5 "X7R" H 2920 4075 40  0000 C CNN "Type"
F 6 "Ceramic capacitor" H 2850 4600 40  0001 L CNN "Description"
F 7 "10%" H 3250 4800 40  0001 C CNN "Tolerance"
F 8 "0805" H 2850 4300 60  0001 C CNN "Size"
	1    2850 4300
	1    0    0    1   
$EndComp
$Comp
L GNDD #PWR212
U 1 1 586342A1
P 2850 4600
F 0 "#PWR212" H 2850 4350 60  0001 C CNN
F 1 "GNDD" H 2850 4450 60  0000 C CNN
F 2 "" H 2850 4600 60  0000 C CNN
F 3 "" H 2850 4600 60  0000 C CNN
	1    2850 4600
	1    0    0    -1  
$EndComp
Wire Wire Line
	2850 4600 2850 4500
Wire Wire Line
	2850 4100 2850 3900
Connection ~ 2850 3900
$Comp
L R R203
U 1 1 58641FB5
P 2550 4250
F 0 "R203" V 2450 4250 40  0000 C CNN
F 1 "750" V 2557 4251 40  0000 C CNN
F 2 "MyKiCadLibs-Footprints:SMD-0805" V 2480 4250 30  0001 C CNN
F 3 "" V 2470 4250 30  0000 C CNN
F 4 "100mW" V 2650 4250 40  0001 C CNN "Power"
F 5 "Thick or thin film resistor" V 2795 4250 40  0001 C CNN "Description"
F 6 "0805" V 2725 4250 40  0001 C CNN "Size"
F 7 "1%" V 2875 4250 40  0001 C CNN "Tolerance"
	1    2550 4250
	-1   0    0    1   
$EndComp
$Comp
L GNDD #PWR209
U 1 1 5864236D
P 2550 4600
F 0 "#PWR209" H 2550 4350 60  0001 C CNN
F 1 "GNDD" H 2550 4450 60  0000 C CNN
F 2 "" H 2550 4600 60  0000 C CNN
F 3 "" H 2550 4600 60  0000 C CNN
	1    2550 4600
	1    0    0    -1  
$EndComp
Wire Wire Line
	2550 4600 2550 4500
Wire Wire Line
	2550 4000 2550 3900
Connection ~ 2550 3900
$Comp
L +3V3 #PWR208
U 1 1 58642BE2
P 1850 3750
F 0 "#PWR208" H 1850 3600 50  0001 C CNN
F 1 "+3V3" H 1850 3890 50  0000 C CNN
F 2 "" H 1850 3750 50  0000 C CNN
F 3 "" H 1850 3750 50  0000 C CNN
	1    1850 3750
	1    0    0    -1  
$EndComp
Wire Wire Line
	1850 3750 1850 3900
Wire Wire Line
	1850 3900 1950 3900
Wire Wire Line
	3950 3700 4050 3700
Connection ~ 4050 3800
$Comp
L GNDD #PWR233
U 1 1 5898C6EC
P 8650 3750
F 0 "#PWR233" H 8650 3500 60  0001 C CNN
F 1 "GNDD" H 8650 3600 60  0000 C CNN
F 2 "" H 8650 3750 60  0000 C CNN
F 3 "" H 8650 3750 60  0000 C CNN
	1    8650 3750
	1    0    0    -1  
$EndComp
Wire Wire Line
	8950 2750 9250 2750
Wire Wire Line
	8950 2750 8950 3650
Wire Wire Line
	8950 3650 8650 3650
Connection ~ 8650 3650
Wire Wire Line
	8650 2650 9250 2650
Connection ~ 8650 2650
$Comp
L MNT_HOLE FID202
U 1 1 5727AF05
P 9350 6100
F 0 "FID202" H 9350 6200 60  0000 C CNN
F 1 "MNT_HOLE" H 9350 6200 60  0001 C CNN
F 2 "MyKiCadLibs-Footprints:FID-1MM-3MM" H 9350 6200 60  0001 C CNN
F 3 "" H 9350 6200 60  0000 C CNN
F 4 "Fiducial" H 9350 6100 60  0001 C CNN "Description"
	1    9350 6100
	1    0    0    -1  
$EndComp
Wire Wire Line
	4950 6300 3500 6300
Wire Wire Line
	4200 6850 4950 6850
$EndSCHEMATC
