EESchema Schematic File Version 2
LIBS:power
LIBS:MyKiCadLibs-Lib
LIBS:DEV-CoreTwo-cache
EELAYER 25 0
EELAYER END
$Descr A4 11693 8268
encoding utf-8
Sheet 5 8
Title "CoreOne - XMOS 200 Platform"
Date "2017-02-08"
Rev "1.0"
Comp "Open Hardware DSP Platform - www.ohdsp.org"
Comment1 "MERCHANTABILITY, SATISFACTORY QUALITY AND FITNESS FOR A PARTICULAR PURPOSE."
Comment2 "is distributed WITHOUT ANY EXPRESS OR IMPLIED WARRANTY, INCLUDING OF"
Comment3 "Licensed under the TAPR Open Hardware License (www.tapr.org/OHL). This documentation"
Comment4 "Copyright Paul Janicki 2017"
$EndDescr
$Comp
L GNDD #PWR506
U 1 1 54E24752
P 3700 3050
F 0 "#PWR506" H 3700 2800 60  0001 C CNN
F 1 "GNDD" H 3700 2900 60  0000 C CNN
F 2 "" H 3700 3050 60  0000 C CNN
F 3 "" H 3700 3050 60  0000 C CNN
	1    3700 3050
	1    0    0    -1  
$EndComp
Text Notes 850  950  0    118  ~ 0
System and Audio Clocks
Wire Wire Line
	3700 1900 3700 1950
Wire Wire Line
	3700 2450 3700 2500
Connection ~ 3700 1900
Wire Wire Line
	4300 1900 4300 2300
Connection ~ 4300 1900
Wire Wire Line
	3700 2900 3700 3050
Connection ~ 3700 3000
Wire Wire Line
	4300 3000 4300 2700
Connection ~ 4300 3000
Wire Wire Line
	4600 1900 4600 2300
Wire Wire Line
	4600 3000 4600 2700
Connection ~ 4600 1900
Wire Wire Line
	2950 1750 2950 1900
Wire Wire Line
	2950 1900 3050 1900
Connection ~ 4600 3000
$Comp
L GNDD #PWR502
U 1 1 564D731C
P 1350 6350
F 0 "#PWR502" H 1350 6100 60  0001 C CNN
F 1 "GNDD" H 1350 6200 60  0000 C CNN
F 2 "" H 1350 6350 60  0000 C CNN
F 3 "" H 1350 6350 60  0000 C CNN
	1    1350 6350
	-1   0    0    -1  
$EndComp
Wire Wire Line
	1350 6350 1350 6300
Wire Wire Line
	1350 5800 1350 5650
Wire Wire Line
	1100 5650 1450 5650
$Comp
L COAX CN501
U 1 1 564D7AB7
P 1100 5650
F 0 "CN501" H 1150 5850 60  0000 C CNN
F 1 "COAX" H 1150 5750 60  0000 C CNN
F 2 "MyKiCadLibs-Footprints:CONN_SIL_2_1MM" H 1050 5650 60  0001 C CNN
F 3 "" H 1050 5650 60  0000 C CNN
F 4 "1x2 2.54mm pitch pin header - use with 75Ohm coax" H 1100 5650 60  0001 C CNN "Description"
	1    1100 5650
	-1   0    0    -1  
$EndComp
$Comp
L GNDD #PWR501
U 1 1 564D7ABD
P 950 5875
F 0 "#PWR501" H 950 5625 60  0001 C CNN
F 1 "GNDD" H 950 5725 60  0000 C CNN
F 2 "" H 950 5875 60  0000 C CNN
F 3 "" H 950 5875 60  0000 C CNN
	1    950  5875
	1    0    0    -1  
$EndComp
Wire Wire Line
	950  5875 950  5800
Connection ~ 1350 5650
Wire Wire Line
	4000 1900 4000 2300
Connection ~ 4000 1900
Wire Wire Line
	4000 2700 4000 3000
Connection ~ 4000 3000
Text Notes 1800 5350 2    60   ~ 0
External Clock Input
$Comp
L CP1 C503
U 1 1 57CEAAA3
P 4000 2500
F 0 "C503" H 4050 2600 50  0000 L CNN
F 1 "220u" H 4050 2400 50  0000 L CNN
F 2 "MyKiCadLibs-Footprints:CAP-TH-D6.3mmP2.5mm" H 4000 2500 60  0001 C CNN
F 3 "" H 4000 2500 60  0000 C CNN
F 4 "10V" H 4055 2315 50  0000 L CNN "Voltage"
F 5 "2.5mm pitch, 6.3mm diameter" H 4000 2800 40  0001 L CNN "Type"
F 6 "Low impedance aluminium electrolytic capacitor - Panasonic FC, FR or similar" H 4000 2900 40  0001 L CNN "Description"
	1    4000 2500
	1    0    0    -1  
$EndComp
$Comp
L INDUCTOR L501
U 1 1 57CEAAA8
P 3350 1900
F 0 "L501" V 3300 1900 40  0000 C CNN
F 1 "600R@100MHz" V 3450 1900 40  0000 C CNN
F 2 "MyKiCadLibs-Footprints:SMD-0805" H 3350 1900 60  0001 C CNN
F 3 "" H 3350 1900 60  0000 C CNN
F 4 "=>1A" V 3500 1900 40  0000 C CNN "Current"
F 5 "Ferrite bead, current rating 1A or higher, 600R@100MHz" V 3550 1950 40  0001 C CNN "Description"
F 6 "0805" V 3350 1900 60  0001 C CNN "Size"
	1    3350 1900
	0    -1   -1   0   
$EndComp
$Comp
L C C501
U 1 1 57CEAAA2
P 3700 2700
F 0 "C501" H 3700 2800 40  0000 L CNN
F 1 "100p" H 3710 2615 40  0000 L CNN
F 2 "MyKiCadLibs-Footprints:SMD-0805" H 3738 2550 30  0001 C CNN
F 3 "" H 3700 2800 60  0000 C CNN
F 4 "50V" H 3765 2550 40  0000 C CNN "Voltage"
F 5 "C0G" H 3770 2475 40  0000 C CNN "Type"
F 6 "Ceramic capacitor" H 3700 3000 40  0001 L CNN "Description"
F 7 "5%" H 4100 3200 40  0001 C CNN "Tolerance"
F 8 "0805" H 3700 2700 60  0001 C CNN "Size"
	1    3700 2700
	1    0    0    -1  
$EndComp
$Comp
L C C504
U 1 1 57CEAAA4
P 4300 2500
F 0 "C504" H 4300 2600 40  0000 L CNN
F 1 "22u" H 4310 2415 40  0000 L CNN
F 2 "MyKiCadLibs-Footprints:SMD-0805" H 4338 2350 30  0001 C CNN
F 3 "" H 4300 2600 60  0000 C CNN
F 4 "10V" H 4365 2350 40  0000 C CNN "Voltage"
F 5 "X5R" H 4370 2275 40  0000 C CNN "Type"
F 6 "Ceramic capacitor" H 4300 2800 40  0001 L CNN "Description"
F 7 "20%" H 4700 3000 40  0001 C CNN "Tolerance"
F 8 "0805" H 4300 2500 60  0001 C CNN "Size"
	1    4300 2500
	1    0    0    -1  
$EndComp
$Comp
L C C505
U 1 1 57CEAAA5
P 4600 2500
F 0 "C505" H 4600 2600 40  0000 L CNN
F 1 "100n" H 4610 2415 40  0000 L CNN
F 2 "MyKiCadLibs-Footprints:SMD-0805" H 4638 2350 30  0001 C CNN
F 3 "" H 4600 2600 60  0000 C CNN
F 4 "50V" H 4665 2350 40  0000 C CNN "Voltage"
F 5 "X7R" H 4670 2275 40  0000 C CNN "Type"
F 6 "Ceramic capacitor" H 4600 2800 40  0001 L CNN "Description"
F 7 "10%" H 5000 3000 40  0001 C CNN "Tolerance"
F 8 "0805" H 4600 2500 60  0001 C CNN "Size"
	1    4600 2500
	1    0    0    -1  
$EndComp
$Comp
L R R504
U 1 1 570EC454
P 1350 6050
F 0 "R504" V 1250 6050 40  0000 C CNN
F 1 "N/F" V 1357 6051 40  0000 C CNN
F 2 "MyKiCadLibs-Footprints:SMD-0805" V 1280 6050 30  0001 C CNN
F 3 "" V 1270 6050 30  0000 C CNN
F 4 "100mW" V 1450 6050 40  0001 C CNN "Power"
F 5 "Thick or thin film resistor" V 1595 6050 40  0001 C CNN "Description"
F 6 "0805" V 1525 6050 40  0001 C CNN "Size"
F 7 "1%" V 1675 6050 40  0001 C CNN "Tolerance"
	1    1350 6050
	1    0    0    1   
$EndComp
$Comp
L R R506
U 1 1 570EC532
P 1700 5650
F 0 "R506" V 1600 5650 40  0000 C CNN
F 1 "N/F" V 1707 5651 40  0000 C CNN
F 2 "MyKiCadLibs-Footprints:SMD-0805" V 1630 5650 30  0001 C CNN
F 3 "" V 1620 5650 30  0000 C CNN
F 4 "100mW" V 1800 5650 40  0001 C CNN "Power"
F 5 "Thick or thin film resistor" V 1945 5650 40  0001 C CNN "Description"
F 6 "0805" V 1875 5650 40  0001 C CNN "Size"
F 7 "1%" V 2025 5650 40  0001 C CNN "Tolerance"
	1    1700 5650
	0    -1   1    0   
$EndComp
$Comp
L R R501
U 1 1 57CEAAAA
P 3700 2200
F 0 "R501" V 3620 2200 40  0000 C CNN
F 1 "47" V 3707 2201 40  0000 C CNN
F 2 "MyKiCadLibs-Footprints:SMD-0805" V 3630 2200 30  0001 C CNN
F 3 "" V 3620 2200 30  0000 C CNN
F 4 "100mW" V 3800 2200 40  0001 C CNN "Power"
F 5 "Thick or thin film resistor" V 3945 2200 40  0001 C CNN "Description"
F 6 "0805" V 3875 2200 40  0001 C CNN "Size"
F 7 "1%" V 4025 2200 40  0001 C CNN "Tolerance"
	1    3700 2200
	1    0    0    -1  
$EndComp
$Comp
L IC-PLL-CS2200-CP U502
U 1 1 57CE2E8E
P 6200 3900
F 0 "U502" H 6850 4150 60  0000 C CNN
F 1 "CS2200-CP" H 6850 4050 60  0000 C CNN
F 2 "MyKiCadLibs-Footprints:IC-MSOP-10" H 6900 3250 60  0001 C CNN
F 3 "" H 6200 3900 60  0001 C CNN
F 4 "Cirrus Logic CS2200-CP Fractional-N Frequency Synthesizer" H 6900 3350 60  0001 C CNN "Description"
	1    6200 3900
	-1   0    0    -1  
$EndComp
Text HLabel 4050 3900 0    60   BiDi ~ 0
CS2200_SDA
Text HLabel 4050 4000 0    60   BiDi ~ 0
CS2200_SCL
Wire Wire Line
	4050 3900 4850 3900
Wire Wire Line
	4050 4000 4850 4000
$Comp
L R R502
U 1 1 57CEC412
P 4750 4650
F 0 "R502" V 4650 4650 40  0000 C CNN
F 1 "1k" V 4757 4651 40  0000 C CNN
F 2 "MyKiCadLibs-Footprints:SMD-0805" V 4680 4650 30  0001 C CNN
F 3 "" V 4670 4650 30  0000 C CNN
F 4 "100mW" V 4850 4650 40  0001 C CNN "Power"
F 5 "Thick or thin film resistor" V 4995 4650 40  0001 C CNN "Description"
F 6 "0805" V 4925 4650 40  0001 C CNN "Size"
F 7 "1%" V 5075 4650 40  0001 C CNN "Tolerance"
	1    4750 4650
	1    0    0    -1  
$EndComp
$Comp
L GNDD #PWR507
U 1 1 57CEC5A0
P 4750 5000
F 0 "#PWR507" H 4750 4750 60  0001 C CNN
F 1 "GNDD" H 4750 4850 60  0000 C CNN
F 2 "" H 4750 5000 60  0000 C CNN
F 3 "" H 4750 5000 60  0000 C CNN
	1    4750 5000
	-1   0    0    -1  
$EndComp
Wire Wire Line
	4750 5000 4750 4900
Wire Wire Line
	4750 4400 4750 4100
Wire Wire Line
	4750 4100 4850 4100
Text Label 4850 3900 2    60   ~ 0
CS_SDA
Text Label 4850 4000 2    60   ~ 0
CS_SCL
$Comp
L GNDD #PWR508
U 1 1 57CEE8C9
P 6300 4900
F 0 "#PWR508" H 6300 4650 60  0001 C CNN
F 1 "GNDD" H 6300 4750 60  0000 C CNN
F 2 "" H 6300 4900 60  0000 C CNN
F 3 "" H 6300 4900 60  0000 C CNN
	1    6300 4900
	-1   0    0    -1  
$EndComp
Wire Wire Line
	6300 4300 6200 4300
$Comp
L C C509
U 1 1 57CEED66
P 5550 2500
F 0 "C509" H 5550 2600 40  0000 L CNN
F 1 "10u" H 5560 2415 40  0000 L CNN
F 2 "MyKiCadLibs-Footprints:SMD-0805" H 5588 2350 30  0001 C CNN
F 3 "" H 5550 2600 60  0000 C CNN
F 4 "10V" H 5615 2350 40  0000 C CNN "Voltage"
F 5 "X5R" H 5620 2275 40  0000 C CNN "Type"
F 6 "Ceramic capacitor" H 5550 2800 40  0001 L CNN "Description"
F 7 "20%" H 5950 3000 40  0001 C CNN "Tolerance"
F 8 "0805" H 5550 2500 60  0001 C CNN "Size"
	1    5550 2500
	1    0    0    -1  
$EndComp
$Comp
L C C510
U 1 1 57CEED71
P 5850 2500
F 0 "C510" H 5850 2600 40  0000 L CNN
F 1 "100n" H 5860 2415 40  0000 L CNN
F 2 "MyKiCadLibs-Footprints:SMD-0805" H 5888 2350 30  0001 C CNN
F 3 "" H 5850 2600 60  0000 C CNN
F 4 "50V" H 5915 2350 40  0000 C CNN "Voltage"
F 5 "X7R" H 5920 2275 40  0000 C CNN "Type"
F 6 "Ceramic capacitor" H 5850 2800 40  0001 L CNN "Description"
F 7 "10%" H 6250 3000 40  0001 C CNN "Tolerance"
F 8 "0805" H 5850 2500 60  0001 C CNN "Size"
	1    5850 2500
	1    0    0    -1  
$EndComp
$Comp
L CRYSTAL X501
U 1 1 57CEA978
P 2750 6500
F 0 "X501" H 2750 6650 60  0000 C CNN
F 1 "24M000" H 2750 6350 60  0000 C CNN
F 2 "MyKiCadLibs-Footprints:XTAL_HC49_TH" H 2750 6500 60  0001 C CNN
F 3 "" H 2750 6650 60  0000 C CNN
F 4 "HC49 24.000MHz Crystal – 30ppm or better – 18pF" H 2750 6300 40  0001 C CNN "Description"
	1    2750 6500
	1    0    0    -1  
$EndComp
$Comp
L C C502
U 1 1 57CEA984
P 2350 6950
F 0 "C502" H 2350 7050 40  0000 L CNN
F 1 "33p" H 2360 6865 40  0000 L CNN
F 2 "MyKiCadLibs-Footprints:SMD-0805" H 2388 6800 30  0001 C CNN
F 3 "" H 2350 7050 60  0000 C CNN
F 4 "50V" H 2415 6800 40  0000 C CNN "Voltage"
F 5 "NP0" H 2420 6725 40  0000 C CNN "Type"
F 6 "Ceramic capacitor" H 2350 7250 40  0001 L CNN "Description"
F 7 "5%" H 2750 7450 40  0001 C CNN "Tolerance"
F 8 "0805" H 2350 6950 60  0001 C CNN "Size"
	1    2350 6950
	1    0    0    -1  
$EndComp
$Comp
L C C506
U 1 1 57CEA990
P 3150 6950
F 0 "C506" H 3150 7050 40  0000 L CNN
F 1 "33p" H 3160 6865 40  0000 L CNN
F 2 "MyKiCadLibs-Footprints:SMD-0805" H 3188 6800 30  0001 C CNN
F 3 "" H 3150 7050 60  0000 C CNN
F 4 "50V" H 3215 6800 40  0000 C CNN "Voltage"
F 5 "NP0" H 3220 6725 40  0000 C CNN "Type"
F 6 "Ceramic capacitor" H 3150 7250 40  0001 L CNN "Description"
F 7 "5%" H 3550 7450 40  0001 C CNN "Tolerance"
F 8 "0805" H 3150 6950 60  0001 C CNN "Size"
	1    3150 6950
	1    0    0    -1  
$EndComp
Wire Wire Line
	2350 5650 2350 6750
Wire Wire Line
	2350 6500 2450 6500
Wire Wire Line
	3150 6500 3050 6500
Wire Wire Line
	3150 5650 3150 6750
$Comp
L GNDD #PWR505
U 1 1 57CEA99B
P 3150 7250
F 0 "#PWR505" H 3150 7000 60  0001 C CNN
F 1 "GNDD" H 3150 7100 60  0000 C CNN
F 2 "" H 3150 7250 60  0000 C CNN
F 3 "" H 3150 7250 60  0000 C CNN
	1    3150 7250
	1    0    0    -1  
$EndComp
$Comp
L GNDD #PWR503
U 1 1 57CEA9A1
P 2350 7250
F 0 "#PWR503" H 2350 7000 60  0001 C CNN
F 1 "GNDD" H 2350 7100 60  0000 C CNN
F 2 "" H 2350 7250 60  0000 C CNN
F 3 "" H 2350 7250 60  0000 C CNN
	1    2350 7250
	1    0    0    -1  
$EndComp
Wire Wire Line
	3150 7250 3150 7150
Wire Wire Line
	2350 7250 2350 7150
Connection ~ 3150 6500
Connection ~ 2350 6500
Wire Wire Line
	5550 1900 5550 2300
Wire Wire Line
	5850 1900 5850 2300
Connection ~ 5550 1900
Wire Wire Line
	3700 3000 5850 3000
Wire Wire Line
	5850 3000 5850 2700
Wire Wire Line
	5550 2700 5550 3000
Connection ~ 5550 3000
Text Label 5850 1900 2    60   ~ 0
CS_3V3
Text Label 6600 3900 2    60   ~ 0
CS_3V3
Wire Wire Line
	6600 3900 6200 3900
Wire Wire Line
	6300 4300 6300 4900
$Comp
L R R507
U 1 1 57D0B149
P 6550 4550
F 0 "R507" V 6450 4550 40  0000 C CNN
F 1 "0R" V 6557 4551 40  0000 C CNN
F 2 "MyKiCadLibs-Footprints:SMD-0805" V 6480 4550 30  0001 C CNN
F 3 "" V 6470 4550 30  0000 C CNN
F 4 "100mW" V 6650 4550 40  0001 C CNN "Power"
F 5 "Thick or thin film resistor" V 6795 4550 40  0001 C CNN "Description"
F 6 "0805" V 6725 4550 40  0001 C CNN "Size"
F 7 "1%" V 6875 4550 40  0001 C CNN "Tolerance"
	1    6550 4550
	1    0    0    -1  
$EndComp
Wire Wire Line
	6550 4800 6550 4850
Wire Wire Line
	6550 4850 6300 4850
Connection ~ 6300 4850
Wire Wire Line
	6550 4300 6550 4200
Wire Wire Line
	6200 4200 6650 4200
Text HLabel 7250 4200 2    60   Input ~ 0
REF_CLK1
$Comp
L R R510
U 1 1 57D0C273
P 6900 4200
F 0 "R510" V 6850 3900 40  0000 C CNN
F 1 "N/F" V 6907 4201 40  0000 C CNN
F 2 "MyKiCadLibs-Footprints:SMD-0805" V 6830 4200 30  0001 C CNN
F 3 "" V 6820 4200 30  0000 C CNN
F 4 "100mW" V 7000 4200 40  0001 C CNN "Power"
F 5 "Thick or thin film resistor" V 7145 4200 40  0001 C CNN "Description"
F 6 "0805" V 7075 4200 40  0001 C CNN "Size"
F 7 "1%" V 7225 4200 40  0001 C CNN "Tolerance"
	1    6900 4200
	0    1    1    0   
$EndComp
Wire Wire Line
	7250 4200 7150 4200
Connection ~ 6550 4200
Text HLabel 7250 4100 2    60   Output ~ 0
AUX_CLK1
Text HLabel 7250 4000 2    60   Output ~ 0
AUD_CLK1
$Comp
L R R509
U 1 1 57D0E36A
P 6900 4100
F 0 "R509" V 6850 3800 40  0000 C CNN
F 1 "33R" V 6907 4101 40  0000 C CNN
F 2 "MyKiCadLibs-Footprints:SMD-0805" V 6830 4100 30  0001 C CNN
F 3 "" V 6820 4100 30  0000 C CNN
F 4 "100mW" V 7000 4100 40  0001 C CNN "Power"
F 5 "Thick or thin film resistor" V 7145 4100 40  0001 C CNN "Description"
F 6 "0805" V 7075 4100 40  0001 C CNN "Size"
F 7 "1%" V 7225 4100 40  0001 C CNN "Tolerance"
	1    6900 4100
	0    1    1    0   
$EndComp
$Comp
L R R508
U 1 1 57D0E374
P 6900 4000
F 0 "R508" V 6850 3700 40  0000 C CNN
F 1 "33R" V 6907 4001 40  0000 C CNN
F 2 "MyKiCadLibs-Footprints:SMD-0805" V 6830 4000 30  0001 C CNN
F 3 "" V 6820 4000 30  0000 C CNN
F 4 "100mW" V 7000 4000 40  0001 C CNN "Power"
F 5 "Thick or thin film resistor" V 7145 4000 40  0001 C CNN "Description"
F 6 "0805" V 7075 4000 40  0001 C CNN "Size"
F 7 "1%" V 7225 4000 40  0001 C CNN "Tolerance"
	1    6900 4000
	0    1    1    0   
$EndComp
Wire Wire Line
	7250 4000 7150 4000
Wire Wire Line
	7150 4100 7250 4100
Wire Wire Line
	6650 4000 6200 4000
Wire Wire Line
	6200 4100 6650 4100
$Comp
L IC-LOGIC-BUF-NC7WZ04P6X U501
U 2 1 57EEE8BF
P 2750 5650
F 0 "U501" H 2750 5800 60  0000 C CNN
F 1 "NC7WZ04P6X" H 2750 5500 60  0000 C CNN
F 2 "MyKiCadLibs-Footprints:IC-SC70-6" H 3750 5550 60  0001 C CNN
F 3 "" H 2850 5650 60  0000 C CNN
F 4 "NC7WZ04 TinyLogic UHS Dual Inverter" H 3800 5650 60  0001 C CNN "Description"
	2    2750 5650
	1    0    0    -1  
$EndComp
$Comp
L IC-LOGIC-BUF-NC7WZ04P6X U501
U 3 1 57EEE927
P 3600 5650
F 0 "U501" H 3600 5800 60  0000 C CNN
F 1 "NC7WZ04P6X" H 3600 5500 60  0000 C CNN
F 2 "MyKiCadLibs-Footprints:IC-SC70-6" H 4600 5550 60  0001 C CNN
F 3 "" H 3700 5650 60  0000 C CNN
F 4 "NC7WZ04 TinyLogic UHS Dual Inverter" H 4650 5650 60  0001 C CNN "Description"
	3    3600 5650
	1    0    0    -1  
$EndComp
$Comp
L IC-LOGIC-BUF-NC7WZ04P6X U501
U 1 1 57EEE99D
P 7650 2450
F 0 "U501" H 7850 2650 60  0000 L CNN
F 1 "NC7WZ04P6X" H 7850 2550 60  0000 L CNN
F 2 "MyKiCadLibs-Footprints:IC-SC70-6" H 8650 2350 60  0001 C CNN
F 3 "" H 7750 2450 60  0000 C CNN
F 4 "NC7WZ04 TinyLogic UHS Dual Inverter" H 8700 2450 60  0001 C CNN "Description"
	1    7650 2450
	1    0    0    -1  
$EndComp
Wire Wire Line
	2350 5650 2500 5650
Wire Wire Line
	3050 5650 3350 5650
Connection ~ 3150 5650
$Comp
L R R503
U 1 1 57EEF0BF
P 2750 6050
F 0 "R503" V 2650 6050 40  0000 C CNN
F 1 "1Meg" V 2757 6051 40  0000 C CNN
F 2 "MyKiCadLibs-Footprints:SMD-0805" V 2680 6050 30  0001 C CNN
F 3 "" V 2670 6050 30  0000 C CNN
F 4 "100mW" V 2850 6050 40  0001 C CNN "Power"
F 5 "Thick or thin film resistor" V 2995 6050 40  0001 C CNN "Description"
F 6 "0805" V 2925 6050 40  0001 C CNN "Size"
F 7 "1%" V 3075 6050 40  0001 C CNN "Tolerance"
	1    2750 6050
	0    1    1    0   
$EndComp
Wire Wire Line
	3000 6050 3150 6050
Connection ~ 3150 6050
Wire Wire Line
	2500 6050 2350 6050
Connection ~ 2350 6050
$Comp
L C C511
U 1 1 57EEF94E
P 6800 2450
F 0 "C511" H 6800 2550 40  0000 L CNN
F 1 "10u" H 6810 2365 40  0000 L CNN
F 2 "MyKiCadLibs-Footprints:SMD-0805" H 6838 2300 30  0001 C CNN
F 3 "" H 6800 2550 60  0000 C CNN
F 4 "10V" H 6865 2300 40  0000 C CNN "Voltage"
F 5 "X5R" H 6870 2225 40  0000 C CNN "Type"
F 6 "Ceramic capacitor" H 6800 2750 40  0001 L CNN "Description"
F 7 "20%" H 7200 2950 40  0001 C CNN "Tolerance"
F 8 "0805" H 6800 2450 60  0001 C CNN "Size"
	1    6800 2450
	1    0    0    -1  
$EndComp
$Comp
L C C512
U 1 1 57EEF959
P 7100 2450
F 0 "C512" H 7100 2550 40  0000 L CNN
F 1 "100n" H 7110 2365 40  0000 L CNN
F 2 "MyKiCadLibs-Footprints:SMD-0805" H 7138 2300 30  0001 C CNN
F 3 "" H 7100 2550 60  0000 C CNN
F 4 "50V" H 7165 2300 40  0000 C CNN "Voltage"
F 5 "X7R" H 7170 2225 40  0000 C CNN "Type"
F 6 "Ceramic capacitor" H 7100 2750 40  0001 L CNN "Description"
F 7 "10%" H 7500 2950 40  0001 C CNN "Tolerance"
F 8 "0805" H 7100 2450 60  0001 C CNN "Size"
	1    7100 2450
	1    0    0    -1  
$EndComp
Wire Wire Line
	6800 1850 6800 2250
Wire Wire Line
	7100 1850 7100 2250
Wire Wire Line
	7100 2950 7100 2650
Wire Wire Line
	6800 2650 6800 3050
Text Label 6350 1850 0    60   ~ 0
CS_3V3
Wire Wire Line
	6350 1850 7650 1850
Wire Wire Line
	7650 1850 7650 2000
Connection ~ 7100 1850
Connection ~ 6800 1850
$Comp
L GNDD #PWR509
U 1 1 57EEFB20
P 6800 3050
F 0 "#PWR509" H 6800 2800 60  0001 C CNN
F 1 "GNDD" H 6800 2900 60  0000 C CNN
F 2 "" H 6800 3050 60  0000 C CNN
F 3 "" H 6800 3050 60  0000 C CNN
	1    6800 3050
	1    0    0    -1  
$EndComp
Wire Wire Line
	6800 2950 7650 2950
Connection ~ 6800 2950
Wire Wire Line
	7650 2950 7650 2900
Connection ~ 7100 2950
NoConn ~ 4850 4300
Text Label 5200 5650 2    60   ~ 0
24M_CLK_1
Wire Wire Line
	4000 4200 4850 4200
$Comp
L R R505
U 1 1 57EF1A8D
P 4400 5650
F 0 "R505" V 4350 5350 40  0000 C CNN
F 1 "33R" V 4407 5651 40  0000 C CNN
F 2 "MyKiCadLibs-Footprints:SMD-0805" V 4330 5650 30  0001 C CNN
F 3 "" V 4320 5650 30  0000 C CNN
F 4 "100mW" V 4500 5650 40  0001 C CNN "Power"
F 5 "Thick or thin film resistor" V 4645 5650 40  0001 C CNN "Description"
F 6 "0805" V 4575 5650 40  0001 C CNN "Size"
F 7 "1%" V 4725 5650 40  0001 C CNN "Tolerance"
	1    4400 5650
	0    1    1    0   
$EndComp
Wire Wire Line
	4650 5650 5200 5650
Wire Wire Line
	3900 5650 4150 5650
Wire Wire Line
	1950 5650 2250 5650
Wire Wire Line
	2250 5650 2250 5350
Wire Wire Line
	2250 5350 3250 5350
Wire Wire Line
	3250 5350 3250 5650
Connection ~ 3250 5650
Text Label 4000 4200 0    60   ~ 0
24M_CLK_1
$Comp
L +3V3 #PWR504
U 1 1 58938D52
P 2950 1750
F 0 "#PWR504" H 2950 1600 50  0001 C CNN
F 1 "+3V3" H 2950 1890 50  0000 C CNN
F 2 "" H 2950 1750 50  0000 C CNN
F 3 "" H 2950 1750 50  0000 C CNN
	1    2950 1750
	-1   0    0    -1  
$EndComp
Text Notes 850  1350 0    60   ~ 0
Note: Two controlled clocks are provided to allow two audio clock domains.\nBoth clocks are fed from the same crystal. If U502 and/or U503 are fitted as\nCS2100-CP parts then the clocks can be run from the REF_CLK signals to\nsynchronise the clocks to the AUD_PLLSYNC signal from U801.
Wire Wire Line
	3650 1900 5850 1900
$EndSCHEMATC
