EESchema Schematic File Version 2
LIBS:power
LIBS:MyKiCadLibs-Lib
LIBS:DEV-CoreTwo-cache
EELAYER 25 0
EELAYER END
$Descr A4 11693 8268
encoding utf-8
Sheet 4 8
Title "CoreOne - XMOS 200 Platform"
Date "2017-02-08"
Rev "1.0"
Comp "Open Hardware DSP Platform - www.ohdsp.org"
Comment1 "MERCHANTABILITY, SATISFACTORY QUALITY AND FITNESS FOR A PARTICULAR PURPOSE."
Comment2 "is distributed WITHOUT ANY EXPRESS OR IMPLIED WARRANTY, INCLUDING OF"
Comment3 "Licensed under the TAPR Open Hardware License (www.tapr.org/OHL). This documentation"
Comment4 "Copyright Paul Janicki 2017"
$EndDescr
$Comp
L GNDD #PWR402
U 1 1 54DB76B6
P 1200 6200
F 0 "#PWR402" H 1200 5950 60  0001 C CNN
F 1 "GNDD" H 1200 6050 60  0000 C CNN
F 2 "" H 1200 6200 60  0000 C CNN
F 3 "" H 1200 6200 60  0000 C CNN
	1    1200 6200
	1    0    0    -1  
$EndComp
Text Notes 6750 1375 0    118  ~ 0
XMOS xSYS Interface\nProgramming/Debug
Text Notes 850  4000 0    118  ~ 0
AUX Digital I/O
Text Notes 750  1350 0    118  ~ 0
I2S Connector
Text HLabel 3600 5900 2    60   Output ~ 0
AUX_DIGI5
Text HLabel 3600 5800 2    60   Output ~ 0
AUX_DIGI4
Text HLabel 3600 5500 2    60   Output ~ 0
AUX_DIGI3
Text HLabel 3600 5400 2    60   Output ~ 0
AUX_DIGI2
Text HLabel 3600 5300 2    60   Output ~ 0
AUX_DIGI1
Text HLabel 3600 5200 2    60   Output ~ 0
AUX_DIGI0
$Comp
L GNDD #PWR406
U 1 1 54E49180
P 2550 7150
F 0 "#PWR406" H 2550 6900 60  0001 C CNN
F 1 "GNDD" H 2550 7000 60  0000 C CNN
F 2 "" H 2550 7150 60  0000 C CNN
F 3 "" H 2550 7150 60  0000 C CNN
	1    2550 7150
	1    0    0    -1  
$EndComp
Text Notes 850  4300 0    59   ~ 0
These are 3V3 max input\nThey have some protection\nbut don't push it!
$Comp
L GNDD #PWR421
U 1 1 561875D1
P 8600 2750
F 0 "#PWR421" H 8600 2500 60  0001 C CNN
F 1 "GNDD" H 8600 2600 60  0000 C CNN
F 2 "" H 8600 2750 60  0000 C CNN
F 3 "" H 8600 2750 60  0000 C CNN
	1    8600 2750
	1    0    0    -1  
$EndComp
$Comp
L PIN TP407
U 1 1 561D1DA0
P 1150 7000
F 0 "TP407" H 1525 7000 40  0000 C CNN
F 1 "PIN" V 1490 7010 40  0001 C CNN
F 2 "MyKiCadLibs-Footprints:TP-TH-1mm" H 1490 6890 60  0001 C CNN
F 3 "" H 1490 6890 60  0000 C CNN
	1    1150 7000
	1    0    0    -1  
$EndComp
$Comp
L PIN TP408
U 1 1 561D4825
P 1150 7200
F 0 "TP408" H 1525 7200 40  0000 C CNN
F 1 "PIN" V 1490 7210 40  0001 C CNN
F 2 "MyKiCadLibs-Footprints:TP-TH-1mm" H 1490 7090 60  0001 C CNN
F 3 "" H 1490 7090 60  0000 C CNN
	1    1150 7200
	1    0    0    -1  
$EndComp
$Comp
L GNDD #PWR401
U 1 1 561DD996
P 1000 7350
F 0 "#PWR401" H 1000 7100 60  0001 C CNN
F 1 "GNDD" H 1000 7200 60  0000 C CNN
F 2 "" H 1000 7350 60  0000 C CNN
F 3 "" H 1000 7350 60  0000 C CNN
	1    1000 7350
	1    0    0    -1  
$EndComp
Text Notes 1000 6900 0    60   ~ 0
Ground Test\nPoints
$Comp
L GNDD #PWR419
U 1 1 56ED7EAB
P 8300 4750
F 0 "#PWR419" H 8300 4500 60  0001 C CNN
F 1 "GNDD" H 8300 4600 60  0000 C CNN
F 2 "" H 8300 4750 60  0000 C CNN
F 3 "" H 8300 4750 60  0000 C CNN
	1    8300 4750
	1    0    0    -1  
$EndComp
Text HLabel 9600 4200 2    60   Output ~ 0
SPI_MISO
Text HLabel 9600 4300 2    60   Input ~ 0
SPI_SCLK
Text HLabel 9600 4500 2    60   Input ~ 0
SPI_CS1
Text HLabel 9600 4400 2    60   Input ~ 0
SPI_MOSI
Text HLabel 9600 4700 2    60   Input ~ 0
SPI_MUTE
Text Notes 8250 4000 0    118  ~ 0
SPI Port
Text HLabel 9600 4600 2    60   Input ~ 0
SPI_RST
$Comp
L CONN_02X06 P405
U 1 1 570D21B4
P 8650 4450
F 0 "P405" H 8650 4800 50  0000 C CNN
F 1 "CONN_02X06" H 8650 4100 50  0000 C CNN
F 2 "MyKiCadLibs-Footprints:CONN_DIL_2X6_BOX_1MM" H 8650 3250 60  0001 C CNN
F 3 "" H 8650 3250 60  0000 C CNN
F 4 "2x6 2.54mm pitch box header" H 8650 4000 40  0001 C CNN "Description"
	1    8650 4450
	1    0    0    -1  
$EndComp
$Comp
L R R427
U 1 1 57157291
P 9200 4200
F 0 "R427" V 9300 4200 40  0000 C CNN
F 1 "0" V 9207 4201 40  0000 C CNN
F 2 "MyKiCadLibs-Footprints:SMD-0805" V 9130 4200 30  0001 C CNN
F 3 "" V 9120 4200 30  0000 C CNN
F 4 "100mW" V 9300 4200 40  0001 C CNN "Power"
F 5 "Thick or thin film resistor" V 9445 4200 40  0001 C CNN "Description"
F 6 "0805" V 9375 4200 40  0001 C CNN "Size"
F 7 "1%" V 9525 4200 40  0001 C CNN "Tolerance"
	1    9200 4200
	0    -1   -1   0   
$EndComp
$Comp
L R R403
U 1 1 570F113F
P 2150 5200
F 0 "R403" V 2100 5500 40  0000 C CNN
F 1 "1k" V 2157 5201 40  0000 C CNN
F 2 "MyKiCadLibs-Footprints:SMD-0805" V 2080 5200 30  0001 C CNN
F 3 "" V 2070 5200 30  0000 C CNN
F 4 "100mW" V 2250 5200 40  0001 C CNN "Power"
F 5 "Thick or thin film resistor" V 2395 5200 40  0001 C CNN "Description"
F 6 "0805" V 2325 5200 40  0001 C CNN "Size"
F 7 "1%" V 2475 5200 40  0001 C CNN "Tolerance"
	1    2150 5200
	0    -1   1    0   
$EndComp
$Comp
L R R404
U 1 1 570F2279
P 2150 5300
F 0 "R404" V 2100 5600 40  0000 C CNN
F 1 "1k" V 2157 5301 40  0000 C CNN
F 2 "MyKiCadLibs-Footprints:SMD-0805" V 2080 5300 30  0001 C CNN
F 3 "" V 2070 5300 30  0000 C CNN
F 4 "100mW" V 2250 5300 40  0001 C CNN "Power"
F 5 "Thick or thin film resistor" V 2395 5300 40  0001 C CNN "Description"
F 6 "0805" V 2325 5300 40  0001 C CNN "Size"
F 7 "1%" V 2475 5300 40  0001 C CNN "Tolerance"
	1    2150 5300
	0    -1   1    0   
$EndComp
$Comp
L R R405
U 1 1 570F2618
P 2150 5400
F 0 "R405" V 2100 5700 40  0000 C CNN
F 1 "1k" V 2157 5401 40  0000 C CNN
F 2 "MyKiCadLibs-Footprints:SMD-0805" V 2080 5400 30  0001 C CNN
F 3 "" V 2070 5400 30  0000 C CNN
F 4 "100mW" V 2250 5400 40  0001 C CNN "Power"
F 5 "Thick or thin film resistor" V 2395 5400 40  0001 C CNN "Description"
F 6 "0805" V 2325 5400 40  0001 C CNN "Size"
F 7 "1%" V 2475 5400 40  0001 C CNN "Tolerance"
	1    2150 5400
	0    -1   1    0   
$EndComp
$Comp
L R R406
U 1 1 570F292B
P 2150 5500
F 0 "R406" V 2100 5800 40  0000 C CNN
F 1 "1k" V 2157 5501 40  0000 C CNN
F 2 "MyKiCadLibs-Footprints:SMD-0805" V 2080 5500 30  0001 C CNN
F 3 "" V 2070 5500 30  0000 C CNN
F 4 "100mW" V 2250 5500 40  0001 C CNN "Power"
F 5 "Thick or thin film resistor" V 2395 5500 40  0001 C CNN "Description"
F 6 "0805" V 2325 5500 40  0001 C CNN "Size"
F 7 "1%" V 2475 5500 40  0001 C CNN "Tolerance"
	1    2150 5500
	0    -1   1    0   
$EndComp
$Comp
L R R407
U 1 1 570F2CDA
P 2150 5800
F 0 "R407" V 2100 6100 40  0000 C CNN
F 1 "1k" V 2157 5801 40  0000 C CNN
F 2 "MyKiCadLibs-Footprints:SMD-0805" V 2080 5800 30  0001 C CNN
F 3 "" V 2070 5800 30  0000 C CNN
F 4 "100mW" V 2250 5800 40  0001 C CNN "Power"
F 5 "Thick or thin film resistor" V 2395 5800 40  0001 C CNN "Description"
F 6 "0805" V 2325 5800 40  0001 C CNN "Size"
F 7 "1%" V 2475 5800 40  0001 C CNN "Tolerance"
	1    2150 5800
	0    -1   1    0   
$EndComp
$Comp
L R R408
U 1 1 570F308B
P 2150 5900
F 0 "R408" V 2100 6200 40  0000 C CNN
F 1 "1k" V 2157 5901 40  0000 C CNN
F 2 "MyKiCadLibs-Footprints:SMD-0805" V 2080 5900 30  0001 C CNN
F 3 "" V 2070 5900 30  0000 C CNN
F 4 "100mW" V 2250 5900 40  0001 C CNN "Power"
F 5 "Thick or thin film resistor" V 2395 5900 40  0001 C CNN "Description"
F 6 "0805" V 2325 5900 40  0001 C CNN "Size"
F 7 "1%" V 2475 5900 40  0001 C CNN "Tolerance"
	1    2150 5900
	0    -1   1    0   
$EndComp
Text Notes 700  750  0    118  ~ 0
Connectors
Text HLabel 6850 4900 2    60   Output ~ 0
USB_VBUS
Text HLabel 5400 5000 2    60   Output ~ 0
USBD_N
Text HLabel 5400 5100 2    60   Output ~ 0
USBD_P
$Comp
L GNDD #PWR417
U 1 1 57CC2B01
P 5650 5450
F 0 "#PWR417" H 5650 5200 60  0001 C CNN
F 1 "GNDD" H 5650 5300 60  0000 C CNN
F 2 "" H 5650 5450 60  0000 C CNN
F 3 "" H 5650 5450 60  0000 C CNN
	1    5650 5450
	1    0    0    -1  
$EndComp
$Comp
L C C404
U 1 1 57CC5FB8
P 6550 5200
F 0 "C404" H 6550 5300 40  0000 L CNN
F 1 "100n" H 6560 5115 40  0000 L CNN
F 2 "MyKiCadLibs-Footprints:SMD-0805" H 6588 5050 30  0001 C CNN
F 3 "" H 6550 5300 60  0000 C CNN
F 4 "50V" H 6615 5050 40  0000 C CNN "Voltage"
F 5 "X7R" H 6620 4975 40  0000 C CNN "Type"
F 6 "Ceramic capacitor" H 6550 5500 40  0001 L CNN "Description"
F 7 "10%" H 6950 5700 40  0001 C CNN "Tolerance"
F 8 "0805" H 6550 5200 60  0001 C CNN "Size"
	1    6550 5200
	1    0    0    1   
$EndComp
$Comp
L GNDD #PWR418
U 1 1 57CC88D3
P 6550 5500
F 0 "#PWR418" H 6550 5250 60  0001 C CNN
F 1 "GNDD" H 6550 5350 60  0000 C CNN
F 2 "" H 6550 5500 60  0000 C CNN
F 3 "" H 6550 5500 60  0000 C CNN
	1    6550 5500
	1    0    0    -1  
$EndComp
$Comp
L CONN_02X10 P403
U 1 1 57D3EDB0
P 8250 2200
F 0 "P403" H 8250 2750 50  0000 C CNN
F 1 "CONN_02X10" V 8250 2250 50  0000 C CNN
F 2 "MyKiCadLibs-Footprints:CONN_DIL_2X10_BOX_1MM" H 7450 1300 60  0001 C CNN
F 3 "" H 7450 1300 60  0000 C CNN
F 4 "2x10 2.54mm pitch box header" H 8250 1650 40  0001 C CNN "Description"
	1    8250 2200
	1    0    0    -1  
$EndComp
Text HLabel 7300 2150 0    60   Output ~ 0
XMOS_TCK
Text HLabel 7300 2050 0    60   Output ~ 0
XMOS_TMS
Text HLabel 7300 1950 0    60   Output ~ 0
XMOS_TDI
Text HLabel 7300 2350 0    60   Input ~ 0
XMOS_TDO
Text HLabel 7300 2450 0    60   Output ~ 0
XMOS_RST_N
Text HLabel 9300 1950 2    60   BiDi ~ 0
XMOS_XLUP1
Text HLabel 9300 2150 2    60   BiDi ~ 0
XMOS_XLUP0
Text HLabel 9300 2550 2    60   BiDi ~ 0
XMOS_XLDN1
Text HLabel 9300 2350 2    60   BiDi ~ 0
XMOS_XLDN0
$Comp
L R R413
U 1 1 57D4472C
P 8950 2350
F 0 "R413" V 9050 2350 40  0000 C CNN
F 1 "0" V 8957 2351 40  0000 C CNN
F 2 "MyKiCadLibs-Footprints:SMD-0805" V 8880 2350 30  0001 C CNN
F 3 "" V 8870 2350 30  0000 C CNN
F 4 "100mW" V 9050 2350 40  0001 C CNN "Power"
F 5 "Thick or thin film resistor" V 9195 2350 40  0001 C CNN "Description"
F 6 "0805" V 9125 2350 40  0001 C CNN "Size"
F 7 "1%" V 9275 2350 40  0001 C CNN "Tolerance"
	1    8950 2350
	0    -1   -1   0   
$EndComp
$Comp
L R R414
U 1 1 57D4491F
P 8950 2550
F 0 "R414" V 9050 2550 40  0000 C CNN
F 1 "0" V 8957 2551 40  0000 C CNN
F 2 "MyKiCadLibs-Footprints:SMD-0805" V 8880 2550 30  0001 C CNN
F 3 "" V 8870 2550 30  0000 C CNN
F 4 "100mW" V 9050 2550 40  0001 C CNN "Power"
F 5 "Thick or thin film resistor" V 9195 2550 40  0001 C CNN "Description"
F 6 "0805" V 9125 2550 40  0001 C CNN "Size"
F 7 "1%" V 9275 2550 40  0001 C CNN "Tolerance"
	1    8950 2550
	0    -1   -1   0   
$EndComp
$Comp
L GNDD #PWR412
U 1 1 5803506E
P 3200 3200
F 0 "#PWR412" H 3200 2950 60  0001 C CNN
F 1 "GNDD" H 3200 3050 60  0000 C CNN
F 2 "" H 3200 3200 60  0000 C CNN
F 3 "" H 3200 3200 60  0000 C CNN
	1    3200 3200
	-1   0    0    -1  
$EndComp
$Comp
L GNDD #PWR403
U 1 1 58035074
P 1250 2350
F 0 "#PWR403" H 1250 2100 60  0001 C CNN
F 1 "GNDD" H 1250 2200 60  0000 C CNN
F 2 "" H 1250 2350 60  0000 C CNN
F 3 "" H 1250 2350 60  0000 C CNN
	1    1250 2350
	-1   0    0    -1  
$EndComp
$Comp
L GNDD #PWR404
U 1 1 5803507A
P 1850 2350
F 0 "#PWR404" H 1850 2100 60  0001 C CNN
F 1 "GNDD" H 1850 2200 60  0000 C CNN
F 2 "" H 1850 2350 60  0000 C CNN
F 3 "" H 1850 2350 60  0000 C CNN
	1    1850 2350
	-1   0    0    -1  
$EndComp
$Comp
L PIN TP412
U 1 1 58035081
P 2400 2350
F 0 "TP412" H 2775 2350 40  0000 C CNN
F 1 "PIN" H 2750 2350 40  0001 C CNN
F 2 "MyKiCadLibs-Footprints:TP-TH-1mm" H 2740 2240 60  0001 C CNN
F 3 "" H 2740 2240 60  0000 C CNN
	1    2400 2350
	-1   0    0    -1  
$EndComp
$Comp
L PIN TP413
U 1 1 58035087
P 2400 2500
F 0 "TP413" H 2625 2400 40  0000 C CNN
F 1 "PIN" H 2750 2500 40  0001 C CNN
F 2 "MyKiCadLibs-Footprints:TP-TH-1mm" H 2740 2390 60  0001 C CNN
F 3 "" H 2740 2390 60  0000 C CNN
	1    2400 2500
	-1   0    0    -1  
$EndComp
$Comp
L PIN TP411
U 1 1 580350BB
P 2300 1550
F 0 "TP411" H 2675 1550 40  0000 C CNN
F 1 "PIN" H 2650 1550 40  0001 C CNN
F 2 "MyKiCadLibs-Footprints:TP-TH-1mm" H 2640 1440 60  0001 C CNN
F 3 "" H 2640 1440 60  0000 C CNN
	1    2300 1550
	-1   0    0    -1  
$EndComp
$Comp
L CONN_02X05 P407
U 1 1 580350C6
P 1550 2100
F 0 "P407" H 1550 2400 50  0000 C CNN
F 1 "CONN_02X05" H 1550 1800 50  0000 C CNN
F 2 "MyKiCadLibs-Footprints:CONN_DIL_2X5_BOX_1MM" H 1550 900 60  0001 C CNN
F 3 "" H 1550 900 60  0000 C CNN
F 4 "2x5 2.54mm pitch box header" H 1550 1700 40  0001 C CNN "Description"
	1    1550 2100
	1    0    0    -1  
$EndComp
$Comp
L R R429
U 1 1 580350D0
P 3500 1700
F 0 "R429" V 3450 1975 40  0000 C CNN
F 1 "N/F" V 3507 1701 40  0000 C CNN
F 2 "MyKiCadLibs-Footprints:SMD-0805" V 3430 1700 30  0001 C CNN
F 3 "" V 3420 1700 30  0000 C CNN
F 4 "100mW" V 3600 1700 40  0001 C CNN "Power"
F 5 "Thick or thin film resistor" V 3745 1700 40  0001 C CNN "Description"
F 6 "0805" V 3675 1700 40  0001 C CNN "Size"
F 7 "1%" V 3825 1700 40  0001 C CNN "Tolerance"
	1    3500 1700
	0    1    1    0   
$EndComp
$Comp
L R R430
U 1 1 580350DA
P 3500 1900
F 0 "R430" V 3450 2175 40  0000 C CNN
F 1 "75" V 3507 1901 40  0000 C CNN
F 2 "MyKiCadLibs-Footprints:SMD-0805" V 3430 1900 30  0001 C CNN
F 3 "" V 3420 1900 30  0000 C CNN
F 4 "100mW" V 3600 1900 40  0001 C CNN "Power"
F 5 "Thick or thin film resistor" V 3745 1900 40  0001 C CNN "Description"
F 6 "0805" V 3675 1900 40  0001 C CNN "Size"
F 7 "1%" V 3825 1900 40  0001 C CNN "Tolerance"
	1    3500 1900
	0    1    1    0   
$EndComp
$Comp
L R R431
U 1 1 580350E4
P 3500 2100
F 0 "R431" V 3450 2375 40  0000 C CNN
F 1 "75" V 3507 2101 40  0000 C CNN
F 2 "MyKiCadLibs-Footprints:SMD-0805" V 3430 2100 30  0001 C CNN
F 3 "" V 3420 2100 30  0000 C CNN
F 4 "100mW" V 3600 2100 40  0001 C CNN "Power"
F 5 "Thick or thin film resistor" V 3745 2100 40  0001 C CNN "Description"
F 6 "0805" V 3675 2100 40  0001 C CNN "Size"
F 7 "1%" V 3825 2100 40  0001 C CNN "Tolerance"
	1    3500 2100
	0    1    1    0   
$EndComp
$Comp
L R R432
U 1 1 580350EE
P 3500 2300
F 0 "R432" V 3450 2575 40  0000 C CNN
F 1 "75" V 3507 2301 40  0000 C CNN
F 2 "MyKiCadLibs-Footprints:SMD-0805" V 3430 2300 30  0001 C CNN
F 3 "" V 3420 2300 30  0000 C CNN
F 4 "100mW" V 3600 2300 40  0001 C CNN "Power"
F 5 "Thick or thin film resistor" V 3745 2300 40  0001 C CNN "Description"
F 6 "0805" V 3675 2300 40  0001 C CNN "Size"
F 7 "1%" V 3825 2300 40  0001 C CNN "Tolerance"
	1    3500 2300
	0    1    1    0   
$EndComp
$Comp
L R R434
U 1 1 580350F8
P 3200 2700
F 0 "R434" V 3150 3000 40  0000 C CNN
F 1 "N/F" V 3207 2701 40  0000 C CNN
F 2 "MyKiCadLibs-Footprints:SMD-0805" V 3130 2700 30  0001 C CNN
F 3 "" V 3120 2700 30  0000 C CNN
F 4 "100mW" V 3300 2700 40  0001 C CNN "Power"
F 5 "Thick or thin film resistor" V 3445 2700 40  0001 C CNN "Description"
F 6 "0805" V 3375 2700 40  0001 C CNN "Size"
F 7 "1%" V 3525 2700 40  0001 C CNN "Tolerance"
	1    3200 2700
	-1   0    0    1   
$EndComp
$Comp
L R R435
U 1 1 58035102
P 3050 2700
F 0 "R435" V 3000 3000 40  0000 C CNN
F 1 "N/F" V 3057 2701 40  0000 C CNN
F 2 "MyKiCadLibs-Footprints:SMD-0805" V 2980 2700 30  0001 C CNN
F 3 "" V 2970 2700 30  0000 C CNN
F 4 "100mW" V 3150 2700 40  0001 C CNN "Power"
F 5 "Thick or thin film resistor" V 3295 2700 40  0001 C CNN "Description"
F 6 "0805" V 3225 2700 40  0001 C CNN "Size"
F 7 "1%" V 3375 2700 40  0001 C CNN "Tolerance"
	1    3050 2700
	-1   0    0    1   
$EndComp
$Comp
L R R436
U 1 1 5803510C
P 2900 2700
F 0 "R436" V 2850 3000 40  0000 C CNN
F 1 "N/F" V 2907 2701 40  0000 C CNN
F 2 "MyKiCadLibs-Footprints:SMD-0805" V 2830 2700 30  0001 C CNN
F 3 "" V 2820 2700 30  0000 C CNN
F 4 "100mW" V 3000 2700 40  0001 C CNN "Power"
F 5 "Thick or thin film resistor" V 3145 2700 40  0001 C CNN "Description"
F 6 "0805" V 3075 2700 40  0001 C CNN "Size"
F 7 "1%" V 3225 2700 40  0001 C CNN "Tolerance"
	1    2900 2700
	-1   0    0    1   
$EndComp
$Comp
L R R438
U 1 1 58035116
P 2750 2700
F 0 "R438" V 2700 3000 40  0000 C CNN
F 1 "N/F" V 2757 2701 40  0000 C CNN
F 2 "MyKiCadLibs-Footprints:SMD-0805" V 2680 2700 30  0001 C CNN
F 3 "" V 2670 2700 30  0000 C CNN
F 4 "100mW" V 2850 2700 40  0001 C CNN "Power"
F 5 "Thick or thin film resistor" V 2995 2700 40  0001 C CNN "Description"
F 6 "0805" V 2925 2700 40  0001 C CNN "Size"
F 7 "1%" V 3075 2700 40  0001 C CNN "Tolerance"
	1    2750 2700
	-1   0    0    1   
$EndComp
Text HLabel 3850 1500 2    60   BiDi ~ 0
I2S_SDATA1
Text HLabel 3850 1900 2    60   BiDi ~ 0
I2S_LRCLK0
Text HLabel 3850 2100 2    60   BiDi ~ 0
I2S_BCLK0
Text HLabel 3850 2300 2    60   BiDi ~ 0
I2S_SDATA0
Text Notes 8250 5400 0    118  ~ 0
I2C Port
Text HLabel 9600 5600 2    60   BiDi ~ 0
I2C_SDA1
Text HLabel 9600 5700 2    60   BiDi ~ 0
I2C_SCL1
Text HLabel 9600 5800 2    60   Input ~ 0
I2C_RST
$Comp
L CONN_02X04 P404
U 1 1 58064B05
P 8650 5750
F 0 "P404" H 8650 6000 50  0000 C CNN
F 1 "CONN_02X04" H 8650 5500 50  0000 C CNN
F 2 "MyKiCadLibs-Footprints:CONN_DIL_2X4_BOX_1MM" H 8650 4550 60  0001 C CNN
F 3 "" H 8650 4550 60  0000 C CNN
F 4 "2x4 2.54mm pitch box header" H 8650 5400 40  0001 C CNN "Description"
	1    8650 5750
	1    0    0    -1  
$EndComp
$Comp
L GNDD #PWR420
U 1 1 580616FB
P 8300 6000
F 0 "#PWR420" H 8300 5750 60  0001 C CNN
F 1 "GNDD" H 8300 5850 60  0000 C CNN
F 2 "" H 8300 6000 60  0000 C CNN
F 3 "" H 8300 6000 60  0000 C CNN
	1    8300 6000
	1    0    0    -1  
$EndComp
Text HLabel 9600 5900 2    60   Input ~ 0
I2C_MUTE
Text Notes 4800 4550 0    118  ~ 0
USB Port
Text HLabel 3850 1700 2    60   Input ~ 0
I2S_MCLKA
$Comp
L PIN TP416
U 1 1 57FB2B81
P 2300 1700
F 0 "TP416" H 2675 1700 40  0000 C CNN
F 1 "PIN" H 2650 1700 40  0001 C CNN
F 2 "MyKiCadLibs-Footprints:TP-TH-1mm" H 2640 1590 60  0001 C CNN
F 3 "" H 2640 1590 60  0000 C CNN
	1    2300 1700
	-1   0    0    -1  
$EndComp
$Comp
L CONN-USB-B-61729 CN401
U 1 1 57CC06C5
P 5300 4900
F 0 "CN401" H 5550 5050 60  0000 C CNN
F 1 "CONN-USB-B-61729" H 5600 4350 60  0001 C CNN
F 2 "MyKiCadLibs-Footprints:CONN-USB-B-61729-0010" H 5600 4150 60  0001 C CNN
F 3 "" H 5300 5200 60  0000 C CNN
F 4 "USB B Connector - Amphenol 61729 Series - eg: 61729-0010" H 5600 4250 60  0001 C CNN "Description"
	1    5300 4900
	-1   0    0    -1  
$EndComp
$Comp
L GNDPWR #PWR416
U 1 1 58178606
P 5350 5450
F 0 "#PWR416" H 5350 5250 50  0001 C CNN
F 1 "GNDPWR" H 5350 5320 50  0000 C CNN
F 2 "" H 5350 5400 50  0000 C CNN
F 3 "" H 5350 5400 50  0000 C CNN
	1    5350 5450
	1    0    0    -1  
$EndComp
$Comp
L GNDD #PWR409
U 1 1 58795002
P 2800 7150
F 0 "#PWR409" H 2800 6900 60  0001 C CNN
F 1 "GNDD" H 2800 7000 60  0000 C CNN
F 2 "" H 2800 7150 60  0000 C CNN
F 3 "" H 2800 7150 60  0000 C CNN
	1    2800 7150
	1    0    0    -1  
$EndComp
$Comp
L GNDD #PWR411
U 1 1 587951ED
P 3050 7150
F 0 "#PWR411" H 3050 6900 60  0001 C CNN
F 1 "GNDD" H 3050 7000 60  0000 C CNN
F 2 "" H 3050 7150 60  0000 C CNN
F 3 "" H 3050 7150 60  0000 C CNN
	1    3050 7150
	1    0    0    -1  
$EndComp
Connection ~ 1200 5300
Wire Wire Line
	1300 5200 1200 5200
Connection ~ 1200 5400
Wire Wire Line
	1200 5300 1300 5300
Connection ~ 1200 5500
Wire Wire Line
	1200 5400 1300 5400
Connection ~ 1200 5800
Wire Wire Line
	1200 5500 1300 5500
Connection ~ 1200 5900
Wire Wire Line
	1200 5800 1300 5800
Wire Wire Line
	1200 5900 1300 5900
Wire Wire Line
	1200 5200 1200 6200
Wire Wire Line
	1900 5900 1800 5900
Wire Wire Line
	1800 5800 1900 5800
Wire Wire Line
	1900 5500 1800 5500
Wire Wire Line
	1800 5400 1900 5400
Wire Wire Line
	1900 5300 1800 5300
Wire Wire Line
	1800 5200 1900 5200
Wire Wire Line
	8600 1850 8600 2750
Wire Wire Line
	8600 2650 8500 2650
Wire Wire Line
	1000 7200 1150 7200
Wire Wire Line
	1150 7000 1000 7000
Connection ~ 1000 7200
Wire Wire Line
	8300 4200 8300 4750
Wire Wire Line
	8300 4700 8400 4700
Wire Wire Line
	8400 4600 8300 4600
Connection ~ 8300 4700
Wire Wire Line
	8300 4500 8400 4500
Connection ~ 8300 4600
Wire Wire Line
	8400 4400 8300 4400
Connection ~ 8300 4500
Wire Wire Line
	8300 4300 8400 4300
Connection ~ 8300 4400
Wire Wire Line
	8400 4200 8300 4200
Connection ~ 8300 4300
Wire Wire Line
	9600 4300 8900 4300
Wire Wire Line
	8900 4400 9600 4400
Wire Wire Line
	8900 4500 9600 4500
Wire Wire Line
	8900 4700 9600 4700
Wire Wire Line
	8950 4200 8900 4200
Wire Wire Line
	9450 4200 9600 4200
Wire Wire Line
	8900 4600 9600 4600
Wire Wire Line
	5650 5200 5650 5450
Wire Wire Line
	5650 5200 5300 5200
Wire Wire Line
	6550 5500 6550 5400
Wire Wire Line
	6200 4900 6850 4900
Wire Wire Line
	6550 4900 6550 5000
Wire Wire Line
	5300 4900 5700 4900
Wire Wire Line
	5400 5000 5300 5000
Wire Wire Line
	5400 5100 5300 5100
Connection ~ 6550 4900
Wire Wire Line
	8500 2450 8600 2450
Connection ~ 8600 2650
Wire Wire Line
	8500 2250 8600 2250
Connection ~ 8600 2450
Wire Wire Line
	8500 2050 8600 2050
Connection ~ 8600 2250
Wire Wire Line
	8500 1850 8600 1850
Connection ~ 8600 2050
Wire Wire Line
	7300 2050 8000 2050
Wire Wire Line
	7300 2150 8000 2150
Wire Wire Line
	7300 1950 8000 1950
Wire Wire Line
	7300 2350 8000 2350
Wire Wire Line
	7300 2450 8000 2450
Wire Wire Line
	9300 2550 9200 2550
Wire Wire Line
	9200 2350 9300 2350
Wire Wire Line
	8500 2150 9300 2150
Wire Wire Line
	8500 1950 9300 1950
Wire Wire Line
	8700 2350 8500 2350
Wire Wire Line
	8500 2550 8700 2550
Wire Wire Line
	2550 2200 2550 2500
Wire Wire Line
	3250 2300 2550 2300
Wire Wire Line
	3250 1900 2550 1900
Wire Wire Line
	2550 1900 2550 2000
Wire Wire Line
	3250 2100 1800 2100
Wire Wire Line
	2400 1900 1800 1900
Wire Wire Line
	1850 2300 1800 2300
Connection ~ 1250 2200
Wire Wire Line
	1250 2200 1300 2200
Connection ~ 1250 2000
Wire Wire Line
	1300 2000 1250 2000
Wire Wire Line
	2550 2200 1800 2200
Wire Wire Line
	2550 2000 1800 2000
Connection ~ 1250 2100
Wire Wire Line
	1300 1900 1250 1900
Connection ~ 1250 2300
Wire Wire Line
	1250 2100 1300 2100
Wire Wire Line
	1250 1900 1250 2350
Wire Wire Line
	1250 2300 1300 2300
Connection ~ 2900 1900
Connection ~ 3050 2100
Connection ~ 3200 2300
Wire Wire Line
	2900 1900 2900 2450
Wire Wire Line
	3050 2100 3050 2450
Wire Wire Line
	3200 2300 3200 2450
Wire Wire Line
	3850 2300 3750 2300
Wire Wire Line
	3850 2100 3750 2100
Wire Wire Line
	3200 2950 3200 3200
Connection ~ 3050 3100
Wire Wire Line
	2900 3100 2900 2950
Connection ~ 3200 3100
Wire Wire Line
	3200 3100 2750 3100
Wire Wire Line
	3050 2950 3050 3100
Wire Wire Line
	3850 1900 3750 1900
Wire Wire Line
	2400 1700 2400 1900
Wire Wire Line
	3250 1700 2300 1700
Wire Wire Line
	1850 2300 1850 2350
Connection ~ 2600 1900
Wire Wire Line
	2550 2500 2400 2500
Connection ~ 2550 2300
Wire Wire Line
	2400 2350 2450 2350
Wire Wire Line
	2450 2350 2450 2100
Connection ~ 2450 2100
Wire Wire Line
	2600 1550 2600 1900
Wire Wire Line
	2300 1550 2600 1550
Wire Wire Line
	2750 2450 2750 1700
Wire Wire Line
	2750 3100 2750 2950
Connection ~ 2900 3100
Connection ~ 2750 1700
Wire Wire Line
	9600 5600 8900 5600
Wire Wire Line
	8900 5700 9600 5700
Wire Wire Line
	9600 5800 8900 5800
Wire Wire Line
	8300 5600 8400 5600
Connection ~ 8300 5700
Connection ~ 8300 5800
Wire Wire Line
	8400 5700 8300 5700
Connection ~ 8300 5900
Wire Wire Line
	8300 5800 8400 5800
Wire Wire Line
	8300 5900 8400 5900
Wire Wire Line
	8300 5600 8300 6000
Wire Wire Line
	9600 5900 8900 5900
Wire Wire Line
	3850 1700 3750 1700
Connection ~ 2400 1700
Wire Wire Line
	5350 5450 5350 5300
Wire Wire Line
	5350 5300 5300 5300
Wire Wire Line
	2400 5900 3600 5900
Wire Wire Line
	2400 5800 3600 5800
Wire Wire Line
	2400 5500 3600 5500
Wire Wire Line
	2400 5400 3600 5400
Wire Wire Line
	2400 5300 3600 5300
Wire Wire Line
	2400 5200 3600 5200
Wire Wire Line
	2550 6450 2550 6550
Wire Wire Line
	2550 7050 2550 7150
Wire Wire Line
	2500 6800 2450 6800
Wire Wire Line
	2450 6800 2450 6100
Wire Wire Line
	2800 7050 2800 7150
Wire Wire Line
	2750 6800 2700 6800
Wire Wire Line
	2700 6800 2700 6000
Wire Wire Line
	3050 7050 3050 7150
Wire Wire Line
	3000 6800 2950 6800
Wire Wire Line
	2950 6800 2950 5900
$Comp
L GNDD #PWR408
U 1 1 58795781
P 2600 4950
F 0 "#PWR408" H 2600 4700 60  0001 C CNN
F 1 "GNDD" H 2600 4800 60  0000 C CNN
F 2 "" H 2600 4950 60  0000 C CNN
F 3 "" H 2600 4950 60  0000 C CNN
	1    2600 4950
	1    0    0    -1  
$EndComp
$Comp
L DIODE_DUAL_BAV99 D402
U 1 1 58795788
P 2600 4600
F 0 "D402" H 2600 4550 40  0000 C CNN
F 1 "BAV99" H 2600 4500 40  0000 C CNN
F 2 "MyKiCadLibs-Footprints:IC-SOT23" H 2450 4600 60  0001 C CNN
F 3 "" H 2450 4600 60  0000 C CNN
F 4 "Text description" H 2600 4450 40  0001 C CNN "Description"
	1    2600 4600
	0    -1   -1   0   
$EndComp
$Comp
L GNDD #PWR410
U 1 1 58795794
P 2900 4950
F 0 "#PWR410" H 2900 4700 60  0001 C CNN
F 1 "GNDD" H 2900 4800 60  0000 C CNN
F 2 "" H 2900 4950 60  0000 C CNN
F 3 "" H 2900 4950 60  0000 C CNN
	1    2900 4950
	1    0    0    -1  
$EndComp
$Comp
L GNDD #PWR413
U 1 1 587957A7
P 3200 4950
F 0 "#PWR413" H 3200 4700 60  0001 C CNN
F 1 "GNDD" H 3200 4800 60  0000 C CNN
F 2 "" H 3200 4950 60  0000 C CNN
F 3 "" H 3200 4950 60  0000 C CNN
	1    3200 4950
	1    0    0    -1  
$EndComp
Wire Wire Line
	2600 4250 2600 4350
Wire Wire Line
	2600 4850 2600 4950
Wire Wire Line
	2450 4600 2550 4600
Wire Wire Line
	2900 4850 2900 4950
Wire Wire Line
	2850 4600 2750 4600
Wire Wire Line
	3200 4850 3200 4950
Wire Wire Line
	3150 4600 3050 4600
Wire Wire Line
	2450 4600 2450 5200
Connection ~ 2450 5200
Wire Wire Line
	2750 4600 2750 5300
Connection ~ 2750 5300
Wire Wire Line
	3050 4600 3050 5400
Connection ~ 3050 5400
$Comp
L DIODE_DUAL_BAV99 D404
U 1 1 58797D59
P 2900 4600
F 0 "D404" H 2900 4550 40  0000 C CNN
F 1 "BAV99" H 2900 4500 40  0000 C CNN
F 2 "MyKiCadLibs-Footprints:IC-SOT23" H 2750 4600 60  0001 C CNN
F 3 "" H 2750 4600 60  0000 C CNN
F 4 "Text description" H 2900 4450 40  0001 C CNN "Description"
	1    2900 4600
	0    -1   -1   0   
$EndComp
$Comp
L DIODE_DUAL_BAV99 D406
U 1 1 58797E2D
P 3200 4600
F 0 "D406" H 3200 4550 40  0000 C CNN
F 1 "BAV99" H 3200 4500 40  0000 C CNN
F 2 "MyKiCadLibs-Footprints:IC-SOT23" H 3050 4600 60  0001 C CNN
F 3 "" H 3050 4600 60  0000 C CNN
F 4 "Text description" H 3200 4450 40  0001 C CNN "Description"
	1    3200 4600
	0    -1   -1   0   
$EndComp
$Comp
L DIODE_DUAL_BAV99 D401
U 1 1 58797F04
P 2550 6800
F 0 "D401" H 2550 6750 40  0000 C CNN
F 1 "BAV99" H 2550 6700 40  0000 C CNN
F 2 "MyKiCadLibs-Footprints:IC-SOT23" H 2400 6800 60  0001 C CNN
F 3 "" H 2400 6800 60  0000 C CNN
F 4 "Text description" H 2550 6650 40  0001 C CNN "Description"
	1    2550 6800
	0    -1   -1   0   
$EndComp
$Comp
L DIODE_DUAL_BAV99 D403
U 1 1 58798016
P 2800 6800
F 0 "D403" H 2800 6750 40  0000 C CNN
F 1 "BAV99" H 2800 6700 40  0000 C CNN
F 2 "MyKiCadLibs-Footprints:IC-SOT23" H 2650 6800 60  0001 C CNN
F 3 "" H 2650 6800 60  0000 C CNN
F 4 "Text description" H 2800 6650 40  0001 C CNN "Description"
	1    2800 6800
	0    -1   -1   0   
$EndComp
$Comp
L DIODE_DUAL_BAV99 D405
U 1 1 587980F1
P 3050 6800
F 0 "D405" H 3050 6750 40  0000 C CNN
F 1 "BAV99" H 3050 6700 40  0000 C CNN
F 2 "MyKiCadLibs-Footprints:IC-SOT23" H 2900 6800 60  0001 C CNN
F 3 "" H 2900 6800 60  0000 C CNN
F 4 "Text description" H 3050 6650 40  0001 C CNN "Description"
	1    3050 6800
	0    -1   -1   0   
$EndComp
$Comp
L R R411
U 1 1 587B94C3
P 5950 4900
F 0 "R411" V 6050 4900 40  0000 C CNN
F 1 "1" V 5957 4901 40  0000 C CNN
F 2 "MyKiCadLibs-Footprints:SMD-0805" V 5880 4900 30  0001 C CNN
F 3 "" V 5870 4900 30  0000 C CNN
F 4 "100mW" V 6050 4900 40  0001 C CNN "Power"
F 5 "Thick or thin film resistor" V 6195 4900 40  0001 C CNN "Description"
F 6 "0805" V 6125 4900 40  0001 C CNN "Size"
F 7 "1%" V 6275 4900 40  0001 C CNN "Tolerance"
	1    5950 4900
	0    -1   -1   0   
$EndComp
Wire Wire Line
	1300 6000 1200 6000
Connection ~ 1200 6000
Wire Wire Line
	1300 6100 1200 6100
Connection ~ 1200 6100
$Comp
L R R412
U 1 1 58978723
P 2150 6000
F 0 "R412" V 2100 6300 40  0000 C CNN
F 1 "1k" V 2157 6001 40  0000 C CNN
F 2 "MyKiCadLibs-Footprints:SMD-0805" V 2080 6000 30  0001 C CNN
F 3 "" V 2070 6000 30  0000 C CNN
F 4 "100mW" V 2250 6000 40  0001 C CNN "Power"
F 5 "Thick or thin film resistor" V 2395 6000 40  0001 C CNN "Description"
F 6 "0805" V 2325 6000 40  0001 C CNN "Size"
F 7 "1%" V 2475 6000 40  0001 C CNN "Tolerance"
	1    2150 6000
	0    -1   1    0   
$EndComp
$Comp
L R R415
U 1 1 589787FB
P 2150 6100
F 0 "R415" V 2100 6400 40  0000 C CNN
F 1 "1k" V 2157 6101 40  0000 C CNN
F 2 "MyKiCadLibs-Footprints:SMD-0805" V 2080 6100 30  0001 C CNN
F 3 "" V 2070 6100 30  0000 C CNN
F 4 "100mW" V 2250 6100 40  0001 C CNN "Power"
F 5 "Thick or thin film resistor" V 2395 6100 40  0001 C CNN "Description"
F 6 "0805" V 2325 6100 40  0001 C CNN "Size"
F 7 "1%" V 2475 6100 40  0001 C CNN "Tolerance"
	1    2150 6100
	0    -1   1    0   
$EndComp
Wire Wire Line
	1900 6000 1800 6000
Wire Wire Line
	1900 6100 1800 6100
Text HLabel 3600 6100 2    60   Output ~ 0
AUX_DIGI7
Text HLabel 3600 6000 2    60   Output ~ 0
AUX_DIGI6
Wire Wire Line
	2400 6000 3600 6000
Wire Wire Line
	2400 6100 3600 6100
Connection ~ 2450 6100
Connection ~ 2700 6000
Connection ~ 2950 5900
$Comp
L GNDD #PWR414
U 1 1 5897929C
P 3300 7150
F 0 "#PWR414" H 3300 6900 60  0001 C CNN
F 1 "GNDD" H 3300 7000 60  0000 C CNN
F 2 "" H 3300 7150 60  0000 C CNN
F 3 "" H 3300 7150 60  0000 C CNN
	1    3300 7150
	1    0    0    -1  
$EndComp
Wire Wire Line
	3300 7050 3300 7150
Wire Wire Line
	3250 6800 3200 6800
$Comp
L DIODE_DUAL_BAV99 D407
U 1 1 589792A7
P 3300 6800
F 0 "D407" H 3300 6750 40  0000 C CNN
F 1 "BAV99" H 3300 6700 40  0000 C CNN
F 2 "MyKiCadLibs-Footprints:IC-SOT23" H 3150 6800 60  0001 C CNN
F 3 "" H 3150 6800 60  0000 C CNN
F 4 "Text description" H 3300 6650 40  0001 C CNN "Description"
	1    3300 6800
	0    -1   -1   0   
$EndComp
$Comp
L GNDD #PWR415
U 1 1 589795E7
P 3500 4950
F 0 "#PWR415" H 3500 4700 60  0001 C CNN
F 1 "GNDD" H 3500 4800 60  0000 C CNN
F 2 "" H 3500 4950 60  0000 C CNN
F 3 "" H 3500 4950 60  0000 C CNN
	1    3500 4950
	1    0    0    -1  
$EndComp
Wire Wire Line
	3500 4850 3500 4950
Wire Wire Line
	3450 4600 3350 4600
$Comp
L DIODE_DUAL_BAV99 D408
U 1 1 589795F2
P 3500 4600
F 0 "D408" H 3500 4550 40  0000 C CNN
F 1 "BAV99" H 3500 4500 40  0000 C CNN
F 2 "MyKiCadLibs-Footprints:IC-SOT23" H 3350 4600 60  0001 C CNN
F 3 "" H 3350 4600 60  0000 C CNN
F 4 "Text description" H 3500 4450 40  0001 C CNN "Description"
	1    3500 4600
	0    -1   -1   0   
$EndComp
Wire Wire Line
	3350 4600 3350 5500
Connection ~ 3350 5500
Wire Wire Line
	3200 6800 3200 5800
Connection ~ 3200 5800
$Comp
L CONN_02X04 P402
U 1 1 589BF4EF
P 1550 5350
F 0 "P402" H 1550 5600 50  0000 C CNN
F 1 "CONN_02X04" H 1550 5100 50  0000 C CNN
F 2 "MyKiCadLibs-Footprints:CONN_DIL_2X04" H 1550 4150 60  0001 C CNN
F 3 "" H 1550 4150 60  0000 C CNN
F 4 "2x4 2.54mm pitch pin header" H 1550 5000 40  0001 C CNN "Description"
	1    1550 5350
	1    0    0    -1  
$EndComp
$Comp
L CONN_02X04 P408
U 1 1 589BF9F2
P 1550 5950
F 0 "P408" H 1550 6200 50  0000 C CNN
F 1 "CONN_02X04" H 1550 5700 50  0000 C CNN
F 2 "MyKiCadLibs-Footprints:CONN_DIL_2X04" H 1550 4750 60  0001 C CNN
F 3 "" H 1550 4750 60  0000 C CNN
F 4 "2x4 2.54mm pitch pin header" H 1550 5600 40  0001 C CNN "Description"
	1    1550 5950
	1    0    0    -1  
$EndComp
$Comp
L +3.3V #PWR407
U 1 1 58939DDB
P 2600 4250
F 0 "#PWR407" H 2600 4100 50  0001 C CNN
F 1 "+3.3V" H 2600 4390 50  0000 C CNN
F 2 "" H 2600 4250 50  0000 C CNN
F 3 "" H 2600 4250 50  0000 C CNN
	1    2600 4250
	1    0    0    -1  
$EndComp
Wire Wire Line
	2600 4300 3500 4300
Connection ~ 2900 4300
Connection ~ 2600 4300
Connection ~ 3200 4300
Wire Wire Line
	3200 4300 3200 4350
Wire Wire Line
	3500 4300 3500 4350
Wire Wire Line
	2900 4350 2900 4300
$Comp
L +3.3V #PWR405
U 1 1 5893A73D
P 2550 6450
F 0 "#PWR405" H 2550 6300 50  0001 C CNN
F 1 "+3.3V" H 2550 6590 50  0000 C CNN
F 2 "" H 2550 6450 50  0000 C CNN
F 3 "" H 2550 6450 50  0000 C CNN
	1    2550 6450
	1    0    0    -1  
$EndComp
Wire Wire Line
	2800 6550 2800 6500
Wire Wire Line
	2550 6500 3300 6500
Connection ~ 2550 6500
Wire Wire Line
	3050 6500 3050 6550
Connection ~ 2800 6500
Wire Wire Line
	3300 6500 3300 6550
Connection ~ 3050 6500
Wire Wire Line
	1000 7000 1000 7350
$Comp
L R R401
U 1 1 59060EDE
P 3500 1500
F 0 "R401" V 3450 1775 40  0000 C CNN
F 1 "0" V 3507 1501 40  0000 C CNN
F 2 "MyKiCadLibs-Footprints:SMD-0805" V 3430 1500 30  0001 C CNN
F 3 "" V 3420 1500 30  0000 C CNN
F 4 "100mW" V 3600 1500 40  0001 C CNN "Power"
F 5 "Thick or thin film resistor" V 3745 1500 40  0001 C CNN "Description"
F 6 "0805" V 3675 1500 40  0001 C CNN "Size"
F 7 "1%" V 3825 1500 40  0001 C CNN "Tolerance"
	1    3500 1500
	0    1    1    0   
$EndComp
Wire Wire Line
	3750 1500 3850 1500
Wire Wire Line
	3250 1500 3100 1500
Wire Wire Line
	3100 1500 3100 1700
Connection ~ 3100 1700
$EndSCHEMATC
