EESchema Schematic File Version 2
LIBS:power
LIBS:MyKiCadLibs-Lib
LIBS:DEV-CoreOne-cache
EELAYER 25 0
EELAYER END
$Descr A3 16535 11693
encoding utf-8
Sheet 6 8
Title "ADAU145x DSP - ADAU1452, ADAU1451, ADAU1450 supported"
Date "2016-05-25"
Rev "2.0"
Comp "Open Hardware DSP Platform - www.ohdsp.org"
Comment1 "MERCHANTABILITY, SATISFACTORY QUALITY AND FITNESS FOR A PARTICULAR PURPOSE."
Comment2 "is distributed WITHOUT ANY EXPRESS OR IMPLIED WARRANTY, INCLUDING OF"
Comment3 "Licensed under the TAPR Open Hardware License (www.tapr.org/OHL). This documentation"
Comment4 "Copyright Paul Janicki 2016"
$EndDescr
Text HLabel 3450 5600 0    60   Input ~ 0
ETH_TXD0
Text HLabel 3450 5700 0    60   Input ~ 0
ETH_TXD1
Text HLabel 3450 5800 0    60   Input ~ 0
ETH_TXD2
Text HLabel 3450 5900 0    60   Input ~ 0
ETH_TXD3
Text HLabel 3450 5500 0    60   Input ~ 0
ETH_TX_CTL
Text HLabel 3450 5400 0    60   Input ~ 0
ETH_TX_CLK
Text HLabel 3450 4950 0    60   BiDi ~ 0
ETH_MDC
Text HLabel 3450 5050 0    60   BiDi ~ 0
ETH_MDIO
$Comp
L GNDD #PWR095
U 1 1 57CE85BD
P 1500 2050
F 0 "#PWR095" H 1500 1800 60  0001 C CNN
F 1 "GNDD" H 1500 1900 60  0000 C CNN
F 2 "" H 1500 2050 60  0000 C CNN
F 3 "" H 1500 2050 60  0000 C CNN
	1    1500 2050
	1    0    0    -1  
$EndComp
$Comp
L C C605
U 1 1 57CE85CE
P 2200 1500
F 0 "C605" H 2200 1600 40  0000 L CNN
F 1 "22u" H 2210 1415 40  0000 L CNN
F 2 "MyKiCadLibs-Footprints:SMD-0805" H 2238 1350 30  0001 C CNN
F 3 "" H 2200 1600 60  0000 C CNN
F 4 "10V" H 2265 1350 40  0000 C CNN "Voltage"
F 5 "X5R" H 2270 1275 40  0000 C CNN "Type"
F 6 "Ceramic capacitor" H 2200 1800 40  0001 L CNN "Description"
F 7 "20%" H 2600 2000 40  0001 C CNN "Tolerance"
F 8 "0805" H 2200 1500 60  0001 C CNN "Size"
	1    2200 1500
	1    0    0    -1  
$EndComp
$Comp
L C C607
U 1 1 57CE85DA
P 2500 1500
F 0 "C607" H 2500 1600 40  0000 L CNN
F 1 "100n" H 2510 1415 40  0000 L CNN
F 2 "MyKiCadLibs-Footprints:SMD-0805" H 2538 1350 30  0001 C CNN
F 3 "" H 2500 1600 60  0000 C CNN
F 4 "50V" H 2565 1350 40  0000 C CNN "Voltage"
F 5 "X7R" H 2570 1275 40  0000 C CNN "Type"
F 6 "Ceramic capacitor" H 2500 1800 40  0001 L CNN "Description"
F 7 "10%" H 2900 2000 40  0001 C CNN "Tolerance"
F 8 "0805" H 2500 1500 60  0001 C CNN "Size"
	1    2500 1500
	1    0    0    -1  
$EndComp
$Comp
L C C601
U 1 1 57CE8616
P 1500 1700
F 0 "C601" H 1500 1800 40  0000 L CNN
F 1 "100p" H 1510 1615 40  0000 L CNN
F 2 "MyKiCadLibs-Footprints:SMD-0805" H 1538 1550 30  0001 C CNN
F 3 "" H 1500 1800 60  0000 C CNN
F 4 "50V" H 1565 1550 40  0000 C CNN "Voltage"
F 5 "C0G" H 1570 1475 40  0000 C CNN "Type"
F 6 "Ceramic capacitor" H 1500 2000 40  0001 L CNN "Description"
F 7 "5%" H 1900 2200 40  0001 C CNN "Tolerance"
F 8 "0805" H 1500 1700 60  0001 C CNN "Size"
	1    1500 1700
	1    0    0    -1  
$EndComp
$Comp
L CP1 C603
U 1 1 57CE8620
P 1850 1500
F 0 "C603" H 1900 1600 50  0000 L CNN
F 1 "220u" H 1900 1400 50  0000 L CNN
F 2 "MyKiCadLibs-Footprints:CAP-TH-D6.3mmP2.5mm" H 1850 1500 60  0001 C CNN
F 3 "" H 1850 1500 60  0000 C CNN
F 4 "10V" H 1905 1315 50  0000 L CNN "Voltage"
F 5 "2.5mm pitch, 6.3mm diameter" H 1850 1800 40  0001 L CNN "Type"
F 6 "Low impedance aluminium electrolytic capacitor - Panasonic FC, FR or similar" H 1850 1900 40  0001 L CNN "Description"
	1    1850 1500
	1    0    0    -1  
$EndComp
$Comp
L INDUCTOR L601
U 1 1 57CE862A
P 1150 900
F 0 "L601" V 1100 900 40  0000 C CNN
F 1 "600R@100MHz" V 1250 900 40  0000 C CNN
F 2 "MyKiCadLibs-Footprints:SMD-0805" H 1150 900 60  0001 C CNN
F 3 "" H 1150 900 60  0000 C CNN
F 4 "=>1A" V 1300 900 40  0000 C CNN "Current"
F 5 "Ferrite bead, current rating 1A or higher, 600R@100MHz" V 1350 950 40  0001 C CNN "Description"
F 6 "0805" V 1150 900 60  0001 C CNN "Size"
	1    1150 900 
	0    -1   -1   0   
$EndComp
$Comp
L C C609
U 1 1 57CE8636
P 2800 1500
F 0 "C609" H 2800 1600 40  0000 L CNN
F 1 "1u" H 2810 1415 40  0000 L CNN
F 2 "MyKiCadLibs-Footprints:SMD-0603" H 2838 1350 30  0001 C CNN
F 3 "" H 2800 1600 60  0000 C CNN
F 4 "10V" H 2815 1345 40  0000 L CNN "Voltage"
F 5 "X7R" H 2815 1275 40  0000 L CNN "Type"
F 6 "Ceramic capacitor" H 2800 1800 40  0001 L CNN "Description"
F 7 "10%" H 2870 1135 40  0001 C CNN "Tolerance"
F 8 "0603" H 2810 1205 40  0000 L CNN "Size"
	1    2800 1500
	1    0    0    -1  
$EndComp
$Comp
L C C626
U 1 1 57CE8642
P 5500 1500
F 0 "C626" H 5500 1600 40  0000 L CNN
F 1 "10n" H 5510 1415 40  0000 L CNN
F 2 "MyKiCadLibs-Footprints:SMD-0603" H 5538 1350 30  0001 C CNN
F 3 "" H 5500 1600 60  0000 C CNN
F 4 "50V" H 5515 1345 40  0000 L CNN "Voltage"
F 5 "X7R" H 5515 1275 40  0000 L CNN "Type"
F 6 "Ceramic capacitor" H 5500 1800 40  0001 L CNN "Description"
F 7 "10%" H 5570 1135 40  0001 C CNN "Tolerance"
F 8 "0603" H 5510 1205 40  0000 L CNN "Size"
	1    5500 1500
	1    0    0    -1  
$EndComp
$Comp
L C C613
U 1 1 57CE864E
P 3400 1500
F 0 "C613" H 3400 1600 40  0000 L CNN
F 1 "1u" H 3410 1415 40  0000 L CNN
F 2 "MyKiCadLibs-Footprints:SMD-0603" H 3438 1350 30  0001 C CNN
F 3 "" H 3400 1600 60  0000 C CNN
F 4 "10V" H 3415 1345 40  0000 L CNN "Voltage"
F 5 "X7R" H 3415 1275 40  0000 L CNN "Type"
F 6 "Ceramic capacitor" H 3400 1800 40  0001 L CNN "Description"
F 7 "10%" H 3470 1135 40  0001 C CNN "Tolerance"
F 8 "0603" H 3410 1205 40  0000 L CNN "Size"
	1    3400 1500
	1    0    0    -1  
$EndComp
$Comp
L C C615
U 1 1 57CE865A
P 3700 1500
F 0 "C615" H 3700 1600 40  0000 L CNN
F 1 "100n" H 3710 1415 40  0000 L CNN
F 2 "MyKiCadLibs-Footprints:SMD-0603" H 3738 1350 30  0001 C CNN
F 3 "" H 3700 1600 60  0000 C CNN
F 4 "50V" H 3715 1345 40  0000 L CNN "Voltage"
F 5 "X7R" H 3715 1275 40  0000 L CNN "Type"
F 6 "Ceramic capacitor" H 3700 1800 40  0001 L CNN "Description"
F 7 "10%" H 3770 1135 40  0001 C CNN "Tolerance"
F 8 "0603" H 3710 1205 40  0000 L CNN "Size"
	1    3700 1500
	1    0    0    -1  
$EndComp
$Comp
L R R601
U 1 1 57CE8665
P 1500 1200
F 0 "R601" V 1420 1200 40  0000 C CNN
F 1 "47" V 1507 1201 40  0000 C CNN
F 2 "MyKiCadLibs-Footprints:SMD-0805" V 1430 1200 30  0001 C CNN
F 3 "" V 1420 1200 30  0000 C CNN
F 4 "100mW" V 1600 1200 40  0001 C CNN "Power"
F 5 "Thick or thin film resistor" V 1745 1200 40  0001 C CNN "Description"
F 6 "0805" V 1675 1200 40  0001 C CNN "Size"
F 7 "1%" V 1825 1200 40  0001 C CNN "Tolerance"
	1    1500 1200
	1    0    0    -1  
$EndComp
$Comp
L R R613
U 1 1 57CE86A5
P 4150 4600
F 0 "R613" V 4070 4600 40  0000 C CNN
F 1 "1k" V 4157 4601 40  0000 C CNN
F 2 "MyKiCadLibs-Footprints:SMD-0805" V 4080 4600 30  0001 C CNN
F 3 "" V 4070 4600 30  0000 C CNN
F 4 "100mW" V 4250 4600 40  0001 C CNN "Power"
F 5 "Thick or thin film resistor" V 4395 4600 40  0001 C CNN "Description"
F 6 "0805" V 4325 4600 40  0001 C CNN "Size"
F 7 "1%" V 4475 4600 40  0001 C CNN "Tolerance"
	1    4150 4600
	-1   0    0    -1  
$EndComp
$Comp
L R R611
U 1 1 57CE86B0
P 3950 4600
F 0 "R611" V 3870 4600 40  0000 C CNN
F 1 "1k" V 3957 4601 40  0000 C CNN
F 2 "MyKiCadLibs-Footprints:SMD-0805" V 3880 4600 30  0001 C CNN
F 3 "" V 3870 4600 30  0000 C CNN
F 4 "100mW" V 4050 4600 40  0001 C CNN "Power"
F 5 "Thick or thin film resistor" V 4195 4600 40  0001 C CNN "Description"
F 6 "0805" V 4125 4600 40  0001 C CNN "Size"
F 7 "1%" V 4275 4600 40  0001 C CNN "Tolerance"
	1    3950 4600
	-1   0    0    -1  
$EndComp
$Comp
L R R603
U 1 1 57CE86BF
P 3750 4600
F 0 "R603" V 3670 4600 40  0000 C CNN
F 1 "1k" V 3757 4601 40  0000 C CNN
F 2 "MyKiCadLibs-Footprints:SMD-0805" V 3680 4600 30  0001 C CNN
F 3 "" V 3670 4600 30  0000 C CNN
F 4 "100mW" V 3850 4600 40  0001 C CNN "Power"
F 5 "Thick or thin film resistor" V 3995 4600 40  0001 C CNN "Description"
F 6 "0805" V 3925 4600 40  0001 C CNN "Size"
F 7 "1%" V 4075 4600 40  0001 C CNN "Tolerance"
	1    3750 4600
	-1   0    0    -1  
$EndComp
Text HLabel 3450 5150 0    60   Output ~ 0
ETH_INT
Text HLabel 3350 7650 0    60   Input ~ 0
ETH_RESET
$Comp
L R R612
U 1 1 57CE86D0
P 4100 7350
F 0 "R612" V 4020 7350 40  0000 C CNN
F 1 "10k" V 4107 7351 40  0000 C CNN
F 2 "MyKiCadLibs-Footprints:SMD-0805" V 4030 7350 30  0001 C CNN
F 3 "" V 4020 7350 30  0000 C CNN
F 4 "100mW" V 4200 7350 40  0001 C CNN "Power"
F 5 "Thick or thin film resistor" V 4345 7350 40  0001 C CNN "Description"
F 6 "0805" V 4275 7350 40  0001 C CNN "Size"
F 7 "1%" V 4425 7350 40  0001 C CNN "Tolerance"
	1    4100 7350
	-1   0    0    -1  
$EndComp
$Comp
L GNDD #PWR096
U 1 1 57CE86D7
P 4100 8350
F 0 "#PWR096" H 4100 8100 60  0001 C CNN
F 1 "GNDD" H 4100 8200 60  0000 C CNN
F 2 "" H 4100 8350 60  0000 C CNN
F 3 "" H 4100 8350 60  0000 C CNN
	1    4100 8350
	-1   0    0    -1  
$EndComp
$Comp
L C C619
U 1 1 57CE86E5
P 4100 8000
F 0 "C619" H 4100 8100 40  0000 L CNN
F 1 "470n" H 4110 7915 40  0000 L CNN
F 2 "MyKiCadLibs-Footprints:SMD-0805" H 4138 7850 30  0001 C CNN
F 3 "" H 4100 8100 60  0000 C CNN
F 4 "16V" H 4165 7850 40  0000 C CNN "Voltage"
F 5 "X7R" H 4170 7775 40  0000 C CNN "Type"
F 6 "Ceramic capacitor" H 4100 8300 40  0001 L CNN "Description"
F 7 "10%" H 4500 8500 40  0001 C CNN "Tolerance"
F 8 "0805" H 4100 8000 60  0001 C CNN "Size"
	1    4100 8000
	-1   0    0    -1  
$EndComp
Text HLabel 2900 6100 0    60   Output ~ 0
ETH_RX_CLK
Text HLabel 2900 6200 0    60   Output ~ 0
ETH_RX_DV
Text HLabel 2900 6300 0    60   Output ~ 0
ETH_RXD0
Text HLabel 2900 6400 0    60   Output ~ 0
ETH_RXD1
Text HLabel 2900 6500 0    60   Output ~ 0
ETH_RXD2
Text HLabel 2900 6600 0    60   Output ~ 0
ETH_RXD3
$Comp
L R R625
U 1 1 57CE8706
P 12600 8600
F 0 "R625" V 12520 8600 40  0000 C CNN
F 1 "N/F" V 12607 8601 40  0000 C CNN
F 2 "MyKiCadLibs-Footprints:SMD-0805" V 12530 8600 30  0001 C CNN
F 3 "" V 12520 8600 30  0000 C CNN
F 4 "100mW" V 12700 8600 40  0001 C CNN "Power"
F 5 "Thick or thin film resistor" V 12845 8600 40  0001 C CNN "Description"
F 6 "0805" V 12775 8600 40  0001 C CNN "Size"
F 7 "1%" V 12925 8600 40  0001 C CNN "Tolerance"
	1    12600 8600
	1    0    0    -1  
$EndComp
$Comp
L R R626
U 1 1 57CE8711
P 12600 9200
F 0 "R626" V 12520 9200 40  0000 C CNN
F 1 "N/F" V 12607 9201 40  0000 C CNN
F 2 "MyKiCadLibs-Footprints:SMD-0805" V 12530 9200 30  0001 C CNN
F 3 "" V 12520 9200 30  0000 C CNN
F 4 "100mW" V 12700 9200 40  0001 C CNN "Power"
F 5 "Thick or thin film resistor" V 12845 9200 40  0001 C CNN "Description"
F 6 "0805" V 12775 9200 40  0001 C CNN "Size"
F 7 "1%" V 12925 9200 40  0001 C CNN "Tolerance"
	1    12600 9200
	1    0    0    -1  
$EndComp
$Comp
L GNDD #PWR097
U 1 1 57CE8718
P 12600 9550
F 0 "#PWR097" H 12600 9300 60  0001 C CNN
F 1 "GNDD" H 12600 9400 60  0000 C CNN
F 2 "" H 12600 9550 60  0000 C CNN
F 3 "" H 12600 9550 60  0000 C CNN
	1    12600 9550
	1    0    0    -1  
$EndComp
Text Label 6900 6050 2    60   ~ 0
PHYAD0
Text Label 6900 5950 2    60   ~ 0
PHYAD1
Text Label 12750 8350 3    60   ~ 0
PHYAD0
Text Label 3500 6100 2    60   ~ 0
PHYAD2
$Comp
L R R627
U 1 1 57CE872B
P 12950 8600
F 0 "R627" V 12870 8600 40  0000 C CNN
F 1 "N/F" V 12957 8601 40  0000 C CNN
F 2 "MyKiCadLibs-Footprints:SMD-0805" V 12880 8600 30  0001 C CNN
F 3 "" V 12870 8600 30  0000 C CNN
F 4 "100mW" V 13050 8600 40  0001 C CNN "Power"
F 5 "Thick or thin film resistor" V 13195 8600 40  0001 C CNN "Description"
F 6 "0805" V 13125 8600 40  0001 C CNN "Size"
F 7 "1%" V 13275 8600 40  0001 C CNN "Tolerance"
	1    12950 8600
	1    0    0    -1  
$EndComp
$Comp
L R R628
U 1 1 57CE8736
P 12950 9200
F 0 "R628" V 12870 9200 40  0000 C CNN
F 1 "N/F" V 12957 9201 40  0000 C CNN
F 2 "MyKiCadLibs-Footprints:SMD-0805" V 12880 9200 30  0001 C CNN
F 3 "" V 12870 9200 30  0000 C CNN
F 4 "100mW" V 13050 9200 40  0001 C CNN "Power"
F 5 "Thick or thin film resistor" V 13195 9200 40  0001 C CNN "Description"
F 6 "0805" V 13125 9200 40  0001 C CNN "Size"
F 7 "1%" V 13275 9200 40  0001 C CNN "Tolerance"
	1    12950 9200
	1    0    0    -1  
$EndComp
$Comp
L GNDD #PWR098
U 1 1 57CE873D
P 12950 9550
F 0 "#PWR098" H 12950 9300 60  0001 C CNN
F 1 "GNDD" H 12950 9400 60  0000 C CNN
F 2 "" H 12950 9550 60  0000 C CNN
F 3 "" H 12950 9550 60  0000 C CNN
	1    12950 9550
	1    0    0    -1  
$EndComp
Text Label 13100 8350 3    60   ~ 0
PHYAD1
$Comp
L R R629
U 1 1 57CE874D
P 13300 8600
F 0 "R629" V 13220 8600 40  0000 C CNN
F 1 "N/F" V 13307 8601 40  0000 C CNN
F 2 "MyKiCadLibs-Footprints:SMD-0805" V 13230 8600 30  0001 C CNN
F 3 "" V 13220 8600 30  0000 C CNN
F 4 "100mW" V 13400 8600 40  0001 C CNN "Power"
F 5 "Thick or thin film resistor" V 13545 8600 40  0001 C CNN "Description"
F 6 "0805" V 13475 8600 40  0001 C CNN "Size"
F 7 "1%" V 13625 8600 40  0001 C CNN "Tolerance"
	1    13300 8600
	1    0    0    -1  
$EndComp
$Comp
L R R630
U 1 1 57CE8758
P 13300 9200
F 0 "R630" V 13220 9200 40  0000 C CNN
F 1 "N/F" V 13307 9201 40  0000 C CNN
F 2 "MyKiCadLibs-Footprints:SMD-0805" V 13230 9200 30  0001 C CNN
F 3 "" V 13220 9200 30  0000 C CNN
F 4 "100mW" V 13400 9200 40  0001 C CNN "Power"
F 5 "Thick or thin film resistor" V 13545 9200 40  0001 C CNN "Description"
F 6 "0805" V 13475 9200 40  0001 C CNN "Size"
F 7 "1%" V 13625 9200 40  0001 C CNN "Tolerance"
	1    13300 9200
	1    0    0    -1  
$EndComp
$Comp
L GNDD #PWR099
U 1 1 57CE875F
P 13300 9550
F 0 "#PWR099" H 13300 9300 60  0001 C CNN
F 1 "GNDD" H 13300 9400 60  0000 C CNN
F 2 "" H 13300 9550 60  0000 C CNN
F 3 "" H 13300 9550 60  0000 C CNN
	1    13300 9550
	1    0    0    -1  
$EndComp
Text Label 13450 8350 3    60   ~ 0
PHYAD2
$Comp
L R R632
U 1 1 57CE876F
P 13700 9200
F 0 "R632" V 13620 9200 40  0000 C CNN
F 1 "N/F" V 13707 9201 40  0000 C CNN
F 2 "MyKiCadLibs-Footprints:SMD-0805" V 13630 9200 30  0001 C CNN
F 3 "" V 13620 9200 30  0000 C CNN
F 4 "100mW" V 13800 9200 40  0001 C CNN "Power"
F 5 "Thick or thin film resistor" V 13945 9200 40  0001 C CNN "Description"
F 6 "0805" V 13875 9200 40  0001 C CNN "Size"
F 7 "1%" V 14025 9200 40  0001 C CNN "Tolerance"
	1    13700 9200
	1    0    0    -1  
$EndComp
$Comp
L GNDD #PWR0100
U 1 1 57CE8776
P 13700 9550
F 0 "#PWR0100" H 13700 9300 60  0001 C CNN
F 1 "GNDD" H 13700 9400 60  0000 C CNN
F 2 "" H 13700 9550 60  0000 C CNN
F 3 "" H 13700 9550 60  0000 C CNN
	1    13700 9550
	1    0    0    -1  
$EndComp
Text Label 13850 8350 3    60   ~ 0
MODE0
$Comp
L R R634
U 1 1 57CE8786
P 14050 9200
F 0 "R634" V 13970 9200 40  0000 C CNN
F 1 "N/F" V 14057 9201 40  0000 C CNN
F 2 "MyKiCadLibs-Footprints:SMD-0805" V 13980 9200 30  0001 C CNN
F 3 "" V 13970 9200 30  0000 C CNN
F 4 "100mW" V 14150 9200 40  0001 C CNN "Power"
F 5 "Thick or thin film resistor" V 14295 9200 40  0001 C CNN "Description"
F 6 "0805" V 14225 9200 40  0001 C CNN "Size"
F 7 "1%" V 14375 9200 40  0001 C CNN "Tolerance"
	1    14050 9200
	1    0    0    -1  
$EndComp
$Comp
L GNDD #PWR0101
U 1 1 57CE878D
P 14050 9550
F 0 "#PWR0101" H 14050 9300 60  0001 C CNN
F 1 "GNDD" H 14050 9400 60  0000 C CNN
F 2 "" H 14050 9550 60  0000 C CNN
F 3 "" H 14050 9550 60  0000 C CNN
	1    14050 9550
	1    0    0    -1  
$EndComp
Text Label 14200 8350 3    60   ~ 0
MODE1
$Comp
L R R636
U 1 1 57CE879D
P 14400 9200
F 0 "R636" V 14320 9200 40  0000 C CNN
F 1 "N/F" V 14407 9201 40  0000 C CNN
F 2 "MyKiCadLibs-Footprints:SMD-0805" V 14330 9200 30  0001 C CNN
F 3 "" V 14320 9200 30  0000 C CNN
F 4 "100mW" V 14500 9200 40  0001 C CNN "Power"
F 5 "Thick or thin film resistor" V 14645 9200 40  0001 C CNN "Description"
F 6 "0805" V 14575 9200 40  0001 C CNN "Size"
F 7 "1%" V 14725 9200 40  0001 C CNN "Tolerance"
	1    14400 9200
	1    0    0    -1  
$EndComp
$Comp
L GNDD #PWR0102
U 1 1 57CE87A4
P 14400 9550
F 0 "#PWR0102" H 14400 9300 60  0001 C CNN
F 1 "GNDD" H 14400 9400 60  0000 C CNN
F 2 "" H 14400 9550 60  0000 C CNN
F 3 "" H 14400 9550 60  0000 C CNN
	1    14400 9550
	1    0    0    -1  
$EndComp
Text Label 14550 8350 3    60   ~ 0
MODE2
$Comp
L R R638
U 1 1 57CE87B4
P 14700 9200
F 0 "R638" V 14620 9200 40  0000 C CNN
F 1 "N/F" V 14707 9201 40  0000 C CNN
F 2 "MyKiCadLibs-Footprints:SMD-0805" V 14630 9200 30  0001 C CNN
F 3 "" V 14620 9200 30  0000 C CNN
F 4 "100mW" V 14800 9200 40  0001 C CNN "Power"
F 5 "Thick or thin film resistor" V 14945 9200 40  0001 C CNN "Description"
F 6 "0805" V 14875 9200 40  0001 C CNN "Size"
F 7 "1%" V 15025 9200 40  0001 C CNN "Tolerance"
	1    14700 9200
	1    0    0    -1  
$EndComp
$Comp
L GNDD #PWR0103
U 1 1 57CE87BB
P 14700 9550
F 0 "#PWR0103" H 14700 9300 60  0001 C CNN
F 1 "GNDD" H 14700 9400 60  0000 C CNN
F 2 "" H 14700 9550 60  0000 C CNN
F 3 "" H 14700 9550 60  0000 C CNN
	1    14700 9550
	1    0    0    -1  
$EndComp
Text Label 14850 8350 3    60   ~ 0
MODE3
Text Label 3500 6300 2    60   ~ 0
MODE0
Text Label 3500 6400 2    60   ~ 0
MODE1
Text Label 3500 6500 2    60   ~ 0
MODE2
Text Label 3500 6600 2    60   ~ 0
MODE3
$Comp
L R R640
U 1 1 57CE87CF
P 15050 9200
F 0 "R640" V 14970 9200 40  0000 C CNN
F 1 "N/F" V 15057 9201 40  0000 C CNN
F 2 "MyKiCadLibs-Footprints:SMD-0805" V 14980 9200 30  0001 C CNN
F 3 "" V 14970 9200 30  0000 C CNN
F 4 "100mW" V 15150 9200 40  0001 C CNN "Power"
F 5 "Thick or thin film resistor" V 15295 9200 40  0001 C CNN "Description"
F 6 "0805" V 15225 9200 40  0001 C CNN "Size"
F 7 "1%" V 15375 9200 40  0001 C CNN "Tolerance"
	1    15050 9200
	1    0    0    -1  
$EndComp
$Comp
L GNDD #PWR0104
U 1 1 57CE87D6
P 15050 9550
F 0 "#PWR0104" H 15050 9300 60  0001 C CNN
F 1 "GNDD" H 15050 9400 60  0000 C CNN
F 2 "" H 15050 9550 60  0000 C CNN
F 3 "" H 15050 9550 60  0000 C CNN
	1    15050 9550
	1    0    0    -1  
$EndComp
$Comp
L R R642
U 1 1 57CE87E5
P 15350 9200
F 0 "R642" V 15270 9200 40  0000 C CNN
F 1 "N/F" V 15357 9201 40  0000 C CNN
F 2 "MyKiCadLibs-Footprints:SMD-0805" V 15280 9200 30  0001 C CNN
F 3 "" V 15270 9200 30  0000 C CNN
F 4 "100mW" V 15450 9200 40  0001 C CNN "Power"
F 5 "Thick or thin film resistor" V 15595 9200 40  0001 C CNN "Description"
F 6 "0805" V 15525 9200 40  0001 C CNN "Size"
F 7 "1%" V 15675 9200 40  0001 C CNN "Tolerance"
	1    15350 9200
	1    0    0    -1  
$EndComp
$Comp
L GNDD #PWR0105
U 1 1 57CE87EC
P 15350 9550
F 0 "#PWR0105" H 15350 9300 60  0001 C CNN
F 1 "GNDD" H 15350 9400 60  0000 C CNN
F 2 "" H 15350 9550 60  0000 C CNN
F 3 "" H 15350 9550 60  0000 C CNN
	1    15350 9550
	1    0    0    -1  
$EndComp
Text Label 15500 8350 3    60   ~ 0
LED_MODE
Text Label 3500 6200 2    60   ~ 0
CLK125_EN
Text Label 15200 8350 3    60   ~ 0
CLK125_EN
Text HLabel 2900 6750 0    60   Output ~ 0
CLK125_OUT
Text Label 3500 6750 2    60   ~ 0
LED_MODE
Text Notes 12450 8000 0    118  ~ 0
Strapping Resistors - see datasheet
$Comp
L R R631
U 1 1 57CE8802
P 13700 8600
F 0 "R631" V 13620 8600 40  0000 C CNN
F 1 "N/F" V 13707 8601 40  0000 C CNN
F 2 "MyKiCadLibs-Footprints:SMD-0805" V 13630 8600 30  0001 C CNN
F 3 "" V 13620 8600 30  0000 C CNN
F 4 "100mW" V 13800 8600 40  0001 C CNN "Power"
F 5 "Thick or thin film resistor" V 13945 8600 40  0001 C CNN "Description"
F 6 "0805" V 13875 8600 40  0001 C CNN "Size"
F 7 "1%" V 14025 8600 40  0001 C CNN "Tolerance"
	1    13700 8600
	1    0    0    -1  
$EndComp
$Comp
L R R633
U 1 1 57CE880D
P 14050 8600
F 0 "R633" V 13970 8600 40  0000 C CNN
F 1 "N/F" V 14057 8601 40  0000 C CNN
F 2 "MyKiCadLibs-Footprints:SMD-0805" V 13980 8600 30  0001 C CNN
F 3 "" V 13970 8600 30  0000 C CNN
F 4 "100mW" V 14150 8600 40  0001 C CNN "Power"
F 5 "Thick or thin film resistor" V 14295 8600 40  0001 C CNN "Description"
F 6 "0805" V 14225 8600 40  0001 C CNN "Size"
F 7 "1%" V 14375 8600 40  0001 C CNN "Tolerance"
	1    14050 8600
	1    0    0    -1  
$EndComp
$Comp
L R R635
U 1 1 57CE8818
P 14400 8600
F 0 "R635" V 14320 8600 40  0000 C CNN
F 1 "N/F" V 14407 8601 40  0000 C CNN
F 2 "MyKiCadLibs-Footprints:SMD-0805" V 14330 8600 30  0001 C CNN
F 3 "" V 14320 8600 30  0000 C CNN
F 4 "100mW" V 14500 8600 40  0001 C CNN "Power"
F 5 "Thick or thin film resistor" V 14645 8600 40  0001 C CNN "Description"
F 6 "0805" V 14575 8600 40  0001 C CNN "Size"
F 7 "1%" V 14725 8600 40  0001 C CNN "Tolerance"
	1    14400 8600
	1    0    0    -1  
$EndComp
$Comp
L R R637
U 1 1 57CE8823
P 14700 8600
F 0 "R637" V 14620 8600 40  0000 C CNN
F 1 "N/F" V 14707 8601 40  0000 C CNN
F 2 "MyKiCadLibs-Footprints:SMD-0805" V 14630 8600 30  0001 C CNN
F 3 "" V 14620 8600 30  0000 C CNN
F 4 "100mW" V 14800 8600 40  0001 C CNN "Power"
F 5 "Thick or thin film resistor" V 14945 8600 40  0001 C CNN "Description"
F 6 "0805" V 14875 8600 40  0001 C CNN "Size"
F 7 "1%" V 15025 8600 40  0001 C CNN "Tolerance"
	1    14700 8600
	1    0    0    -1  
$EndComp
$Comp
L R R639
U 1 1 57CE882E
P 15050 8600
F 0 "R639" V 14970 8600 40  0000 C CNN
F 1 "N/F" V 15057 8601 40  0000 C CNN
F 2 "MyKiCadLibs-Footprints:SMD-0805" V 14980 8600 30  0001 C CNN
F 3 "" V 14970 8600 30  0000 C CNN
F 4 "100mW" V 15150 8600 40  0001 C CNN "Power"
F 5 "Thick or thin film resistor" V 15295 8600 40  0001 C CNN "Description"
F 6 "0805" V 15225 8600 40  0001 C CNN "Size"
F 7 "1%" V 15375 8600 40  0001 C CNN "Tolerance"
	1    15050 8600
	1    0    0    -1  
$EndComp
$Comp
L R R641
U 1 1 57CE8839
P 15350 8600
F 0 "R641" V 15270 8600 40  0000 C CNN
F 1 "N/F" V 15357 8601 40  0000 C CNN
F 2 "MyKiCadLibs-Footprints:SMD-0805" V 15280 8600 30  0001 C CNN
F 3 "" V 15270 8600 30  0000 C CNN
F 4 "100mW" V 15450 8600 40  0001 C CNN "Power"
F 5 "Thick or thin film resistor" V 15595 8600 40  0001 C CNN "Description"
F 6 "0805" V 15525 8600 40  0001 C CNN "Size"
F 7 "1%" V 15675 8600 40  0001 C CNN "Tolerance"
	1    15350 8600
	1    0    0    -1  
$EndComp
$Comp
L IC-PHY-KSZ9031RNXCA U?
U 1 1 57CE8855
P 6550 4950
AR Path="/57CA161A/57CE8855" Ref="U?"  Part="1" 
AR Path="/57CE4289/57CE8855" Ref="U601"  Part="1" 
F 0 "U601" H 6750 5200 60  0000 L CNN
F 1 "IC-PHY-KSZ9031RNXCA" H 6750 5100 60  0000 L CNN
F 2 "MyKiCadLibs-Footprints:IC_QFN_48_3.5mmpad_HF" H 6550 4950 118 0001 C CNN
F 3 "" H 6550 4950 118 0000 C CNN
F 4 "Gigabit Ethernet Transceiver with RGMII Support - 3.5mmx3.5mm pad" H 7750 2950 60  0001 C CNN "Description"
	1    6550 4950
	-1   0    0    -1  
$EndComp
$Comp
L IC-PHY-KSZ9031RNXCA U?
U 2 1 57CE885D
P 12000 2550
AR Path="/57CA161A/57CE885D" Ref="U?"  Part="2" 
AR Path="/57CE4289/57CE885D" Ref="U601"  Part="2" 
F 0 "U601" H 12200 2800 60  0000 L CNN
F 1 "IC-PHY-KSZ9031RNXCA" H 12200 2700 60  0000 L CNN
F 2 "MyKiCadLibs-Footprints:IC_QFN_48_3.5mmpad_HF" H 12000 2550 118 0001 C CNN
F 3 "" H 12000 2550 118 0000 C CNN
F 4 "Gigabit Ethernet Transceiver with RGMII Support - 3.5mmx3.5mm pad" H 13200 550 60  0001 C CNN "Description"
	2    12000 2550
	1    0    0    -1  
$EndComp
NoConn ~ 13500 3200
NoConn ~ 6550 6600
NoConn ~ 6550 6700
$Comp
L R R615
U 1 1 57CE888D
P 6900 7200
F 0 "R615" V 6820 7200 40  0000 C CNN
F 1 "12k1" V 6907 7201 40  0000 C CNN
F 2 "MyKiCadLibs-Footprints:SMD-0805" V 6830 7200 30  0001 C CNN
F 3 "" V 6820 7200 30  0000 C CNN
F 4 "100mW" V 7000 7200 40  0001 C CNN "Power"
F 5 "Thick or thin film resistor" V 7145 7200 40  0001 C CNN "Description"
F 6 "0805" V 7075 7200 40  0001 C CNN "Size"
F 7 "1%" V 7225 7200 40  0001 C CNN "Tolerance"
	1    6900 7200
	-1   0    0    -1  
$EndComp
$Comp
L GNDD #PWR0106
U 1 1 57CE8894
P 6900 7600
F 0 "#PWR0106" H 6900 7350 60  0001 C CNN
F 1 "GNDD" H 6900 7450 60  0000 C CNN
F 2 "" H 6900 7600 60  0000 C CNN
F 3 "" H 6900 7600 60  0000 C CNN
	1    6900 7600
	-1   0    0    -1  
$EndComp
$Comp
L C C638
U 1 1 57CE88BA
P 8500 6550
F 0 "C638" H 8500 6650 40  0000 L CNN
F 1 "100n" H 8510 6465 40  0000 L CNN
F 2 "MyKiCadLibs-Footprints:SMD-0805" H 8538 6400 30  0001 C CNN
F 3 "" H 8500 6650 60  0000 C CNN
F 4 "50V" H 8565 6400 40  0000 C CNN "Voltage"
F 5 "X7R" H 8570 6325 40  0000 C CNN "Type"
F 6 "Ceramic capacitor" H 8500 6850 40  0001 L CNN "Description"
F 7 "10%" H 8900 7050 40  0001 C CNN "Tolerance"
F 8 "0805" H 8500 6550 60  0001 C CNN "Size"
	1    8500 6550
	1    0    0    -1  
$EndComp
$Comp
L C C641
U 1 1 57CE88C6
P 8750 6550
F 0 "C641" H 8750 6650 40  0000 L CNN
F 1 "100n" H 8760 6465 40  0000 L CNN
F 2 "MyKiCadLibs-Footprints:SMD-0805" H 8788 6400 30  0001 C CNN
F 3 "" H 8750 6650 60  0000 C CNN
F 4 "50V" H 8815 6400 40  0000 C CNN "Voltage"
F 5 "X7R" H 8820 6325 40  0000 C CNN "Type"
F 6 "Ceramic capacitor" H 8750 6850 40  0001 L CNN "Description"
F 7 "10%" H 9150 7050 40  0001 C CNN "Tolerance"
F 8 "0805" H 8750 6550 60  0001 C CNN "Size"
	1    8750 6550
	1    0    0    -1  
$EndComp
$Comp
L C C643
U 1 1 57CE88D2
P 9000 6550
F 0 "C643" H 9000 6650 40  0000 L CNN
F 1 "100n" H 9010 6465 40  0000 L CNN
F 2 "MyKiCadLibs-Footprints:SMD-0805" H 9038 6400 30  0001 C CNN
F 3 "" H 9000 6650 60  0000 C CNN
F 4 "50V" H 9065 6400 40  0000 C CNN "Voltage"
F 5 "X7R" H 9070 6325 40  0000 C CNN "Type"
F 6 "Ceramic capacitor" H 9000 6850 40  0001 L CNN "Description"
F 7 "10%" H 9400 7050 40  0001 C CNN "Tolerance"
F 8 "0805" H 9000 6550 60  0001 C CNN "Size"
	1    9000 6550
	1    0    0    -1  
$EndComp
$Comp
L C C645
U 1 1 57CE88DE
P 9250 6550
F 0 "C645" H 9250 6650 40  0000 L CNN
F 1 "100n" H 9260 6465 40  0000 L CNN
F 2 "MyKiCadLibs-Footprints:SMD-0805" H 9288 6400 30  0001 C CNN
F 3 "" H 9250 6650 60  0000 C CNN
F 4 "50V" H 9315 6400 40  0000 C CNN "Voltage"
F 5 "X7R" H 9320 6325 40  0000 C CNN "Type"
F 6 "Ceramic capacitor" H 9250 6850 40  0001 L CNN "Description"
F 7 "10%" H 9650 7050 40  0001 C CNN "Tolerance"
F 8 "0805" H 9250 6550 60  0001 C CNN "Size"
	1    9250 6550
	1    0    0    -1  
$EndComp
$Comp
L GNDD #PWR0107
U 1 1 57CE88ED
P 8500 6950
F 0 "#PWR0107" H 8500 6700 60  0001 C CNN
F 1 "GNDD" H 8500 6800 60  0000 C CNN
F 2 "" H 8500 6950 60  0000 C CNN
F 3 "" H 8500 6950 60  0000 C CNN
	1    8500 6950
	-1   0    0    -1  
$EndComp
$Comp
L +3V3 #PWR0108
U 1 1 57CE88FB
P 3750 4150
F 0 "#PWR0108" H 3750 4000 50  0001 C CNN
F 1 "+3V3" H 3750 4290 50  0000 C CNN
F 2 "" H 3750 4150 50  0000 C CNN
F 3 "" H 3750 4150 50  0000 C CNN
	1    3750 4150
	1    0    0    -1  
$EndComp
$Comp
L +3V3 #PWR0109
U 1 1 57CE8907
P 12600 8250
F 0 "#PWR0109" H 12600 8100 50  0001 C CNN
F 1 "+3V3" H 12600 8390 50  0000 C CNN
F 2 "" H 12600 8250 50  0000 C CNN
F 3 "" H 12600 8250 50  0000 C CNN
	1    12600 8250
	1    0    0    -1  
$EndComp
$Comp
L C C660
U 1 1 57CE8924
P 11200 6550
F 0 "C660" H 11200 6650 40  0000 L CNN
F 1 "1n" H 11210 6465 40  0000 L CNN
F 2 "MyKiCadLibs-Footprints:CAP-TH-P15mm-W5mm-L18mm" H 11238 6400 30  0001 C CNN
F 3 "" H 11200 6650 60  0000 C CNN
F 4 "2kV" H 11265 6400 40  0000 C CNN "Voltage"
F 5 "Film" H 11270 6325 40  0000 C CNN "Type"
F 6 "High voltage film capacitor B32672L8102J000 (5%) or B32672L8102K000 (10%)" H 11200 6850 40  0001 L CNN "Description"
F 7 "10%" H 11600 7050 40  0001 C CNN "Tolerance"
F 8 "15mm" H 11200 6550 60  0001 C CNN "Size"
	1    11200 6550
	1    0    0    -1  
$EndComp
$Comp
L GNDD #PWR0110
U 1 1 57CE892B
P 10650 6900
F 0 "#PWR0110" H 10650 6650 60  0001 C CNN
F 1 "GNDD" H 10650 6750 60  0000 C CNN
F 2 "" H 10650 6900 60  0000 C CNN
F 3 "" H 10650 6900 60  0000 C CNN
	1    10650 6900
	-1   0    0    -1  
$EndComp
$Comp
L R R622
U 1 1 57CE8936
P 10850 5850
F 0 "R622" V 10900 5550 40  0000 C CNN
F 1 "75" V 10857 5851 40  0000 C CNN
F 2 "MyKiCadLibs-Footprints:SMD_MELF_0207" V 10780 5850 30  0001 C CNN
F 3 "" V 10770 5850 30  0000 C CNN
F 4 "400mW" V 10950 5850 40  0001 C CNN "Power"
F 5 "MELF Resistor" V 11095 5850 40  0001 C CNN "Description"
F 6 "MELF0207" V 11025 5850 40  0001 C CNN "Size"
F 7 "1%" V 11175 5850 40  0001 C CNN "Tolerance"
	1    10850 5850
	0    1    -1   0   
$EndComp
$Comp
L R R621
U 1 1 57CE8941
P 10850 5500
F 0 "R621" V 10900 5200 40  0000 C CNN
F 1 "75" V 10857 5501 40  0000 C CNN
F 2 "MyKiCadLibs-Footprints:SMD_MELF_0207" V 10780 5500 30  0001 C CNN
F 3 "" V 10770 5500 30  0000 C CNN
F 4 "400mW" V 10950 5500 40  0001 C CNN "Power"
F 5 "MELF Resistor" V 11095 5500 40  0001 C CNN "Description"
F 6 "MELF0207" V 11025 5500 40  0001 C CNN "Size"
F 7 "1%" V 11175 5500 40  0001 C CNN "Tolerance"
	1    10850 5500
	0    1    -1   0   
$EndComp
$Comp
L R R620
U 1 1 57CE894C
P 10850 5150
F 0 "R620" V 10900 4850 40  0000 C CNN
F 1 "75" V 10857 5151 40  0000 C CNN
F 2 "MyKiCadLibs-Footprints:SMD_MELF_0207" V 10780 5150 30  0001 C CNN
F 3 "" V 10770 5150 30  0000 C CNN
F 4 "400mW" V 10950 5150 40  0001 C CNN "Power"
F 5 "MELF Resistor" V 11095 5150 40  0001 C CNN "Description"
F 6 "MELF0207" V 11025 5150 40  0001 C CNN "Size"
F 7 "1%" V 11175 5150 40  0001 C CNN "Tolerance"
	1    10850 5150
	0    1    -1   0   
$EndComp
$Comp
L R R619
U 1 1 57CE8957
P 10850 4800
F 0 "R619" V 10900 4500 40  0000 C CNN
F 1 "75" V 10857 4801 40  0000 C CNN
F 2 "MyKiCadLibs-Footprints:SMD_MELF_0207" V 10780 4800 30  0001 C CNN
F 3 "" V 10770 4800 30  0000 C CNN
F 4 "400mW" V 10950 4800 40  0001 C CNN "Power"
F 5 "MELF Resistor" V 11095 4800 40  0001 C CNN "Description"
F 6 "MELF0207" V 11025 4800 40  0001 C CNN "Size"
F 7 "1%" V 11175 4800 40  0001 C CNN "Tolerance"
	1    10850 4800
	0    1    -1   0   
$EndComp
$Comp
L GNDPWR #PWR0111
U 1 1 57CE896A
P 11200 6900
F 0 "#PWR0111" H 11200 6700 50  0001 C CNN
F 1 "GNDPWR" H 11200 6770 50  0000 C CNN
F 2 "" H 11200 6850 50  0000 C CNN
F 3 "" H 11200 6850 50  0000 C CNN
	1    11200 6900
	1    0    0    -1  
$EndComp
$Comp
L ISO-ETH-H5007NL U602
U 1 1 57CE8971
P 9400 4800
F 0 "U602" H 9950 5050 60  0000 C CNN
F 1 "ISO-ETH-H5007NL" H 9950 4950 60  0000 C CNN
F 2 "MyKiCadLibs-Footprints:SOIC-24-H5007NL" H 9950 3400 60  0001 C CNN
F 3 "" H 9950 5050 60  0000 C CNN
F 4 "Pulse H5007NL 1000Base-T Magnetics Module" H 10000 3300 60  0001 C CNN "Description"
	1    9400 4800
	1    0    0    -1  
$EndComp
$Comp
L CONN_RJ-45 CN601
U 1 1 57CE8979
P 13000 4900
F 0 "CN601" H 13300 5150 60  0000 C CNN
F 1 "CONN_RJ-45" H 13300 5050 60  0000 C CNN
F 2 "MyKiCadLibs-Footprints:CONN-RJ45-RJE48" H 13000 5200 60  0001 C CNN
F 3 "" H 13000 5200 60  0000 C CNN
F 4 "Amphenol RJE48 series RJ45 connector with LED - eg: RJE48-188-1411" H 13400 5250 60  0001 C CNN "Description"
	1    13000 4900
	1    0    0    -1  
$EndComp
$Comp
L GNDPWR #PWR0112
U 1 1 57CE8994
P 12900 6200
F 0 "#PWR0112" H 12900 6000 50  0001 C CNN
F 1 "GNDPWR" H 12900 6070 50  0000 C CNN
F 2 "" H 12900 6150 50  0000 C CNN
F 3 "" H 12900 6150 50  0000 C CNN
	1    12900 6200
	1    0    0    -1  
$EndComp
Text Notes 7600 7800 0    118  ~ 0
Check how to connect grounds\nneed 100pf between "ethernet chassis" and ground?\n\nReplace with Abracon ARJE-0027 or ARJE-0030 magnetic jacks - easier routing
$Comp
L +3V3 #PWR0113
U 1 1 57DAB245
P 4100 7000
F 0 "#PWR0113" H 4100 6850 50  0001 C CNN
F 1 "+3V3" H 4100 7140 50  0000 C CNN
F 2 "" H 4100 7000 50  0000 C CNN
F 3 "" H 4100 7000 50  0000 C CNN
	1    4100 7000
	1    0    0    -1  
$EndComp
Text Label 3000 5300 0    60   ~ 0
KSZ_RST
Text Label 4900 7750 2    60   ~ 0
KSZ_RST
$Comp
L DIODE D602
U 1 1 57DAD78B
P 4400 7350
F 0 "D602" H 4400 7450 40  0000 C CNN
F 1 "SS14L" H 4400 7250 40  0000 C CNN
F 2 "MyKiCadLibs-Footprints:DIODE-SOD-123" H 4400 7350 60  0001 C CNN
F 3 "" H 4400 7350 60  0000 C CNN
F 4 "SS14L 1A 40V Schottky rectifier - Sub-SMA (SOD-123)" H 4400 7200 40  0001 C CNN "Description"
	1    4400 7350
	0    -1   -1   0   
$EndComp
$Comp
L DIODE D601
U 1 1 57DAD9D2
P 3750 7650
F 0 "D601" H 3750 7750 40  0000 C CNN
F 1 "SS14L" H 3750 7550 40  0000 C CNN
F 2 "MyKiCadLibs-Footprints:DIODE-SOD-123" H 3750 7650 60  0001 C CNN
F 3 "" H 3750 7650 60  0000 C CNN
F 4 "SS14L 1A 40V Schottky rectifier - Sub-SMA (SOD-123)" H 3750 7500 40  0001 C CNN "Description"
	1    3750 7650
	-1   0    0    1   
$EndComp
Text Notes 10600 6750 0    394  ~ 0
?
Text HLabel 7700 6450 2    60   Input ~ 0
ETH_CLK
$Comp
L R R623
U 1 1 57DB6A27
P 12550 5700
F 0 "R623" V 12600 5900 40  0000 C CNN
F 1 "220" V 12557 5701 40  0000 C CNN
F 2 "MyKiCadLibs-Footprints:SMD_MELF_0207" V 12480 5700 30  0001 C CNN
F 3 "" V 12470 5700 30  0000 C CNN
F 4 "400mW" V 12650 5700 40  0001 C CNN "Power"
F 5 "MELF Resistor" V 12795 5700 40  0001 C CNN "Description"
F 6 "MELF0207" V 12725 5700 40  0001 C CNN "Size"
F 7 "1%" V 12875 5700 40  0001 C CNN "Tolerance"
	1    12550 5700
	0    1    -1   0   
$EndComp
$Comp
L R R624
U 1 1 57DB6B04
P 12550 5900
F 0 "R624" V 12600 5600 40  0000 C CNN
F 1 "220" V 12557 5901 40  0000 C CNN
F 2 "MyKiCadLibs-Footprints:SMD_MELF_0207" V 12480 5900 30  0001 C CNN
F 3 "" V 12470 5900 30  0000 C CNN
F 4 "400mW" V 12650 5900 40  0001 C CNN "Power"
F 5 "MELF Resistor" V 12795 5900 40  0001 C CNN "Description"
F 6 "MELF0207" V 12725 5900 40  0001 C CNN "Size"
F 7 "1%" V 12875 5900 40  0001 C CNN "Tolerance"
	1    12550 5900
	0    1    -1   0   
$EndComp
Wire Wire Line
	3450 5500 4300 5500
Wire Wire Line
	3450 5600 4300 5600
Wire Wire Line
	4300 5700 3450 5700
Wire Wire Line
	3450 5800 4300 5800
Wire Wire Line
	4300 5900 3450 5900
Wire Wire Line
	3450 5400 4300 5400
Wire Wire Line
	750  900  850  900 
Wire Wire Line
	750  750  750  900 
Connection ~ 4600 2000
Connection ~ 4600 900 
Wire Wire Line
	3700 900  3700 1300
Wire Wire Line
	3400 900  3400 1300
Wire Wire Line
	3700 2000 3700 1700
Wire Wire Line
	3400 2000 3400 1700
Wire Wire Line
	3100 900  3100 1300
Connection ~ 3100 900 
Wire Wire Line
	2800 900  2800 1300
Wire Wire Line
	3100 2000 3100 1700
Connection ~ 3100 2000
Wire Wire Line
	2800 2000 2800 1700
Wire Wire Line
	2500 2000 2500 1700
Wire Wire Line
	2500 900  2500 1300
Connection ~ 2200 2000
Connection ~ 1850 2000
Wire Wire Line
	2200 2000 2200 1700
Connection ~ 1500 2000
Wire Wire Line
	1850 2000 1850 1700
Wire Wire Line
	1500 1900 1500 2050
Connection ~ 2200 900 
Connection ~ 1850 900 
Wire Wire Line
	2200 900  2200 1300
Connection ~ 1500 900 
Wire Wire Line
	1850 900  1850 1300
Wire Wire Line
	1500 1450 1500 1500
Wire Wire Line
	1500 900  1500 950 
Connection ~ 2800 900 
Connection ~ 2800 2000
Connection ~ 2500 900 
Connection ~ 2500 2000
Connection ~ 3400 900 
Connection ~ 3700 900 
Connection ~ 3700 2000
Connection ~ 3400 2000
Wire Wire Line
	3450 4950 4300 4950
Wire Wire Line
	3450 5050 4300 5050
Wire Wire Line
	3950 4850 3950 5050
Connection ~ 3950 5050
Wire Wire Line
	3450 5150 4300 5150
Wire Wire Line
	3750 4850 3750 5150
Connection ~ 3750 5150
Wire Wire Line
	3450 5250 4300 5250
Wire Wire Line
	4150 4850 4150 4950
Connection ~ 4150 4950
Wire Wire Line
	2900 6100 3650 6100
Wire Wire Line
	3650 6200 2900 6200
Wire Wire Line
	2900 6300 3650 6300
Wire Wire Line
	3650 6400 2900 6400
Wire Wire Line
	2900 6500 3650 6500
Wire Wire Line
	3650 6600 2900 6600
Wire Wire Line
	6550 5950 7400 5950
Wire Wire Line
	6550 6050 7400 6050
Wire Wire Line
	12600 9550 12600 9450
Wire Wire Line
	12600 8850 12600 8950
Wire Wire Line
	12600 8900 12750 8900
Wire Wire Line
	12750 8900 12750 8350
Connection ~ 12600 8900
Wire Wire Line
	12950 9550 12950 9450
Wire Wire Line
	12950 8850 12950 8950
Wire Wire Line
	12950 8900 13100 8900
Wire Wire Line
	13100 8900 13100 8350
Connection ~ 12950 8900
Wire Wire Line
	13300 9550 13300 9450
Wire Wire Line
	13300 8850 13300 8950
Wire Wire Line
	13300 8900 13450 8900
Wire Wire Line
	13450 8900 13450 8350
Connection ~ 13300 8900
Wire Wire Line
	13700 9550 13700 9450
Wire Wire Line
	13700 8850 13700 8950
Wire Wire Line
	13700 8900 13850 8900
Wire Wire Line
	13850 8900 13850 8350
Connection ~ 13700 8900
Wire Wire Line
	14050 9550 14050 9450
Wire Wire Line
	14050 8850 14050 8950
Wire Wire Line
	14050 8900 14200 8900
Wire Wire Line
	14200 8900 14200 8350
Connection ~ 14050 8900
Wire Wire Line
	14400 9550 14400 9450
Wire Wire Line
	14400 8850 14400 8950
Wire Wire Line
	14400 8900 14550 8900
Wire Wire Line
	14550 8900 14550 8350
Connection ~ 14400 8900
Wire Wire Line
	14700 9550 14700 9450
Wire Wire Line
	14700 8850 14700 8950
Wire Wire Line
	14700 8900 14850 8900
Wire Wire Line
	14850 8900 14850 8350
Connection ~ 14700 8900
Wire Wire Line
	15050 9550 15050 9450
Wire Wire Line
	15050 8850 15050 8950
Wire Wire Line
	15050 8900 15200 8900
Wire Wire Line
	15200 8900 15200 8350
Connection ~ 15050 8900
Wire Wire Line
	15350 9550 15350 9450
Wire Wire Line
	15350 8850 15350 8950
Wire Wire Line
	15350 8900 15500 8900
Wire Wire Line
	15500 8900 15500 8350
Connection ~ 15350 8900
Wire Wire Line
	3650 6750 2900 6750
Wire Wire Line
	6900 7600 6900 7450
Wire Wire Line
	6900 6950 6900 6200
Wire Wire Line
	6900 6200 6550 6200
Wire Wire Line
	6550 4950 8400 4950
Wire Wire Line
	8400 4950 8400 4900
Wire Wire Line
	8400 4900 9400 4900
Wire Wire Line
	6550 5050 8450 5050
Wire Wire Line
	8450 5050 8450 5000
Wire Wire Line
	8450 5000 9400 5000
Wire Wire Line
	6550 5200 8450 5200
Wire Wire Line
	8450 5200 8450 5250
Wire Wire Line
	8450 5250 9400 5250
Wire Wire Line
	9400 5350 8400 5350
Wire Wire Line
	8400 5350 8400 5300
Wire Wire Line
	8400 5300 6550 5300
Wire Wire Line
	6550 5450 8450 5450
Wire Wire Line
	8450 5450 8450 5600
Wire Wire Line
	8450 5600 9400 5600
Wire Wire Line
	9400 5700 8400 5700
Wire Wire Line
	8400 5700 8400 5550
Wire Wire Line
	8400 5550 6550 5550
Wire Wire Line
	6550 5700 8300 5700
Wire Wire Line
	8300 5700 8300 5950
Wire Wire Line
	8300 5950 9400 5950
Wire Wire Line
	9400 6050 8250 6050
Wire Wire Line
	8250 6050 8250 5800
Wire Wire Line
	8250 5800 6550 5800
Wire Wire Line
	9250 6350 9250 5850
Wire Wire Line
	9250 5850 9400 5850
Wire Wire Line
	9000 6350 9000 5500
Wire Wire Line
	9000 5500 9400 5500
Wire Wire Line
	8750 6350 8750 5150
Wire Wire Line
	8750 5150 9400 5150
Wire Wire Line
	8500 6350 8500 4800
Wire Wire Line
	8500 4800 9400 4800
Wire Wire Line
	8500 6750 8500 6950
Wire Wire Line
	8750 6750 8750 6850
Wire Wire Line
	8500 6850 9250 6850
Connection ~ 8500 6850
Wire Wire Line
	9000 6850 9000 6750
Connection ~ 8750 6850
Wire Wire Line
	9250 6850 9250 6750
Connection ~ 9000 6850
Wire Wire Line
	3750 4150 3750 4350
Wire Wire Line
	3950 4250 3950 4350
Wire Wire Line
	3750 4250 4150 4250
Connection ~ 3750 4250
Wire Wire Line
	4150 4250 4150 4350
Connection ~ 3950 4250
Wire Wire Line
	12600 8250 12600 8350
Wire Wire Line
	12600 8300 15350 8300
Wire Wire Line
	12950 8300 12950 8350
Connection ~ 12600 8300
Wire Wire Line
	13300 8300 13300 8350
Connection ~ 12950 8300
Wire Wire Line
	13700 8300 13700 8350
Connection ~ 13300 8300
Wire Wire Line
	14050 8300 14050 8350
Connection ~ 13700 8300
Wire Wire Line
	14400 8300 14400 8350
Connection ~ 14050 8300
Wire Wire Line
	14700 8300 14700 8350
Connection ~ 14400 8300
Wire Wire Line
	15050 8300 15050 8350
Connection ~ 14700 8300
Wire Wire Line
	15350 8300 15350 8350
Connection ~ 15050 8300
Wire Wire Line
	11200 6900 11200 6750
Wire Wire Line
	10600 4800 10500 4800
Wire Wire Line
	10600 5150 10500 5150
Wire Wire Line
	10600 5500 10500 5500
Wire Wire Line
	10600 5850 10500 5850
Wire Wire Line
	11200 4800 11200 6350
Wire Wire Line
	11200 5850 11100 5850
Wire Wire Line
	11100 5500 11200 5500
Connection ~ 11200 5850
Wire Wire Line
	11100 5150 11200 5150
Connection ~ 11200 5500
Wire Wire Line
	11100 4800 11200 4800
Connection ~ 11200 5150
Wire Wire Line
	10500 4900 13000 4900
Wire Wire Line
	13000 5000 10500 5000
Wire Wire Line
	10500 5250 11300 5250
Wire Wire Line
	11300 5250 11300 5100
Wire Wire Line
	11300 5100 13000 5100
Wire Wire Line
	10500 5350 11300 5350
Wire Wire Line
	11300 5350 11300 5400
Wire Wire Line
	11300 5400 13000 5400
Wire Wire Line
	10500 5600 11400 5600
Wire Wire Line
	11400 5600 11400 5200
Wire Wire Line
	11400 5200 13000 5200
Wire Wire Line
	10500 5700 11500 5700
Wire Wire Line
	11500 5700 11500 5300
Wire Wire Line
	11500 5300 13000 5300
Wire Wire Line
	10500 5950 11600 5950
Wire Wire Line
	11600 5950 11600 5500
Wire Wire Line
	11600 5500 13000 5500
Wire Wire Line
	10500 6050 11700 6050
Wire Wire Line
	11700 6050 11700 5600
Wire Wire Line
	11700 5600 13000 5600
Wire Wire Line
	12900 6200 12900 6100
Wire Wire Line
	12900 6100 13000 6100
Wire Wire Line
	3000 5300 3450 5300
Wire Wire Line
	3450 5300 3450 5250
Wire Wire Line
	4100 7000 4100 7100
Wire Wire Line
	4100 7600 4100 7800
Wire Wire Line
	4100 8350 4100 8200
Wire Wire Line
	3350 7650 3550 7650
Wire Wire Line
	3950 7650 4100 7650
Connection ~ 4100 7650
Wire Wire Line
	4100 7750 4900 7750
Connection ~ 4100 7750
Wire Wire Line
	4400 7550 4400 7750
Connection ~ 4400 7750
Wire Wire Line
	4400 7150 4400 7050
Wire Wire Line
	4400 7050 4100 7050
Connection ~ 4100 7050
Wire Wire Line
	7100 6450 6550 6450
Wire Wire Line
	7700 6450 7600 6450
Wire Wire Line
	12800 5700 13000 5700
Wire Wire Line
	13000 5900 12800 5900
$Comp
L GNDD #PWR0114
U 1 1 57DB72AB
P 12600 6200
F 0 "#PWR0114" H 12600 5950 60  0001 C CNN
F 1 "GNDD" H 12600 6050 60  0000 C CNN
F 2 "" H 12600 6200 60  0000 C CNN
F 3 "" H 12600 6200 60  0000 C CNN
	1    12600 6200
	-1   0    0    -1  
$EndComp
Wire Wire Line
	12600 6000 13000 6000
Wire Wire Line
	12600 6000 12600 6200
Wire Wire Line
	13000 5800 12900 5800
Wire Wire Line
	12900 5800 12900 6000
Connection ~ 12900 6000
Text Label 11800 5700 0    60   ~ 0
PHYAD1
Text Label 11800 5900 0    60   ~ 0
PHYAD0
Wire Wire Line
	11800 5900 12300 5900
Wire Wire Line
	12300 5700 11800 5700
Wire Wire Line
	4150 6100 4300 6100
Wire Wire Line
	4300 6200 4150 6200
Wire Wire Line
	4150 6300 4300 6300
Wire Wire Line
	4300 6400 4150 6400
Wire Wire Line
	4150 6500 4300 6500
Wire Wire Line
	4300 6600 4150 6600
Wire Wire Line
	4150 6750 4300 6750
$Comp
L +1V2 #PWR0115
U 1 1 57E8FC31
P 750 750
F 0 "#PWR0115" H 750 600 50  0001 C CNN
F 1 "+1V2" H 750 890 50  0000 C CNN
F 2 "" H 750 750 50  0000 C CNN
F 3 "" H 750 750 50  0000 C CNN
	1    750  750 
	1    0    0    -1  
$EndComp
$Comp
L C C611
U 1 1 57E928C0
P 3100 1500
F 0 "C611" H 3100 1600 40  0000 L CNN
F 1 "1u" H 3110 1415 40  0000 L CNN
F 2 "MyKiCadLibs-Footprints:SMD-0603" H 3138 1350 30  0001 C CNN
F 3 "" H 3100 1600 60  0000 C CNN
F 4 "10V" H 3115 1345 40  0000 L CNN "Voltage"
F 5 "X7R" H 3115 1275 40  0000 L CNN "Type"
F 6 "Ceramic capacitor" H 3100 1800 40  0001 L CNN "Description"
F 7 "10%" H 3170 1135 40  0001 C CNN "Tolerance"
F 8 "0603" H 3110 1205 40  0000 L CNN "Size"
	1    3100 1500
	1    0    0    -1  
$EndComp
$Comp
L C C617
U 1 1 57E92A8C
P 4000 1500
F 0 "C617" H 4000 1600 40  0000 L CNN
F 1 "100n" H 4010 1415 40  0000 L CNN
F 2 "MyKiCadLibs-Footprints:SMD-0603" H 4038 1350 30  0001 C CNN
F 3 "" H 4000 1600 60  0000 C CNN
F 4 "50V" H 4015 1345 40  0000 L CNN "Voltage"
F 5 "X7R" H 4015 1275 40  0000 L CNN "Type"
F 6 "Ceramic capacitor" H 4000 1800 40  0001 L CNN "Description"
F 7 "10%" H 4070 1135 40  0001 C CNN "Tolerance"
F 8 "0603" H 4010 1205 40  0000 L CNN "Size"
	1    4000 1500
	1    0    0    -1  
$EndComp
Wire Wire Line
	4000 900  4000 1300
Wire Wire Line
	4000 2000 4000 1700
$Comp
L C C620
U 1 1 57E92AEE
P 4300 1500
F 0 "C620" H 4300 1600 40  0000 L CNN
F 1 "100n" H 4310 1415 40  0000 L CNN
F 2 "MyKiCadLibs-Footprints:SMD-0603" H 4338 1350 30  0001 C CNN
F 3 "" H 4300 1600 60  0000 C CNN
F 4 "50V" H 4315 1345 40  0000 L CNN "Voltage"
F 5 "X7R" H 4315 1275 40  0000 L CNN "Type"
F 6 "Ceramic capacitor" H 4300 1800 40  0001 L CNN "Description"
F 7 "10%" H 4370 1135 40  0001 C CNN "Tolerance"
F 8 "0603" H 4310 1205 40  0000 L CNN "Size"
	1    4300 1500
	1    0    0    -1  
$EndComp
Wire Wire Line
	4300 900  4300 1300
Wire Wire Line
	4300 2000 4300 1700
$Comp
L C C621
U 1 1 57E92AFB
P 4600 1500
F 0 "C621" H 4600 1600 40  0000 L CNN
F 1 "100n" H 4610 1415 40  0000 L CNN
F 2 "MyKiCadLibs-Footprints:SMD-0603" H 4638 1350 30  0001 C CNN
F 3 "" H 4600 1600 60  0000 C CNN
F 4 "50V" H 4615 1345 40  0000 L CNN "Voltage"
F 5 "X7R" H 4615 1275 40  0000 L CNN "Type"
F 6 "Ceramic capacitor" H 4600 1800 40  0001 L CNN "Description"
F 7 "10%" H 4670 1135 40  0001 C CNN "Tolerance"
F 8 "0603" H 4610 1205 40  0000 L CNN "Size"
	1    4600 1500
	1    0    0    -1  
$EndComp
Wire Wire Line
	4600 900  4600 1300
Wire Wire Line
	4600 2000 4600 1700
Connection ~ 4300 900 
Connection ~ 4000 900 
Connection ~ 4000 2000
Connection ~ 4300 2000
Connection ~ 5200 2000
Connection ~ 5200 900 
$Comp
L C C622
U 1 1 57E931F1
P 4900 1500
F 0 "C622" H 4900 1600 40  0000 L CNN
F 1 "100n" H 4910 1415 40  0000 L CNN
F 2 "MyKiCadLibs-Footprints:SMD-0603" H 4938 1350 30  0001 C CNN
F 3 "" H 4900 1600 60  0000 C CNN
F 4 "50V" H 4915 1345 40  0000 L CNN "Voltage"
F 5 "X7R" H 4915 1275 40  0000 L CNN "Type"
F 6 "Ceramic capacitor" H 4900 1800 40  0001 L CNN "Description"
F 7 "10%" H 4970 1135 40  0001 C CNN "Tolerance"
F 8 "0603" H 4910 1205 40  0000 L CNN "Size"
	1    4900 1500
	1    0    0    -1  
$EndComp
Wire Wire Line
	4900 900  4900 1300
Wire Wire Line
	4900 2000 4900 1700
$Comp
L C C624
U 1 1 57E931FE
P 5200 1500
F 0 "C624" H 5200 1600 40  0000 L CNN
F 1 "100n" H 5210 1415 40  0000 L CNN
F 2 "MyKiCadLibs-Footprints:SMD-0603" H 5238 1350 30  0001 C CNN
F 3 "" H 5200 1600 60  0000 C CNN
F 4 "50V" H 5215 1345 40  0000 L CNN "Voltage"
F 5 "X7R" H 5215 1275 40  0000 L CNN "Type"
F 6 "Ceramic capacitor" H 5200 1800 40  0001 L CNN "Description"
F 7 "10%" H 5270 1135 40  0001 C CNN "Tolerance"
F 8 "0603" H 5210 1205 40  0000 L CNN "Size"
	1    5200 1500
	1    0    0    -1  
$EndComp
Wire Wire Line
	5200 900  5200 1300
Wire Wire Line
	5200 2000 5200 1700
Connection ~ 4900 900 
Connection ~ 4900 2000
Wire Wire Line
	5500 900  5500 1300
Connection ~ 5500 900 
Connection ~ 5500 2000
Wire Wire Line
	5500 2000 5500 1700
$Comp
L C C628
U 1 1 57E9375E
P 5800 1500
F 0 "C628" H 5800 1600 40  0000 L CNN
F 1 "10n" H 5810 1415 40  0000 L CNN
F 2 "MyKiCadLibs-Footprints:SMD-0603" H 5838 1350 30  0001 C CNN
F 3 "" H 5800 1600 60  0000 C CNN
F 4 "50V" H 5815 1345 40  0000 L CNN "Voltage"
F 5 "X7R" H 5815 1275 40  0000 L CNN "Type"
F 6 "Ceramic capacitor" H 5800 1800 40  0001 L CNN "Description"
F 7 "10%" H 5870 1135 40  0001 C CNN "Tolerance"
F 8 "0603" H 5810 1205 40  0000 L CNN "Size"
	1    5800 1500
	1    0    0    -1  
$EndComp
Wire Wire Line
	5800 900  5800 1300
Connection ~ 5800 900 
Connection ~ 5800 2000
Wire Wire Line
	5800 2000 5800 1700
$Comp
L C C630
U 1 1 57E937CF
P 6100 1500
F 0 "C630" H 6100 1600 40  0000 L CNN
F 1 "10n" H 6110 1415 40  0000 L CNN
F 2 "MyKiCadLibs-Footprints:SMD-0603" H 6138 1350 30  0001 C CNN
F 3 "" H 6100 1600 60  0000 C CNN
F 4 "50V" H 6115 1345 40  0000 L CNN "Voltage"
F 5 "X7R" H 6115 1275 40  0000 L CNN "Type"
F 6 "Ceramic capacitor" H 6100 1800 40  0001 L CNN "Description"
F 7 "10%" H 6170 1135 40  0001 C CNN "Tolerance"
F 8 "0603" H 6110 1205 40  0000 L CNN "Size"
	1    6100 1500
	1    0    0    -1  
$EndComp
Wire Wire Line
	6100 900  6100 1300
Connection ~ 6100 900 
Connection ~ 6100 2000
Wire Wire Line
	6100 2000 6100 1700
$Comp
L C C631
U 1 1 57E937DE
P 6400 1500
F 0 "C631" H 6400 1600 40  0000 L CNN
F 1 "10n" H 6410 1415 40  0000 L CNN
F 2 "MyKiCadLibs-Footprints:SMD-0603" H 6438 1350 30  0001 C CNN
F 3 "" H 6400 1600 60  0000 C CNN
F 4 "50V" H 6415 1345 40  0000 L CNN "Voltage"
F 5 "X7R" H 6415 1275 40  0000 L CNN "Type"
F 6 "Ceramic capacitor" H 6400 1800 40  0001 L CNN "Description"
F 7 "10%" H 6470 1135 40  0001 C CNN "Tolerance"
F 8 "0603" H 6410 1205 40  0000 L CNN "Size"
	1    6400 1500
	1    0    0    -1  
$EndComp
Wire Wire Line
	6400 900  6400 1300
Connection ~ 6400 900 
Connection ~ 6400 2000
Wire Wire Line
	6400 2000 6400 1700
$Comp
L C C633
U 1 1 57E93861
P 6700 1500
F 0 "C633" H 6700 1600 40  0000 L CNN
F 1 "10n" H 6710 1415 40  0000 L CNN
F 2 "MyKiCadLibs-Footprints:SMD-0603" H 6738 1350 30  0001 C CNN
F 3 "" H 6700 1600 60  0000 C CNN
F 4 "50V" H 6715 1345 40  0000 L CNN "Voltage"
F 5 "X7R" H 6715 1275 40  0000 L CNN "Type"
F 6 "Ceramic capacitor" H 6700 1800 40  0001 L CNN "Description"
F 7 "10%" H 6770 1135 40  0001 C CNN "Tolerance"
F 8 "0603" H 6710 1205 40  0000 L CNN "Size"
	1    6700 1500
	1    0    0    -1  
$EndComp
Wire Wire Line
	6700 900  6700 1300
Connection ~ 6700 900 
Connection ~ 6700 2000
Wire Wire Line
	6700 2000 6700 1700
$Comp
L C C635
U 1 1 57E93870
P 7000 1500
F 0 "C635" H 7000 1600 40  0000 L CNN
F 1 "10n" H 7010 1415 40  0000 L CNN
F 2 "MyKiCadLibs-Footprints:SMD-0603" H 7038 1350 30  0001 C CNN
F 3 "" H 7000 1600 60  0000 C CNN
F 4 "50V" H 7015 1345 40  0000 L CNN "Voltage"
F 5 "X7R" H 7015 1275 40  0000 L CNN "Type"
F 6 "Ceramic capacitor" H 7000 1800 40  0001 L CNN "Description"
F 7 "10%" H 7070 1135 40  0001 C CNN "Tolerance"
F 8 "0603" H 7010 1205 40  0000 L CNN "Size"
	1    7000 1500
	1    0    0    -1  
$EndComp
Wire Wire Line
	7000 900  7000 1300
Wire Wire Line
	7000 2000 7000 1700
Wire Wire Line
	1450 900  7000 900 
Wire Wire Line
	1500 2000 7000 2000
Text Notes 5000 4450 0    118  ~ 0
look at knz reset - might need a supervisor just for the knz?
$Comp
L GNDD #PWR0116
U 1 1 57E95CCE
P 1500 3650
F 0 "#PWR0116" H 1500 3400 60  0001 C CNN
F 1 "GNDD" H 1500 3500 60  0000 C CNN
F 2 "" H 1500 3650 60  0000 C CNN
F 3 "" H 1500 3650 60  0000 C CNN
	1    1500 3650
	1    0    0    -1  
$EndComp
$Comp
L C C606
U 1 1 57E95CD9
P 2200 3100
F 0 "C606" H 2200 3200 40  0000 L CNN
F 1 "22u" H 2210 3015 40  0000 L CNN
F 2 "MyKiCadLibs-Footprints:SMD-0805" H 2238 2950 30  0001 C CNN
F 3 "" H 2200 3200 60  0000 C CNN
F 4 "10V" H 2265 2950 40  0000 C CNN "Voltage"
F 5 "X5R" H 2270 2875 40  0000 C CNN "Type"
F 6 "Ceramic capacitor" H 2200 3400 40  0001 L CNN "Description"
F 7 "20%" H 2600 3600 40  0001 C CNN "Tolerance"
F 8 "0805" H 2200 3100 60  0001 C CNN "Size"
	1    2200 3100
	1    0    0    -1  
$EndComp
$Comp
L C C608
U 1 1 57E95CE4
P 2500 3100
F 0 "C608" H 2500 3200 40  0000 L CNN
F 1 "100n" H 2510 3015 40  0000 L CNN
F 2 "MyKiCadLibs-Footprints:SMD-0805" H 2538 2950 30  0001 C CNN
F 3 "" H 2500 3200 60  0000 C CNN
F 4 "50V" H 2565 2950 40  0000 C CNN "Voltage"
F 5 "X7R" H 2570 2875 40  0000 C CNN "Type"
F 6 "Ceramic capacitor" H 2500 3400 40  0001 L CNN "Description"
F 7 "10%" H 2900 3600 40  0001 C CNN "Tolerance"
F 8 "0805" H 2500 3100 60  0001 C CNN "Size"
	1    2500 3100
	1    0    0    -1  
$EndComp
$Comp
L C C602
U 1 1 57E95CEF
P 1500 3300
F 0 "C602" H 1500 3400 40  0000 L CNN
F 1 "100p" H 1510 3215 40  0000 L CNN
F 2 "MyKiCadLibs-Footprints:SMD-0805" H 1538 3150 30  0001 C CNN
F 3 "" H 1500 3400 60  0000 C CNN
F 4 "50V" H 1565 3150 40  0000 C CNN "Voltage"
F 5 "C0G" H 1570 3075 40  0000 C CNN "Type"
F 6 "Ceramic capacitor" H 1500 3600 40  0001 L CNN "Description"
F 7 "5%" H 1900 3800 40  0001 C CNN "Tolerance"
F 8 "0805" H 1500 3300 60  0001 C CNN "Size"
	1    1500 3300
	1    0    0    -1  
$EndComp
$Comp
L CP1 C604
U 1 1 57E95CF8
P 1850 3100
F 0 "C604" H 1900 3200 50  0000 L CNN
F 1 "220u" H 1900 3000 50  0000 L CNN
F 2 "MyKiCadLibs-Footprints:CAP-TH-D6.3mmP2.5mm" H 1850 3100 60  0001 C CNN
F 3 "" H 1850 3100 60  0000 C CNN
F 4 "10V" H 1905 2915 50  0000 L CNN "Voltage"
F 5 "2.5mm pitch, 6.3mm diameter" H 1850 3400 40  0001 L CNN "Type"
F 6 "Low impedance aluminium electrolytic capacitor - Panasonic FC, FR or similar" H 1850 3500 40  0001 L CNN "Description"
	1    1850 3100
	1    0    0    -1  
$EndComp
$Comp
L INDUCTOR L602
U 1 1 57E95D01
P 1150 2500
F 0 "L602" V 1100 2500 40  0000 C CNN
F 1 "600R@100MHz" V 1250 2500 40  0000 C CNN
F 2 "MyKiCadLibs-Footprints:SMD-0805" H 1150 2500 60  0001 C CNN
F 3 "" H 1150 2500 60  0000 C CNN
F 4 "=>1A" V 1300 2500 40  0000 C CNN "Current"
F 5 "Ferrite bead, current rating 1A or higher, 600R@100MHz" V 1350 2550 40  0001 C CNN "Description"
F 6 "0805" V 1150 2500 60  0001 C CNN "Size"
	1    1150 2500
	0    -1   -1   0   
$EndComp
$Comp
L R R602
U 1 1 57E95D0B
P 1500 2800
F 0 "R602" V 1420 2800 40  0000 C CNN
F 1 "47" V 1507 2801 40  0000 C CNN
F 2 "MyKiCadLibs-Footprints:SMD-0805" V 1430 2800 30  0001 C CNN
F 3 "" V 1420 2800 30  0000 C CNN
F 4 "100mW" V 1600 2800 40  0001 C CNN "Power"
F 5 "Thick or thin film resistor" V 1745 2800 40  0001 C CNN "Description"
F 6 "0805" V 1675 2800 40  0001 C CNN "Size"
F 7 "1%" V 1825 2800 40  0001 C CNN "Tolerance"
	1    1500 2800
	1    0    0    -1  
$EndComp
Wire Wire Line
	750  2500 850  2500
Wire Wire Line
	750  2350 750  2500
Wire Wire Line
	2500 3600 2500 3300
Wire Wire Line
	2500 2500 2500 2900
Connection ~ 2200 3600
Connection ~ 1850 3600
Wire Wire Line
	2200 3600 2200 3300
Connection ~ 1500 3600
Wire Wire Line
	1850 3600 1850 3300
Wire Wire Line
	1500 3500 1500 3650
Connection ~ 2200 2500
Connection ~ 1850 2500
Wire Wire Line
	2200 2500 2200 2900
Connection ~ 1500 2500
Wire Wire Line
	1850 2500 1850 2900
Wire Wire Line
	1500 3050 1500 3100
Wire Wire Line
	1500 2500 1500 2550
Connection ~ 2500 2500
Connection ~ 2500 3600
$Comp
L +1V2 #PWR0117
U 1 1 57E95D24
P 750 2350
F 0 "#PWR0117" H 750 2200 50  0001 C CNN
F 1 "+1V2" H 750 2490 50  0000 C CNN
F 2 "" H 750 2350 50  0000 C CNN
F 3 "" H 750 2350 50  0000 C CNN
	1    750  2350
	1    0    0    -1  
$EndComp
$Comp
L C C610
U 1 1 57E9622B
P 2850 3100
F 0 "C610" H 2850 3200 40  0000 L CNN
F 1 "1u" H 2860 3015 40  0000 L CNN
F 2 "MyKiCadLibs-Footprints:SMD-0603" H 2888 2950 30  0001 C CNN
F 3 "" H 2850 3200 60  0000 C CNN
F 4 "10V" H 2865 2945 40  0000 L CNN "Voltage"
F 5 "X7R" H 2865 2875 40  0000 L CNN "Type"
F 6 "Ceramic capacitor" H 2850 3400 40  0001 L CNN "Description"
F 7 "10%" H 2920 2735 40  0001 C CNN "Tolerance"
F 8 "0603" H 2860 2805 40  0000 L CNN "Size"
	1    2850 3100
	1    0    0    -1  
$EndComp
$Comp
L C C612
U 1 1 57E96236
P 3150 3100
F 0 "C612" H 3150 3200 40  0000 L CNN
F 1 "100n" H 3160 3015 40  0000 L CNN
F 2 "MyKiCadLibs-Footprints:SMD-0603" H 3188 2950 30  0001 C CNN
F 3 "" H 3150 3200 60  0000 C CNN
F 4 "50V" H 3165 2945 40  0000 L CNN "Voltage"
F 5 "X7R" H 3165 2875 40  0000 L CNN "Type"
F 6 "Ceramic capacitor" H 3150 3400 40  0001 L CNN "Description"
F 7 "10%" H 3220 2735 40  0001 C CNN "Tolerance"
F 8 "0603" H 3160 2805 40  0000 L CNN "Size"
	1    3150 3100
	1    0    0    -1  
$EndComp
Wire Wire Line
	3150 2500 3150 2900
Wire Wire Line
	2850 2500 2850 2900
Wire Wire Line
	3150 3600 3150 3300
Wire Wire Line
	2850 3600 2850 3300
$Comp
L C C614
U 1 1 57E962BB
P 3450 3100
F 0 "C614" H 3450 3200 40  0000 L CNN
F 1 "10n" H 3460 3015 40  0000 L CNN
F 2 "MyKiCadLibs-Footprints:SMD-0603" H 3488 2950 30  0001 C CNN
F 3 "" H 3450 3200 60  0000 C CNN
F 4 "50V" H 3465 2945 40  0000 L CNN "Voltage"
F 5 "X7R" H 3465 2875 40  0000 L CNN "Type"
F 6 "Ceramic capacitor" H 3450 3400 40  0001 L CNN "Description"
F 7 "10%" H 3520 2735 40  0001 C CNN "Tolerance"
F 8 "0603" H 3460 2805 40  0000 L CNN "Size"
	1    3450 3100
	1    0    0    -1  
$EndComp
Wire Wire Line
	3450 2500 3450 2900
Wire Wire Line
	3450 3600 3450 3300
Wire Wire Line
	1450 2500 4050 2500
Wire Wire Line
	1500 3600 4050 3600
Connection ~ 3150 3600
Connection ~ 2850 3600
Connection ~ 2850 2500
Connection ~ 3150 2500
$Comp
L C C616
U 1 1 57E97F4F
P 3750 3100
F 0 "C616" H 3750 3200 40  0000 L CNN
F 1 "100n" H 3760 3015 40  0000 L CNN
F 2 "MyKiCadLibs-Footprints:SMD-0603" H 3788 2950 30  0001 C CNN
F 3 "" H 3750 3200 60  0000 C CNN
F 4 "50V" H 3765 2945 40  0000 L CNN "Voltage"
F 5 "X7R" H 3765 2875 40  0000 L CNN "Type"
F 6 "Ceramic capacitor" H 3750 3400 40  0001 L CNN "Description"
F 7 "10%" H 3820 2735 40  0001 C CNN "Tolerance"
F 8 "0603" H 3760 2805 40  0000 L CNN "Size"
	1    3750 3100
	1    0    0    -1  
$EndComp
Wire Wire Line
	3750 2500 3750 2900
Wire Wire Line
	3750 3600 3750 3300
$Comp
L C C618
U 1 1 57E97F5C
P 4050 3100
F 0 "C618" H 4050 3200 40  0000 L CNN
F 1 "10n" H 4060 3015 40  0000 L CNN
F 2 "MyKiCadLibs-Footprints:SMD-0603" H 4088 2950 30  0001 C CNN
F 3 "" H 4050 3200 60  0000 C CNN
F 4 "50V" H 4065 2945 40  0000 L CNN "Voltage"
F 5 "X7R" H 4065 2875 40  0000 L CNN "Type"
F 6 "Ceramic capacitor" H 4050 3400 40  0001 L CNN "Description"
F 7 "10%" H 4120 2735 40  0001 C CNN "Tolerance"
F 8 "0603" H 4060 2805 40  0000 L CNN "Size"
	1    4050 3100
	1    0    0    -1  
$EndComp
Wire Wire Line
	4050 2500 4050 2900
Wire Wire Line
	4050 3600 4050 3300
Connection ~ 3450 2500
Connection ~ 3450 3600
Connection ~ 3750 3600
Connection ~ 3750 2500
$Comp
L GNDD #PWR0118
U 1 1 57E98651
P 5050 3650
F 0 "#PWR0118" H 5050 3400 60  0001 C CNN
F 1 "GNDD" H 5050 3500 60  0000 C CNN
F 2 "" H 5050 3650 60  0000 C CNN
F 3 "" H 5050 3650 60  0000 C CNN
	1    5050 3650
	1    0    0    -1  
$EndComp
$Comp
L C C627
U 1 1 57E9865C
P 5750 3100
F 0 "C627" H 5750 3200 40  0000 L CNN
F 1 "22u" H 5760 3015 40  0000 L CNN
F 2 "MyKiCadLibs-Footprints:SMD-0805" H 5788 2950 30  0001 C CNN
F 3 "" H 5750 3200 60  0000 C CNN
F 4 "10V" H 5815 2950 40  0000 C CNN "Voltage"
F 5 "X5R" H 5820 2875 40  0000 C CNN "Type"
F 6 "Ceramic capacitor" H 5750 3400 40  0001 L CNN "Description"
F 7 "20%" H 6150 3600 40  0001 C CNN "Tolerance"
F 8 "0805" H 5750 3100 60  0001 C CNN "Size"
	1    5750 3100
	1    0    0    -1  
$EndComp
$Comp
L C C629
U 1 1 57E98667
P 6050 3100
F 0 "C629" H 6050 3200 40  0000 L CNN
F 1 "100n" H 6060 3015 40  0000 L CNN
F 2 "MyKiCadLibs-Footprints:SMD-0805" H 6088 2950 30  0001 C CNN
F 3 "" H 6050 3200 60  0000 C CNN
F 4 "50V" H 6115 2950 40  0000 C CNN "Voltage"
F 5 "X7R" H 6120 2875 40  0000 C CNN "Type"
F 6 "Ceramic capacitor" H 6050 3400 40  0001 L CNN "Description"
F 7 "10%" H 6450 3600 40  0001 C CNN "Tolerance"
F 8 "0805" H 6050 3100 60  0001 C CNN "Size"
	1    6050 3100
	1    0    0    -1  
$EndComp
$Comp
L C C623
U 1 1 57E98672
P 5050 3300
F 0 "C623" H 5050 3400 40  0000 L CNN
F 1 "100p" H 5060 3215 40  0000 L CNN
F 2 "MyKiCadLibs-Footprints:SMD-0805" H 5088 3150 30  0001 C CNN
F 3 "" H 5050 3400 60  0000 C CNN
F 4 "50V" H 5115 3150 40  0000 C CNN "Voltage"
F 5 "C0G" H 5120 3075 40  0000 C CNN "Type"
F 6 "Ceramic capacitor" H 5050 3600 40  0001 L CNN "Description"
F 7 "5%" H 5450 3800 40  0001 C CNN "Tolerance"
F 8 "0805" H 5050 3300 60  0001 C CNN "Size"
	1    5050 3300
	1    0    0    -1  
$EndComp
$Comp
L CP1 C625
U 1 1 57E9867B
P 5400 3100
F 0 "C625" H 5450 3200 50  0000 L CNN
F 1 "220u" H 5450 3000 50  0000 L CNN
F 2 "MyKiCadLibs-Footprints:CAP-TH-D6.3mmP2.5mm" H 5400 3100 60  0001 C CNN
F 3 "" H 5400 3100 60  0000 C CNN
F 4 "10V" H 5455 2915 50  0000 L CNN "Voltage"
F 5 "2.5mm pitch, 6.3mm diameter" H 5400 3400 40  0001 L CNN "Type"
F 6 "Low impedance aluminium electrolytic capacitor - Panasonic FC, FR or similar" H 5400 3500 40  0001 L CNN "Description"
	1    5400 3100
	1    0    0    -1  
$EndComp
$Comp
L INDUCTOR L603
U 1 1 57E98684
P 4700 2500
F 0 "L603" V 4650 2500 40  0000 C CNN
F 1 "600R@100MHz" V 4800 2500 40  0000 C CNN
F 2 "MyKiCadLibs-Footprints:SMD-0805" H 4700 2500 60  0001 C CNN
F 3 "" H 4700 2500 60  0000 C CNN
F 4 "=>1A" V 4850 2500 40  0000 C CNN "Current"
F 5 "Ferrite bead, current rating 1A or higher, 600R@100MHz" V 4900 2550 40  0001 C CNN "Description"
F 6 "0805" V 4700 2500 60  0001 C CNN "Size"
	1    4700 2500
	0    -1   -1   0   
$EndComp
$Comp
L R R614
U 1 1 57E9868E
P 5050 2800
F 0 "R614" V 4970 2800 40  0000 C CNN
F 1 "47" V 5057 2801 40  0000 C CNN
F 2 "MyKiCadLibs-Footprints:SMD-0805" V 4980 2800 30  0001 C CNN
F 3 "" V 4970 2800 30  0000 C CNN
F 4 "100mW" V 5150 2800 40  0001 C CNN "Power"
F 5 "Thick or thin film resistor" V 5295 2800 40  0001 C CNN "Description"
F 6 "0805" V 5225 2800 40  0001 C CNN "Size"
F 7 "1%" V 5375 2800 40  0001 C CNN "Tolerance"
	1    5050 2800
	1    0    0    -1  
$EndComp
Wire Wire Line
	4300 2500 4400 2500
Wire Wire Line
	4300 2350 4300 2500
Wire Wire Line
	6050 3600 6050 3300
Wire Wire Line
	6050 2500 6050 2900
Connection ~ 5750 3600
Connection ~ 5400 3600
Wire Wire Line
	5750 3600 5750 3300
Connection ~ 5050 3600
Wire Wire Line
	5400 3600 5400 3300
Wire Wire Line
	5050 3500 5050 3650
Connection ~ 5750 2500
Connection ~ 5400 2500
Wire Wire Line
	5750 2500 5750 2900
Connection ~ 5050 2500
Wire Wire Line
	5400 2500 5400 2900
Wire Wire Line
	5050 3050 5050 3100
Wire Wire Line
	5050 2500 5050 2550
Connection ~ 6050 2500
Connection ~ 6050 3600
$Comp
L +1V2 #PWR0119
U 1 1 57E986A7
P 4300 2350
F 0 "#PWR0119" H 4300 2200 50  0001 C CNN
F 1 "+1V2" H 4300 2490 50  0000 C CNN
F 2 "" H 4300 2350 50  0000 C CNN
F 3 "" H 4300 2350 50  0000 C CNN
	1    4300 2350
	1    0    0    -1  
$EndComp
$Comp
L C C632
U 1 1 57E986B2
P 6400 3100
F 0 "C632" H 6400 3200 40  0000 L CNN
F 1 "1u" H 6410 3015 40  0000 L CNN
F 2 "MyKiCadLibs-Footprints:SMD-0603" H 6438 2950 30  0001 C CNN
F 3 "" H 6400 3200 60  0000 C CNN
F 4 "10V" H 6415 2945 40  0000 L CNN "Voltage"
F 5 "X7R" H 6415 2875 40  0000 L CNN "Type"
F 6 "Ceramic capacitor" H 6400 3400 40  0001 L CNN "Description"
F 7 "10%" H 6470 2735 40  0001 C CNN "Tolerance"
F 8 "0603" H 6410 2805 40  0000 L CNN "Size"
	1    6400 3100
	1    0    0    -1  
$EndComp
$Comp
L C C634
U 1 1 57E986BD
P 6700 3100
F 0 "C634" H 6700 3200 40  0000 L CNN
F 1 "100n" H 6710 3015 40  0000 L CNN
F 2 "MyKiCadLibs-Footprints:SMD-0603" H 6738 2950 30  0001 C CNN
F 3 "" H 6700 3200 60  0000 C CNN
F 4 "50V" H 6715 2945 40  0000 L CNN "Voltage"
F 5 "X7R" H 6715 2875 40  0000 L CNN "Type"
F 6 "Ceramic capacitor" H 6700 3400 40  0001 L CNN "Description"
F 7 "10%" H 6770 2735 40  0001 C CNN "Tolerance"
F 8 "0603" H 6710 2805 40  0000 L CNN "Size"
	1    6700 3100
	1    0    0    -1  
$EndComp
Wire Wire Line
	6700 2500 6700 2900
Wire Wire Line
	6400 2500 6400 2900
Wire Wire Line
	6700 3600 6700 3300
Wire Wire Line
	6400 3600 6400 3300
$Comp
L C C636
U 1 1 57E986CC
P 7000 3100
F 0 "C636" H 7000 3200 40  0000 L CNN
F 1 "10n" H 7010 3015 40  0000 L CNN
F 2 "MyKiCadLibs-Footprints:SMD-0603" H 7038 2950 30  0001 C CNN
F 3 "" H 7000 3200 60  0000 C CNN
F 4 "50V" H 7015 2945 40  0000 L CNN "Voltage"
F 5 "X7R" H 7015 2875 40  0000 L CNN "Type"
F 6 "Ceramic capacitor" H 7000 3400 40  0001 L CNN "Description"
F 7 "10%" H 7070 2735 40  0001 C CNN "Tolerance"
F 8 "0603" H 7010 2805 40  0000 L CNN "Size"
	1    7000 3100
	1    0    0    -1  
$EndComp
Wire Wire Line
	7000 2500 7000 2900
Wire Wire Line
	7000 3600 7000 3300
Connection ~ 6700 3600
Connection ~ 6400 3600
Connection ~ 6400 2500
Connection ~ 6700 2500
Wire Wire Line
	5000 2500 7000 2500
Wire Wire Line
	5050 3600 7000 3600
Text Label 7000 900  2    60   ~ 0
DVDDL
Text Label 13900 2550 2    60   ~ 0
DVDDL
Wire Wire Line
	13500 2550 13900 2550
Wire Wire Line
	13500 2650 13550 2650
Wire Wire Line
	13550 2550 13550 3050
Connection ~ 13550 2550
Wire Wire Line
	13550 2750 13500 2750
Connection ~ 13550 2650
Wire Wire Line
	13550 2850 13500 2850
Connection ~ 13550 2750
Wire Wire Line
	13550 2950 13500 2950
Connection ~ 13550 2850
Wire Wire Line
	13550 3050 13500 3050
Connection ~ 13550 2950
Text Label 13900 3350 2    60   ~ 0
AVDDL
Text Label 14050 3600 2    60   ~ 0
AVDDL_PLL
Wire Wire Line
	14050 3600 13500 3600
Wire Wire Line
	13500 3350 13900 3350
Wire Wire Line
	13500 3450 13550 3450
Wire Wire Line
	13550 3450 13550 3350
Connection ~ 13550 3350
Text Label 4050 2500 2    60   ~ 0
AVDDL
Text Label 7000 2500 2    60   ~ 0
AVDDL_PLL
$Comp
L GNDD #PWR0120
U 1 1 57E9D857
P 8600 2050
F 0 "#PWR0120" H 8600 1800 60  0001 C CNN
F 1 "GNDD" H 8600 1900 60  0000 C CNN
F 2 "" H 8600 2050 60  0000 C CNN
F 3 "" H 8600 2050 60  0000 C CNN
	1    8600 2050
	1    0    0    -1  
$EndComp
$Comp
L C C646
U 1 1 57E9D862
P 9300 1500
F 0 "C646" H 9300 1600 40  0000 L CNN
F 1 "22u" H 9310 1415 40  0000 L CNN
F 2 "MyKiCadLibs-Footprints:SMD-0805" H 9338 1350 30  0001 C CNN
F 3 "" H 9300 1600 60  0000 C CNN
F 4 "10V" H 9365 1350 40  0000 C CNN "Voltage"
F 5 "X5R" H 9370 1275 40  0000 C CNN "Type"
F 6 "Ceramic capacitor" H 9300 1800 40  0001 L CNN "Description"
F 7 "20%" H 9700 2000 40  0001 C CNN "Tolerance"
F 8 "0805" H 9300 1500 60  0001 C CNN "Size"
	1    9300 1500
	1    0    0    -1  
$EndComp
$Comp
L C C648
U 1 1 57E9D86D
P 9600 1500
F 0 "C648" H 9600 1600 40  0000 L CNN
F 1 "100n" H 9610 1415 40  0000 L CNN
F 2 "MyKiCadLibs-Footprints:SMD-0805" H 9638 1350 30  0001 C CNN
F 3 "" H 9600 1600 60  0000 C CNN
F 4 "50V" H 9665 1350 40  0000 C CNN "Voltage"
F 5 "X7R" H 9670 1275 40  0000 C CNN "Type"
F 6 "Ceramic capacitor" H 9600 1800 40  0001 L CNN "Description"
F 7 "10%" H 10000 2000 40  0001 C CNN "Tolerance"
F 8 "0805" H 9600 1500 60  0001 C CNN "Size"
	1    9600 1500
	1    0    0    -1  
$EndComp
$Comp
L C C639
U 1 1 57E9D878
P 8600 1700
F 0 "C639" H 8600 1800 40  0000 L CNN
F 1 "100p" H 8610 1615 40  0000 L CNN
F 2 "MyKiCadLibs-Footprints:SMD-0805" H 8638 1550 30  0001 C CNN
F 3 "" H 8600 1800 60  0000 C CNN
F 4 "50V" H 8665 1550 40  0000 C CNN "Voltage"
F 5 "C0G" H 8670 1475 40  0000 C CNN "Type"
F 6 "Ceramic capacitor" H 8600 2000 40  0001 L CNN "Description"
F 7 "5%" H 9000 2200 40  0001 C CNN "Tolerance"
F 8 "0805" H 8600 1700 60  0001 C CNN "Size"
	1    8600 1700
	1    0    0    -1  
$EndComp
$Comp
L CP1 C642
U 1 1 57E9D881
P 8950 1500
F 0 "C642" H 9000 1600 50  0000 L CNN
F 1 "220u" H 9000 1400 50  0000 L CNN
F 2 "MyKiCadLibs-Footprints:CAP-TH-D6.3mmP2.5mm" H 8950 1500 60  0001 C CNN
F 3 "" H 8950 1500 60  0000 C CNN
F 4 "10V" H 9005 1315 50  0000 L CNN "Voltage"
F 5 "2.5mm pitch, 6.3mm diameter" H 8950 1800 40  0001 L CNN "Type"
F 6 "Low impedance aluminium electrolytic capacitor - Panasonic FC, FR or similar" H 8950 1900 40  0001 L CNN "Description"
	1    8950 1500
	1    0    0    -1  
$EndComp
$Comp
L INDUCTOR L605
U 1 1 57E9D88A
P 8250 900
F 0 "L605" V 8200 900 40  0000 C CNN
F 1 "600R@100MHz" V 8350 900 40  0000 C CNN
F 2 "MyKiCadLibs-Footprints:SMD-0805" H 8250 900 60  0001 C CNN
F 3 "" H 8250 900 60  0000 C CNN
F 4 "=>1A" V 8400 900 40  0000 C CNN "Current"
F 5 "Ferrite bead, current rating 1A or higher, 600R@100MHz" V 8450 950 40  0001 C CNN "Description"
F 6 "0805" V 8250 900 60  0001 C CNN "Size"
	1    8250 900 
	0    -1   -1   0   
$EndComp
$Comp
L C C650
U 1 1 57E9D895
P 9900 1500
F 0 "C650" H 9900 1600 40  0000 L CNN
F 1 "1u" H 9910 1415 40  0000 L CNN
F 2 "MyKiCadLibs-Footprints:SMD-0603" H 9938 1350 30  0001 C CNN
F 3 "" H 9900 1600 60  0000 C CNN
F 4 "10V" H 9915 1345 40  0000 L CNN "Voltage"
F 5 "X7R" H 9915 1275 40  0000 L CNN "Type"
F 6 "Ceramic capacitor" H 9900 1800 40  0001 L CNN "Description"
F 7 "10%" H 9970 1135 40  0001 C CNN "Tolerance"
F 8 "0603" H 9910 1205 40  0000 L CNN "Size"
	1    9900 1500
	1    0    0    -1  
$EndComp
$Comp
L C C662
U 1 1 57E9D8A0
P 11700 1500
F 0 "C662" H 11700 1600 40  0000 L CNN
F 1 "10n" H 11710 1415 40  0000 L CNN
F 2 "MyKiCadLibs-Footprints:SMD-0603" H 11738 1350 30  0001 C CNN
F 3 "" H 11700 1600 60  0000 C CNN
F 4 "50V" H 11715 1345 40  0000 L CNN "Voltage"
F 5 "X7R" H 11715 1275 40  0000 L CNN "Type"
F 6 "Ceramic capacitor" H 11700 1800 40  0001 L CNN "Description"
F 7 "10%" H 11770 1135 40  0001 C CNN "Tolerance"
F 8 "0603" H 11710 1205 40  0000 L CNN "Size"
	1    11700 1500
	1    0    0    -1  
$EndComp
$Comp
L C C654
U 1 1 57E9D8AB
P 10500 1500
F 0 "C654" H 10500 1600 40  0000 L CNN
F 1 "1u" H 10510 1415 40  0000 L CNN
F 2 "MyKiCadLibs-Footprints:SMD-0603" H 10538 1350 30  0001 C CNN
F 3 "" H 10500 1600 60  0000 C CNN
F 4 "10V" H 10515 1345 40  0000 L CNN "Voltage"
F 5 "X7R" H 10515 1275 40  0000 L CNN "Type"
F 6 "Ceramic capacitor" H 10500 1800 40  0001 L CNN "Description"
F 7 "10%" H 10570 1135 40  0001 C CNN "Tolerance"
F 8 "0603" H 10510 1205 40  0000 L CNN "Size"
	1    10500 1500
	1    0    0    -1  
$EndComp
$Comp
L C C656
U 1 1 57E9D8B6
P 10800 1500
F 0 "C656" H 10800 1600 40  0000 L CNN
F 1 "100n" H 10810 1415 40  0000 L CNN
F 2 "MyKiCadLibs-Footprints:SMD-0603" H 10838 1350 30  0001 C CNN
F 3 "" H 10800 1600 60  0000 C CNN
F 4 "50V" H 10815 1345 40  0000 L CNN "Voltage"
F 5 "X7R" H 10815 1275 40  0000 L CNN "Type"
F 6 "Ceramic capacitor" H 10800 1800 40  0001 L CNN "Description"
F 7 "10%" H 10870 1135 40  0001 C CNN "Tolerance"
F 8 "0603" H 10810 1205 40  0000 L CNN "Size"
	1    10800 1500
	1    0    0    -1  
$EndComp
$Comp
L R R618
U 1 1 57E9D8C0
P 8600 1200
F 0 "R618" V 8520 1200 40  0000 C CNN
F 1 "47" V 8607 1201 40  0000 C CNN
F 2 "MyKiCadLibs-Footprints:SMD-0805" V 8530 1200 30  0001 C CNN
F 3 "" V 8520 1200 30  0000 C CNN
F 4 "100mW" V 8700 1200 40  0001 C CNN "Power"
F 5 "Thick or thin film resistor" V 8845 1200 40  0001 C CNN "Description"
F 6 "0805" V 8775 1200 40  0001 C CNN "Size"
F 7 "1%" V 8925 1200 40  0001 C CNN "Tolerance"
	1    8600 1200
	1    0    0    -1  
$EndComp
Wire Wire Line
	7850 900  7950 900 
Wire Wire Line
	7850 750  7850 900 
Connection ~ 11700 2000
Connection ~ 11700 900 
Wire Wire Line
	10800 900  10800 1300
Wire Wire Line
	10500 900  10500 1300
Wire Wire Line
	10800 2000 10800 1700
Wire Wire Line
	10500 2000 10500 1700
Wire Wire Line
	10200 900  10200 1300
Connection ~ 10200 900 
Wire Wire Line
	9900 900  9900 1300
Wire Wire Line
	10200 2000 10200 1700
Connection ~ 10200 2000
Wire Wire Line
	9900 2000 9900 1700
Wire Wire Line
	9600 2000 9600 1700
Wire Wire Line
	9600 900  9600 1300
Connection ~ 9300 2000
Connection ~ 8950 2000
Wire Wire Line
	9300 2000 9300 1700
Connection ~ 8600 2000
Wire Wire Line
	8950 2000 8950 1700
Wire Wire Line
	8600 1900 8600 2050
Connection ~ 9300 900 
Connection ~ 8950 900 
Wire Wire Line
	9300 900  9300 1300
Connection ~ 8600 900 
Wire Wire Line
	8950 900  8950 1300
Wire Wire Line
	8600 1450 8600 1500
Wire Wire Line
	8600 900  8600 950 
Connection ~ 9900 900 
Connection ~ 9900 2000
Connection ~ 9600 900 
Connection ~ 9600 2000
Connection ~ 10500 900 
Connection ~ 10800 900 
Connection ~ 10800 2000
Connection ~ 10500 2000
$Comp
L C C652
U 1 1 57E9D8F6
P 10200 1500
F 0 "C652" H 10200 1600 40  0000 L CNN
F 1 "1u" H 10210 1415 40  0000 L CNN
F 2 "MyKiCadLibs-Footprints:SMD-0603" H 10238 1350 30  0001 C CNN
F 3 "" H 10200 1600 60  0000 C CNN
F 4 "10V" H 10215 1345 40  0000 L CNN "Voltage"
F 5 "X7R" H 10215 1275 40  0000 L CNN "Type"
F 6 "Ceramic capacitor" H 10200 1800 40  0001 L CNN "Description"
F 7 "10%" H 10270 1135 40  0001 C CNN "Tolerance"
F 8 "0603" H 10210 1205 40  0000 L CNN "Size"
	1    10200 1500
	1    0    0    -1  
$EndComp
$Comp
L C C658
U 1 1 57E9D901
P 11100 1500
F 0 "C658" H 11100 1600 40  0000 L CNN
F 1 "100n" H 11110 1415 40  0000 L CNN
F 2 "MyKiCadLibs-Footprints:SMD-0603" H 11138 1350 30  0001 C CNN
F 3 "" H 11100 1600 60  0000 C CNN
F 4 "50V" H 11115 1345 40  0000 L CNN "Voltage"
F 5 "X7R" H 11115 1275 40  0000 L CNN "Type"
F 6 "Ceramic capacitor" H 11100 1800 40  0001 L CNN "Description"
F 7 "10%" H 11170 1135 40  0001 C CNN "Tolerance"
F 8 "0603" H 11110 1205 40  0000 L CNN "Size"
	1    11100 1500
	1    0    0    -1  
$EndComp
Wire Wire Line
	11100 900  11100 1300
Wire Wire Line
	11100 2000 11100 1700
$Comp
L C C661
U 1 1 57E9D90E
P 11400 1500
F 0 "C661" H 11400 1600 40  0000 L CNN
F 1 "100n" H 11410 1415 40  0000 L CNN
F 2 "MyKiCadLibs-Footprints:SMD-0603" H 11438 1350 30  0001 C CNN
F 3 "" H 11400 1600 60  0000 C CNN
F 4 "50V" H 11415 1345 40  0000 L CNN "Voltage"
F 5 "X7R" H 11415 1275 40  0000 L CNN "Type"
F 6 "Ceramic capacitor" H 11400 1800 40  0001 L CNN "Description"
F 7 "10%" H 11470 1135 40  0001 C CNN "Tolerance"
F 8 "0603" H 11410 1205 40  0000 L CNN "Size"
	1    11400 1500
	1    0    0    -1  
$EndComp
Wire Wire Line
	11400 900  11400 1300
Wire Wire Line
	11400 2000 11400 1700
Connection ~ 11400 900 
Connection ~ 11100 900 
Connection ~ 11100 2000
Connection ~ 11400 2000
Connection ~ 12000 900 
Connection ~ 12000 2000
Wire Wire Line
	11700 1300 11700 900 
Wire Wire Line
	11700 2000 11700 1700
$Comp
L C C663
U 1 1 57E9D94E
P 12000 1500
F 0 "C663" H 12000 1600 40  0000 L CNN
F 1 "10n" H 12010 1415 40  0000 L CNN
F 2 "MyKiCadLibs-Footprints:SMD-0603" H 12038 1350 30  0001 C CNN
F 3 "" H 12000 1600 60  0000 C CNN
F 4 "50V" H 12015 1345 40  0000 L CNN "Voltage"
F 5 "X7R" H 12015 1275 40  0000 L CNN "Type"
F 6 "Ceramic capacitor" H 12000 1800 40  0001 L CNN "Description"
F 7 "10%" H 12070 1135 40  0001 C CNN "Tolerance"
F 8 "0603" H 12010 1205 40  0000 L CNN "Size"
	1    12000 1500
	1    0    0    -1  
$EndComp
Wire Wire Line
	12000 1300 12000 900 
Wire Wire Line
	12000 2000 12000 1700
$Comp
L C C664
U 1 1 57E9D95D
P 12300 1500
F 0 "C664" H 12300 1600 40  0000 L CNN
F 1 "10n" H 12310 1415 40  0000 L CNN
F 2 "MyKiCadLibs-Footprints:SMD-0603" H 12338 1350 30  0001 C CNN
F 3 "" H 12300 1600 60  0000 C CNN
F 4 "50V" H 12315 1345 40  0000 L CNN "Voltage"
F 5 "X7R" H 12315 1275 40  0000 L CNN "Type"
F 6 "Ceramic capacitor" H 12300 1800 40  0001 L CNN "Description"
F 7 "10%" H 12370 1135 40  0001 C CNN "Tolerance"
F 8 "0603" H 12310 1205 40  0000 L CNN "Size"
	1    12300 1500
	1    0    0    -1  
$EndComp
Wire Wire Line
	12300 900  12300 1300
Wire Wire Line
	12300 2000 12300 1700
Wire Wire Line
	8550 900  12300 900 
Wire Wire Line
	8600 2000 12300 2000
Text Label 12300 900  2    60   ~ 0
DVDDH
Text Label 11600 2550 0    60   ~ 0
DVDDH
Wire Wire Line
	11600 2550 12000 2550
Wire Wire Line
	12000 2650 11950 2650
Wire Wire Line
	11950 2550 11950 2750
Connection ~ 11950 2550
Wire Wire Line
	11950 2750 12000 2750
Connection ~ 11950 2650
$Comp
L +3V3 #PWR0121
U 1 1 57EA16BA
P 7850 750
F 0 "#PWR0121" H 7850 600 50  0001 C CNN
F 1 "+3V3" H 7850 890 50  0000 C CNN
F 2 "" H 7850 750 50  0000 C CNN
F 3 "" H 7850 750 50  0000 C CNN
	1    7850 750 
	1    0    0    -1  
$EndComp
$Comp
L GNDD #PWR0122
U 1 1 57EA18A6
P 8400 3650
F 0 "#PWR0122" H 8400 3400 60  0001 C CNN
F 1 "GNDD" H 8400 3500 60  0000 C CNN
F 2 "" H 8400 3650 60  0000 C CNN
F 3 "" H 8400 3650 60  0000 C CNN
	1    8400 3650
	1    0    0    -1  
$EndComp
$Comp
L C C644
U 1 1 57EA18B1
P 9100 3100
F 0 "C644" H 9100 3200 40  0000 L CNN
F 1 "22u" H 9110 3015 40  0000 L CNN
F 2 "MyKiCadLibs-Footprints:SMD-0805" H 9138 2950 30  0001 C CNN
F 3 "" H 9100 3200 60  0000 C CNN
F 4 "10V" H 9165 2950 40  0000 C CNN "Voltage"
F 5 "X5R" H 9170 2875 40  0000 C CNN "Type"
F 6 "Ceramic capacitor" H 9100 3400 40  0001 L CNN "Description"
F 7 "20%" H 9500 3600 40  0001 C CNN "Tolerance"
F 8 "0805" H 9100 3100 60  0001 C CNN "Size"
	1    9100 3100
	1    0    0    -1  
$EndComp
$Comp
L C C647
U 1 1 57EA18BC
P 9400 3100
F 0 "C647" H 9400 3200 40  0000 L CNN
F 1 "100n" H 9410 3015 40  0000 L CNN
F 2 "MyKiCadLibs-Footprints:SMD-0805" H 9438 2950 30  0001 C CNN
F 3 "" H 9400 3200 60  0000 C CNN
F 4 "50V" H 9465 2950 40  0000 C CNN "Voltage"
F 5 "X7R" H 9470 2875 40  0000 C CNN "Type"
F 6 "Ceramic capacitor" H 9400 3400 40  0001 L CNN "Description"
F 7 "10%" H 9800 3600 40  0001 C CNN "Tolerance"
F 8 "0805" H 9400 3100 60  0001 C CNN "Size"
	1    9400 3100
	1    0    0    -1  
$EndComp
$Comp
L C C637
U 1 1 57EA18C7
P 8400 3300
F 0 "C637" H 8400 3400 40  0000 L CNN
F 1 "100p" H 8410 3215 40  0000 L CNN
F 2 "MyKiCadLibs-Footprints:SMD-0805" H 8438 3150 30  0001 C CNN
F 3 "" H 8400 3400 60  0000 C CNN
F 4 "50V" H 8465 3150 40  0000 C CNN "Voltage"
F 5 "C0G" H 8470 3075 40  0000 C CNN "Type"
F 6 "Ceramic capacitor" H 8400 3600 40  0001 L CNN "Description"
F 7 "5%" H 8800 3800 40  0001 C CNN "Tolerance"
F 8 "0805" H 8400 3300 60  0001 C CNN "Size"
	1    8400 3300
	1    0    0    -1  
$EndComp
$Comp
L CP1 C640
U 1 1 57EA18D0
P 8750 3100
F 0 "C640" H 8800 3200 50  0000 L CNN
F 1 "220u" H 8800 3000 50  0000 L CNN
F 2 "MyKiCadLibs-Footprints:CAP-TH-D6.3mmP2.5mm" H 8750 3100 60  0001 C CNN
F 3 "" H 8750 3100 60  0000 C CNN
F 4 "10V" H 8805 2915 50  0000 L CNN "Voltage"
F 5 "2.5mm pitch, 6.3mm diameter" H 8750 3400 40  0001 L CNN "Type"
F 6 "Low impedance aluminium electrolytic capacitor - Panasonic FC, FR or similar" H 8750 3500 40  0001 L CNN "Description"
	1    8750 3100
	1    0    0    -1  
$EndComp
$Comp
L INDUCTOR L604
U 1 1 57EA18D9
P 8050 2500
F 0 "L604" V 8000 2500 40  0000 C CNN
F 1 "600R@100MHz" V 8150 2500 40  0000 C CNN
F 2 "MyKiCadLibs-Footprints:SMD-0805" H 8050 2500 60  0001 C CNN
F 3 "" H 8050 2500 60  0000 C CNN
F 4 "=>1A" V 8200 2500 40  0000 C CNN "Current"
F 5 "Ferrite bead, current rating 1A or higher, 600R@100MHz" V 8250 2550 40  0001 C CNN "Description"
F 6 "0805" V 8050 2500 60  0001 C CNN "Size"
	1    8050 2500
	0    -1   -1   0   
$EndComp
$Comp
L C C649
U 1 1 57EA18E4
P 9700 3100
F 0 "C649" H 9700 3200 40  0000 L CNN
F 1 "1u" H 9710 3015 40  0000 L CNN
F 2 "MyKiCadLibs-Footprints:SMD-0603" H 9738 2950 30  0001 C CNN
F 3 "" H 9700 3200 60  0000 C CNN
F 4 "10V" H 9715 2945 40  0000 L CNN "Voltage"
F 5 "X7R" H 9715 2875 40  0000 L CNN "Type"
F 6 "Ceramic capacitor" H 9700 3400 40  0001 L CNN "Description"
F 7 "10%" H 9770 2735 40  0001 C CNN "Tolerance"
F 8 "0603" H 9710 2805 40  0000 L CNN "Size"
	1    9700 3100
	1    0    0    -1  
$EndComp
$Comp
L C C653
U 1 1 57EA18FA
P 10300 3100
F 0 "C653" H 10300 3200 40  0000 L CNN
F 1 "100n" H 10310 3015 40  0000 L CNN
F 2 "MyKiCadLibs-Footprints:SMD-0603" H 10338 2950 30  0001 C CNN
F 3 "" H 10300 3200 60  0000 C CNN
F 4 "50V" H 10315 2945 40  0000 L CNN "Voltage"
F 5 "X7R" H 10315 2875 40  0000 L CNN "Type"
F 6 "Ceramic capacitor" H 10300 3400 40  0001 L CNN "Description"
F 7 "10%" H 10370 2735 40  0001 C CNN "Tolerance"
F 8 "0603" H 10310 2805 40  0000 L CNN "Size"
	1    10300 3100
	1    0    0    -1  
$EndComp
$Comp
L R R617
U 1 1 57EA1904
P 8400 2800
F 0 "R617" V 8320 2800 40  0000 C CNN
F 1 "47" V 8407 2801 40  0000 C CNN
F 2 "MyKiCadLibs-Footprints:SMD-0805" V 8330 2800 30  0001 C CNN
F 3 "" V 8320 2800 30  0000 C CNN
F 4 "100mW" V 8500 2800 40  0001 C CNN "Power"
F 5 "Thick or thin film resistor" V 8645 2800 40  0001 C CNN "Description"
F 6 "0805" V 8575 2800 40  0001 C CNN "Size"
F 7 "1%" V 8725 2800 40  0001 C CNN "Tolerance"
	1    8400 2800
	1    0    0    -1  
$EndComp
Wire Wire Line
	7650 2500 7750 2500
Wire Wire Line
	7650 2350 7650 2500
Wire Wire Line
	10600 2500 10600 2900
Wire Wire Line
	10300 2500 10300 2900
Wire Wire Line
	10600 3600 10600 3300
Wire Wire Line
	10300 3600 10300 3300
Wire Wire Line
	10000 2500 10000 2900
Connection ~ 10000 2500
Wire Wire Line
	9700 2500 9700 2900
Wire Wire Line
	10000 3600 10000 3300
Connection ~ 10000 3600
Wire Wire Line
	9700 3600 9700 3300
Wire Wire Line
	9400 3600 9400 3300
Wire Wire Line
	9400 2500 9400 2900
Connection ~ 9100 3600
Connection ~ 8750 3600
Wire Wire Line
	9100 3600 9100 3300
Connection ~ 8400 3600
Wire Wire Line
	8750 3600 8750 3300
Wire Wire Line
	8400 3500 8400 3650
Connection ~ 9100 2500
Connection ~ 8750 2500
Wire Wire Line
	9100 2500 9100 2900
Connection ~ 8400 2500
Wire Wire Line
	8750 2500 8750 2900
Wire Wire Line
	8400 3050 8400 3100
Wire Wire Line
	8400 2500 8400 2550
Connection ~ 9700 2500
Connection ~ 9700 3600
Connection ~ 9400 2500
Connection ~ 9400 3600
Connection ~ 10300 2500
Connection ~ 10600 2500
Connection ~ 10600 3600
Connection ~ 10300 3600
$Comp
L C C651
U 1 1 57EA1932
P 10000 3100
F 0 "C651" H 10000 3200 40  0000 L CNN
F 1 "1u" H 10010 3015 40  0000 L CNN
F 2 "MyKiCadLibs-Footprints:SMD-0603" H 10038 2950 30  0001 C CNN
F 3 "" H 10000 3200 60  0000 C CNN
F 4 "10V" H 10015 2945 40  0000 L CNN "Voltage"
F 5 "X7R" H 10015 2875 40  0000 L CNN "Type"
F 6 "Ceramic capacitor" H 10000 3400 40  0001 L CNN "Description"
F 7 "10%" H 10070 2735 40  0001 C CNN "Tolerance"
F 8 "0603" H 10010 2805 40  0000 L CNN "Size"
	1    10000 3100
	1    0    0    -1  
$EndComp
$Comp
L C C655
U 1 1 57EA193D
P 10600 3100
F 0 "C655" H 10600 3200 40  0000 L CNN
F 1 "100n" H 10610 3015 40  0000 L CNN
F 2 "MyKiCadLibs-Footprints:SMD-0603" H 10638 2950 30  0001 C CNN
F 3 "" H 10600 3200 60  0000 C CNN
F 4 "50V" H 10615 2945 40  0000 L CNN "Voltage"
F 5 "X7R" H 10615 2875 40  0000 L CNN "Type"
F 6 "Ceramic capacitor" H 10600 3400 40  0001 L CNN "Description"
F 7 "10%" H 10670 2735 40  0001 C CNN "Tolerance"
F 8 "0603" H 10610 2805 40  0000 L CNN "Size"
	1    10600 3100
	1    0    0    -1  
$EndComp
Wire Wire Line
	10900 2500 10900 2900
Wire Wire Line
	10900 3600 10900 3300
Wire Wire Line
	11200 2500 11200 2900
Wire Wire Line
	11200 3600 11200 3300
Connection ~ 10900 2500
Connection ~ 10900 3600
$Comp
L +3V3 #PWR0123
U 1 1 57EA1958
P 7650 2350
F 0 "#PWR0123" H 7650 2200 50  0001 C CNN
F 1 "+3V3" H 7650 2490 50  0000 C CNN
F 2 "" H 7650 2350 50  0000 C CNN
F 3 "" H 7650 2350 50  0000 C CNN
	1    7650 2350
	1    0    0    -1  
$EndComp
$Comp
L C C657
U 1 1 57EA28B5
P 10900 3100
F 0 "C657" H 10900 3200 40  0000 L CNN
F 1 "10n" H 10910 3015 40  0000 L CNN
F 2 "MyKiCadLibs-Footprints:SMD-0603" H 10938 2950 30  0001 C CNN
F 3 "" H 10900 3200 60  0000 C CNN
F 4 "50V" H 10915 2945 40  0000 L CNN "Voltage"
F 5 "X7R" H 10915 2875 40  0000 L CNN "Type"
F 6 "Ceramic capacitor" H 10900 3400 40  0001 L CNN "Description"
F 7 "10%" H 10970 2735 40  0001 C CNN "Tolerance"
F 8 "0603" H 10910 2805 40  0000 L CNN "Size"
	1    10900 3100
	1    0    0    -1  
$EndComp
$Comp
L C C659
U 1 1 57EA2BB7
P 11200 3100
F 0 "C659" H 11200 3200 40  0000 L CNN
F 1 "10n" H 11210 3015 40  0000 L CNN
F 2 "MyKiCadLibs-Footprints:SMD-0603" H 11238 2950 30  0001 C CNN
F 3 "" H 11200 3200 60  0000 C CNN
F 4 "50V" H 11215 2945 40  0000 L CNN "Voltage"
F 5 "X7R" H 11215 2875 40  0000 L CNN "Type"
F 6 "Ceramic capacitor" H 11200 3400 40  0001 L CNN "Description"
F 7 "10%" H 11270 2735 40  0001 C CNN "Tolerance"
F 8 "0603" H 11210 2805 40  0000 L CNN "Size"
	1    11200 3100
	1    0    0    -1  
$EndComp
Wire Wire Line
	8350 2500 11200 2500
Wire Wire Line
	8400 3600 11200 3600
Text Label 11200 2500 2    60   ~ 0
AVDDH
Text Label 11600 2900 0    60   ~ 0
AVDDH
Wire Wire Line
	11600 2900 12000 2900
Wire Wire Line
	11950 3000 11950 2900
Connection ~ 11950 2900
Wire Wire Line
	12000 3000 11950 3000
$Comp
L GNDD #PWR0124
U 1 1 57EA4441
P 11900 3650
F 0 "#PWR0124" H 11900 3400 60  0001 C CNN
F 1 "GNDD" H 11900 3500 60  0000 C CNN
F 2 "" H 11900 3650 60  0000 C CNN
F 3 "" H 11900 3650 60  0000 C CNN
	1    11900 3650
	1    0    0    -1  
$EndComp
Wire Wire Line
	11900 3500 11900 3650
Wire Wire Line
	11900 3600 12000 3600
Wire Wire Line
	12000 3500 11900 3500
Connection ~ 11900 3600
$Comp
L R R604
U 1 1 57E5A429
P 3900 6100
F 0 "R604" V 3950 5800 40  0000 C CNN
F 1 "33" V 3907 6101 40  0000 C CNN
F 2 "MyKiCadLibs-Footprints:SMD-0805" V 3830 6100 30  0001 C CNN
F 3 "" V 3820 6100 30  0000 C CNN
F 4 "100mW" V 4000 6100 40  0001 C CNN "Power"
F 5 "Thick or thin film resistor" V 4145 6100 40  0001 C CNN "Description"
F 6 "0805" V 4075 6100 40  0001 C CNN "Size"
F 7 "1%" V 4225 6100 40  0001 C CNN "Tolerance"
	1    3900 6100
	0    1    -1   0   
$EndComp
$Comp
L R R605
U 1 1 57E5B99B
P 3900 6200
F 0 "R605" V 3950 5900 40  0000 C CNN
F 1 "33" V 3907 6201 40  0000 C CNN
F 2 "MyKiCadLibs-Footprints:SMD-0805" V 3830 6200 30  0001 C CNN
F 3 "" V 3820 6200 30  0000 C CNN
F 4 "100mW" V 4000 6200 40  0001 C CNN "Power"
F 5 "Thick or thin film resistor" V 4145 6200 40  0001 C CNN "Description"
F 6 "0805" V 4075 6200 40  0001 C CNN "Size"
F 7 "1%" V 4225 6200 40  0001 C CNN "Tolerance"
	1    3900 6200
	0    1    -1   0   
$EndComp
$Comp
L R R606
U 1 1 57E5BB03
P 3900 6300
F 0 "R606" V 3950 6000 40  0000 C CNN
F 1 "33" V 3907 6301 40  0000 C CNN
F 2 "MyKiCadLibs-Footprints:SMD-0805" V 3830 6300 30  0001 C CNN
F 3 "" V 3820 6300 30  0000 C CNN
F 4 "100mW" V 4000 6300 40  0001 C CNN "Power"
F 5 "Thick or thin film resistor" V 4145 6300 40  0001 C CNN "Description"
F 6 "0805" V 4075 6300 40  0001 C CNN "Size"
F 7 "1%" V 4225 6300 40  0001 C CNN "Tolerance"
	1    3900 6300
	0    1    -1   0   
$EndComp
$Comp
L R R607
U 1 1 57E5BC6E
P 3900 6400
F 0 "R607" V 3950 6100 40  0000 C CNN
F 1 "33" V 3907 6401 40  0000 C CNN
F 2 "MyKiCadLibs-Footprints:SMD-0805" V 3830 6400 30  0001 C CNN
F 3 "" V 3820 6400 30  0000 C CNN
F 4 "100mW" V 4000 6400 40  0001 C CNN "Power"
F 5 "Thick or thin film resistor" V 4145 6400 40  0001 C CNN "Description"
F 6 "0805" V 4075 6400 40  0001 C CNN "Size"
F 7 "1%" V 4225 6400 40  0001 C CNN "Tolerance"
	1    3900 6400
	0    1    -1   0   
$EndComp
$Comp
L R R608
U 1 1 57E5BDDC
P 3900 6500
F 0 "R608" V 3950 6200 40  0000 C CNN
F 1 "33" V 3907 6501 40  0000 C CNN
F 2 "MyKiCadLibs-Footprints:SMD-0805" V 3830 6500 30  0001 C CNN
F 3 "" V 3820 6500 30  0000 C CNN
F 4 "100mW" V 4000 6500 40  0001 C CNN "Power"
F 5 "Thick or thin film resistor" V 4145 6500 40  0001 C CNN "Description"
F 6 "0805" V 4075 6500 40  0001 C CNN "Size"
F 7 "1%" V 4225 6500 40  0001 C CNN "Tolerance"
	1    3900 6500
	0    1    -1   0   
$EndComp
$Comp
L R R609
U 1 1 57E5BF4D
P 3900 6600
F 0 "R609" V 3950 6300 40  0000 C CNN
F 1 "33" V 3907 6601 40  0000 C CNN
F 2 "MyKiCadLibs-Footprints:SMD-0805" V 3830 6600 30  0001 C CNN
F 3 "" V 3820 6600 30  0000 C CNN
F 4 "100mW" V 4000 6600 40  0001 C CNN "Power"
F 5 "Thick or thin film resistor" V 4145 6600 40  0001 C CNN "Description"
F 6 "0805" V 4075 6600 40  0001 C CNN "Size"
F 7 "1%" V 4225 6600 40  0001 C CNN "Tolerance"
	1    3900 6600
	0    1    -1   0   
$EndComp
$Comp
L R R610
U 1 1 57E5C0C1
P 3900 6750
F 0 "R610" V 3950 6450 40  0000 C CNN
F 1 "33" V 3907 6751 40  0000 C CNN
F 2 "MyKiCadLibs-Footprints:SMD-0805" V 3830 6750 30  0001 C CNN
F 3 "" V 3820 6750 30  0000 C CNN
F 4 "100mW" V 4000 6750 40  0001 C CNN "Power"
F 5 "Thick or thin film resistor" V 4145 6750 40  0001 C CNN "Description"
F 6 "0805" V 4075 6750 40  0001 C CNN "Size"
F 7 "1%" V 4225 6750 40  0001 C CNN "Tolerance"
	1    3900 6750
	0    1    -1   0   
$EndComp
$Comp
L R R616
U 1 1 57E5F4EB
P 7350 6450
F 0 "R616" V 7400 6150 40  0000 C CNN
F 1 "0" V 7357 6451 40  0000 C CNN
F 2 "MyKiCadLibs-Footprints:SMD-0805" V 7280 6450 30  0001 C CNN
F 3 "" V 7270 6450 30  0000 C CNN
F 4 "100mW" V 7450 6450 40  0001 C CNN "Power"
F 5 "Thick or thin film resistor" V 7595 6450 40  0001 C CNN "Description"
F 6 "0805" V 7525 6450 40  0001 C CNN "Size"
F 7 "1%" V 7675 6450 40  0001 C CNN "Tolerance"
	1    7350 6450
	0    1    -1   0   
$EndComp
Text Label 6950 4950 0    60   ~ 0
TXRXA_P
Text Label 6950 5050 0    60   ~ 0
TXRXA_N
Text Label 6950 5200 0    60   ~ 0
TXRXB_P
Text Label 6950 5300 0    60   ~ 0
TXRXB_N
Text Label 6950 5450 0    60   ~ 0
TXRXC_P
Text Label 6950 5550 0    60   ~ 0
TXRXC_N
Text Label 6950 5700 0    60   ~ 0
TXRXD_P
Text Label 6950 5800 0    60   ~ 0
TXRXD_N
Text Label 11400 4900 0    60   ~ 0
MX1_P
Text Label 11400 5000 0    60   ~ 0
MX1_N
Text Label 11400 5100 0    60   ~ 0
MX2_P
Text Label 11600 5400 0    60   ~ 0
MX2_N
Text Label 11450 5200 0    60   ~ 0
MX3_P
Text Label 11500 5300 0    60   ~ 0
MX3_N
Text Label 11650 5500 0    60   ~ 0
MX4_P
Text Label 11700 5600 0    60   ~ 0
MX4_N
$EndSCHEMATC
