EESchema Schematic File Version 2
LIBS:power
LIBS:MyKiCadLibs-Lib
LIBS:DEV-CoreTwo-cache
EELAYER 25 0
EELAYER END
$Descr A4 11693 8268
encoding utf-8
Sheet 7 8
Title "CoreOne - XMOS 200 Platform"
Date "2017-02-08"
Rev "1.0"
Comp "Open Hardware DSP Platform - www.ohdsp.org"
Comment1 "MERCHANTABILITY, SATISFACTORY QUALITY AND FITNESS FOR A PARTICULAR PURPOSE."
Comment2 "is distributed WITHOUT ANY EXPRESS OR IMPLIED WARRANTY, INCLUDING OF"
Comment3 "Licensed under the TAPR Open Hardware License (www.tapr.org/OHL). This documentation"
Comment4 "Copyright Paul Janicki 2017"
$EndDescr
Text Notes 1000 1250 0    59   ~ 0
Generate a global reset based on voltage rails.\nSupports external reset signal.
Text Notes 1000 1000 0    118  ~ 0
Voltage Monitor Reset
$Comp
L SWITCH SW701
U 1 1 57DA6BD2
P 7700 3400
F 0 "SW701" H 7900 3530 70  0000 C CNN
F 1 "SWITCH" H 7900 3650 70  0000 C CNN
F 2 "MyKiCadLibs-Footprints:SW_TACT_SMD" H 7965 3400 60  0001 C CNN
F 3 "" H 7965 3400 60  0000 C CNN
F 4 "6mm x 6mm SMD tactile switch - e.g. TE FSM2JSMA" H 7700 3400 60  0001 C CNN "Description"
	1    7700 3400
	0    1    1    0   
$EndComp
$Comp
L GNDD #PWR711
U 1 1 57DA6BD9
P 7600 1900
F 0 "#PWR711" H 7600 1650 60  0001 C CNN
F 1 "GNDD" H 7600 1750 60  0000 C CNN
F 2 "" H 7600 1900 60  0000 C CNN
F 3 "" H 7600 1900 60  0000 C CNN
	1    7600 1900
	-1   0    0    -1  
$EndComp
Text Notes 8950 3800 0    59   ~ 0
External reset\ninput
$Comp
L GNDD #PWR712
U 1 1 57DA6BE8
P 7700 3850
F 0 "#PWR712" H 7700 3600 60  0001 C CNN
F 1 "GNDD" H 7700 3700 60  0000 C CNN
F 2 "" H 7700 3850 60  0000 C CNN
F 3 "" H 7700 3850 60  0000 C CNN
	1    7700 3850
	-1   0    0    -1  
$EndComp
$Comp
L GNDD #PWR709
U 1 1 57DA6BEE
P 6750 3850
F 0 "#PWR709" H 6750 3600 60  0001 C CNN
F 1 "GNDD" H 6750 3700 60  0000 C CNN
F 2 "" H 6750 3850 60  0000 C CNN
F 3 "" H 6750 3850 60  0000 C CNN
	1    6750 3850
	-1   0    0    -1  
$EndComp
$Comp
L GNDD #PWR702
U 1 1 57DA6BF4
P 2500 4100
F 0 "#PWR702" H 2500 3850 60  0001 C CNN
F 1 "GNDD" H 2500 3950 60  0000 C CNN
F 2 "" H 2500 4100 60  0000 C CNN
F 3 "" H 2500 4100 60  0000 C CNN
	1    2500 4100
	-1   0    0    -1  
$EndComp
$Comp
L GNDD #PWR703
U 1 1 57DA6BFA
P 2750 3700
F 0 "#PWR703" H 2750 3450 60  0001 C CNN
F 1 "GNDD" H 2750 3550 60  0000 C CNN
F 2 "" H 2750 3700 60  0000 C CNN
F 3 "" H 2750 3700 60  0000 C CNN
	1    2750 3700
	-1   0    0    -1  
$EndComp
$Comp
L GNDD #PWR708
U 1 1 57DA6C00
P 6400 3350
F 0 "#PWR708" H 6400 3100 60  0001 C CNN
F 1 "GNDD" H 6400 3200 60  0000 C CNN
F 2 "" H 6400 3350 60  0000 C CNN
F 3 "" H 6400 3350 60  0000 C CNN
	1    6400 3350
	1    0    0    -1  
$EndComp
$Comp
L GNDD #PWR705
U 1 1 57DA6C06
P 4600 4050
F 0 "#PWR705" H 4600 3800 60  0001 C CNN
F 1 "GNDD" H 4600 3900 60  0000 C CNN
F 2 "" H 4600 4050 60  0000 C CNN
F 3 "" H 4600 4050 60  0000 C CNN
	1    4600 4050
	-1   0    0    -1  
$EndComp
Text HLabel 8400 1600 2    60   Output ~ 0
GLB_RESET
Text HLabel 8750 3300 2    60   Input ~ 0
RST_IN
$Comp
L GNDD #PWR714
U 1 1 57DA6C27
P 8300 2800
F 0 "#PWR714" H 8300 2550 60  0001 C CNN
F 1 "GNDD" H 8300 2650 60  0000 C CNN
F 2 "" H 8300 2800 60  0000 C CNN
F 3 "" H 8300 2800 60  0000 C CNN
	1    8300 2800
	-1   0    0    -1  
$EndComp
$Comp
L GNDD #PWR710
U 1 1 57DA6C2E
P 7500 2900
F 0 "#PWR710" H 7500 2650 60  0001 C CNN
F 1 "GNDD" H 7500 2750 60  0000 C CNN
F 2 "" H 7500 2900 60  0000 C CNN
F 3 "" H 7500 2900 60  0000 C CNN
	1    7500 2900
	-1   0    0    -1  
$EndComp
$Comp
L GNDD #PWR713
U 1 1 57DA6C34
P 8250 3950
F 0 "#PWR713" H 8250 3700 60  0001 C CNN
F 1 "GNDD" H 8250 3800 60  0000 C CNN
F 2 "" H 8250 3950 60  0000 C CNN
F 3 "" H 8250 3950 60  0000 C CNN
	1    8250 3950
	-1   0    0    -1  
$EndComp
$Comp
L CONN_2x1 P701
U 1 1 57DA6C4A
P 8300 3650
F 0 "P701" V 8795 3495 40  0000 C CNN
F 1 "CONN_2x1" V 8740 3610 40  0000 C CNN
F 2 "MyKiCadLibs-Footprints:CONN_SIL_2_1MM" H 8640 3540 60  0001 C CNN
F 3 "" H 8640 3540 60  0000 C CNN
F 4 "1x2 2.54mm pitch pin header" H 8550 3400 40  0001 C CNN "Description"
	1    8300 3650
	1    0    0    -1  
$EndComp
$Comp
L C C707
U 1 1 57DA6C56
P 7500 2600
F 0 "C707" H 7500 2700 40  0000 L CNN
F 1 "100n" H 7510 2515 40  0000 L CNN
F 2 "MyKiCadLibs-Footprints:SMD-0805" H 7538 2450 30  0001 C CNN
F 3 "" H 7500 2700 60  0000 C CNN
F 4 "50V" H 7565 2450 40  0000 C CNN "Voltage"
F 5 "X7R" H 7570 2375 40  0000 C CNN "Type"
F 6 "Ceramic capacitor" H 7500 2900 40  0001 L CNN "Description"
F 7 "10%" H 7900 3100 40  0001 C CNN "Tolerance"
F 8 "0805" H 7500 2600 60  0001 C CNN "Size"
	1    7500 2600
	1    0    0    -1  
$EndComp
$Comp
L C C706
U 1 1 57DA6C62
P 8300 2550
F 0 "C706" H 8300 2650 40  0000 L CNN
F 1 "100n" H 8310 2465 40  0000 L CNN
F 2 "MyKiCadLibs-Footprints:SMD-0805" H 8338 2400 30  0001 C CNN
F 3 "" H 8300 2650 60  0000 C CNN
F 4 "50V" H 8365 2400 40  0000 C CNN "Voltage"
F 5 "X7R" H 8370 2325 40  0000 C CNN "Type"
F 6 "Ceramic capacitor" H 8300 2850 40  0001 L CNN "Description"
F 7 "10%" H 8700 3050 40  0001 C CNN "Tolerance"
F 8 "0805" H 8300 2550 60  0001 C CNN "Size"
	1    8300 2550
	1    0    0    -1  
$EndComp
$Comp
L C C705
U 1 1 57DA6C6E
P 6750 3600
F 0 "C705" H 6750 3700 40  0000 L CNN
F 1 "10n" H 6760 3515 40  0000 L CNN
F 2 "MyKiCadLibs-Footprints:SMD-0805" H 6788 3450 30  0001 C CNN
F 3 "" H 6750 3700 60  0000 C CNN
F 4 "50V" H 6815 3450 40  0000 C CNN "Voltage"
F 5 "X7R" H 6820 3375 40  0000 C CNN "Type"
F 6 "Ceramic capacitor" H 6750 3900 40  0001 L CNN "Description"
F 7 "10%" H 7150 4100 40  0001 C CNN "Tolerance"
F 8 "0805" H 6750 3600 60  0001 C CNN "Size"
	1    6750 3600
	1    0    0    -1  
$EndComp
$Comp
L C C702
U 1 1 57DA6C86
P 2750 3350
F 0 "C702" H 2750 3450 40  0000 L CNN
F 1 "10u" H 2760 3265 40  0000 L CNN
F 2 "MyKiCadLibs-Footprints:SMD-0805" H 2788 3200 30  0001 C CNN
F 3 "" H 2750 3450 60  0000 C CNN
F 4 "10V" H 2815 3200 40  0000 C CNN "Voltage"
F 5 "X5R" H 2820 3125 40  0000 C CNN "Type"
F 6 "Ceramic capacitor" H 2750 3650 40  0001 L CNN "Description"
F 7 "20%" H 3150 3850 40  0001 C CNN "Tolerance"
F 8 "0805" H 2750 3350 60  0001 C CNN "Size"
	1    2750 3350
	1    0    0    -1  
$EndComp
$Comp
L C C703
U 1 1 57DA6C92
P 3000 3350
F 0 "C703" H 3000 3450 40  0000 L CNN
F 1 "100n" H 3010 3265 40  0000 L CNN
F 2 "MyKiCadLibs-Footprints:SMD-0805" H 3038 3200 30  0001 C CNN
F 3 "" H 3000 3450 60  0000 C CNN
F 4 "50V" H 3065 3200 40  0000 C CNN "Voltage"
F 5 "X7R" H 3070 3125 40  0000 C CNN "Type"
F 6 "Ceramic capacitor" H 3000 3650 40  0001 L CNN "Description"
F 7 "10%" H 3400 3850 40  0001 C CNN "Tolerance"
F 8 "0805" H 3000 3350 60  0001 C CNN "Size"
	1    3000 3350
	1    0    0    -1  
$EndComp
$Comp
L C C704
U 1 1 57DA6C9E
P 3250 3350
F 0 "C704" H 3250 3450 40  0000 L CNN
F 1 "10n" H 3260 3265 40  0000 L CNN
F 2 "MyKiCadLibs-Footprints:SMD-0805" H 3288 3200 30  0001 C CNN
F 3 "" H 3250 3450 60  0000 C CNN
F 4 "50V" H 3315 3200 40  0000 C CNN "Voltage"
F 5 "X7R" H 3320 3125 40  0000 C CNN "Type"
F 6 "Ceramic capacitor" H 3250 3650 40  0001 L CNN "Description"
F 7 "10%" H 3650 3850 40  0001 C CNN "Tolerance"
F 8 "0805" H 3250 3350 60  0001 C CNN "Size"
	1    3250 3350
	1    0    0    -1  
$EndComp
$Comp
L C C701
U 1 1 57DA6CAA
P 2500 3850
F 0 "C701" H 2500 3950 40  0000 L CNN
F 1 "100p" H 2510 3765 40  0000 L CNN
F 2 "MyKiCadLibs-Footprints:SMD-0805" H 2538 3700 30  0001 C CNN
F 3 "" H 2500 3950 60  0000 C CNN
F 4 "50V" H 2565 3700 40  0000 C CNN "Voltage"
F 5 "C0G" H 2570 3625 40  0000 C CNN "Type"
F 6 "Ceramic capacitor" H 2500 4150 40  0001 L CNN "Description"
F 7 "5%" H 2900 4350 40  0001 C CNN "Tolerance"
F 8 "0805" H 2500 3850 60  0001 C CNN "Size"
	1    2500 3850
	-1   0    0    -1  
$EndComp
$Comp
L R R702
U 1 1 57DA6CB5
P 2500 3350
F 0 "R702" V 2420 3350 40  0000 C CNN
F 1 "47" V 2507 3351 40  0000 C CNN
F 2 "MyKiCadLibs-Footprints:SMD-0805" V 2430 3350 30  0001 C CNN
F 3 "" V 2420 3350 30  0000 C CNN
F 4 "100mW" V 2600 3350 40  0001 C CNN "Power"
F 5 "Thick or thin film resistor" V 2745 3350 40  0001 C CNN "Description"
F 6 "0805" V 2675 3350 40  0001 C CNN "Size"
F 7 "1%" V 2825 3350 40  0001 C CNN "Tolerance"
	1    2500 3350
	1    0    0    -1  
$EndComp
$Comp
L R R701
U 1 1 57DA6CC0
P 2150 3050
F 0 "R701" V 2070 3050 40  0000 C CNN
F 1 "1" V 2157 3051 40  0000 C CNN
F 2 "MyKiCadLibs-Footprints:SMD-0805" V 2080 3050 30  0001 C CNN
F 3 "" V 2070 3050 30  0000 C CNN
F 4 "100mW" V 2250 3050 40  0001 C CNN "Power"
F 5 "Thick or thin film resistor" V 2395 3050 40  0001 C CNN "Description"
F 6 "0805" V 2325 3050 40  0001 C CNN "Size"
F 7 "1%" V 2475 3050 40  0001 C CNN "Tolerance"
	1    2150 3050
	0    1    1    0   
$EndComp
$Comp
L R R703
U 1 1 57DA6CCB
P 4200 3150
F 0 "R703" V 4150 3450 40  0000 C CNN
F 1 "10k" V 4207 3151 40  0000 C CNN
F 2 "MyKiCadLibs-Footprints:SMD-0805" V 4130 3150 30  0001 C CNN
F 3 "" V 4120 3150 30  0000 C CNN
F 4 "100mW" V 4300 3150 40  0001 C CNN "Power"
F 5 "Thick or thin film resistor" V 4445 3150 40  0001 C CNN "Description"
F 6 "0805" V 4375 3150 40  0001 C CNN "Size"
F 7 "1%" V 4525 3150 40  0001 C CNN "Tolerance"
	1    4200 3150
	0    -1   1    0   
$EndComp
$Comp
L R R708
U 1 1 57DA6D02
P 4600 3650
F 0 "R708" V 4520 3650 40  0000 C CNN
F 1 "7k5" V 4607 3651 40  0000 C CNN
F 2 "MyKiCadLibs-Footprints:SMD-0805" V 4530 3650 30  0001 C CNN
F 3 "" V 4520 3650 30  0000 C CNN
F 4 "100mW" V 4700 3650 40  0001 C CNN "Power"
F 5 "Thick or thin film resistor" V 4845 3650 40  0001 C CNN "Description"
F 6 "0805" V 4775 3650 40  0001 C CNN "Size"
F 7 "1%" V 4925 3650 40  0001 C CNN "Tolerance"
	1    4600 3650
	1    0    0    1   
$EndComp
$Comp
L R R709
U 1 1 57DA6D0D
P 7050 3300
F 0 "R709" V 6950 3300 40  0000 C CNN
F 1 "100" V 7057 3301 40  0000 C CNN
F 2 "MyKiCadLibs-Footprints:SMD-0805" V 6980 3300 30  0001 C CNN
F 3 "" V 6970 3300 30  0000 C CNN
F 4 "100mW" V 7150 3300 40  0001 C CNN "Power"
F 5 "Thick or thin film resistor" V 7295 3300 40  0001 C CNN "Description"
F 6 "0805" V 7225 3300 40  0001 C CNN "Size"
F 7 "1%" V 7375 3300 40  0001 C CNN "Tolerance"
	1    7050 3300
	0    -1   1    0   
$EndComp
$Comp
L R R710
U 1 1 57DA6D18
P 7200 2250
F 0 "R710" V 7100 2250 40  0000 C CNN
F 1 "100" V 7207 2251 40  0000 C CNN
F 2 "MyKiCadLibs-Footprints:SMD-0805" V 7130 2250 30  0001 C CNN
F 3 "" V 7120 2250 30  0000 C CNN
F 4 "100mW" V 7300 2250 40  0001 C CNN "Power"
F 5 "Thick or thin film resistor" V 7445 2250 40  0001 C CNN "Description"
F 6 "0805" V 7375 2250 40  0001 C CNN "Size"
F 7 "1%" V 7525 2250 40  0001 C CNN "Tolerance"
	1    7200 2250
	0    1    1    0   
$EndComp
$Comp
L R R711
U 1 1 57DA6D23
P 7250 1600
F 0 "R711" V 7150 1600 40  0000 C CNN
F 1 "100" V 7257 1601 40  0000 C CNN
F 2 "MyKiCadLibs-Footprints:SMD-0805" V 7180 1600 30  0001 C CNN
F 3 "" V 7170 1600 30  0000 C CNN
F 4 "100mW" V 7350 1600 40  0001 C CNN "Power"
F 5 "Thick or thin film resistor" V 7495 1600 40  0001 C CNN "Description"
F 6 "0805" V 7425 1600 40  0001 C CNN "Size"
F 7 "1%" V 7575 1600 40  0001 C CNN "Tolerance"
	1    7250 1600
	0    1    1    0   
$EndComp
$Comp
L R R712
U 1 1 57DA6D2E
P 7250 1800
F 0 "R712" V 7350 1800 40  0000 C CNN
F 1 "100k" V 7257 1801 40  0000 C CNN
F 2 "MyKiCadLibs-Footprints:SMD-0805" V 7180 1800 30  0001 C CNN
F 3 "" V 7170 1800 30  0000 C CNN
F 4 "100mW" V 7350 1800 40  0001 C CNN "Power"
F 5 "Thick or thin film resistor" V 7495 1800 40  0001 C CNN "Description"
F 6 "0805" V 7425 1800 40  0001 C CNN "Size"
F 7 "1%" V 7575 1800 40  0001 C CNN "Tolerance"
	1    7250 1800
	0    1    1    0   
$EndComp
Wire Wire Line
	8250 3750 8300 3750
Wire Wire Line
	8250 3950 8250 3750
Connection ~ 8100 3300
Wire Wire Line
	7300 3300 8150 3300
Wire Wire Line
	8100 3300 8100 3650
Wire Wire Line
	8100 3650 8300 3650
Wire Wire Line
	6650 1600 7000 1600
Wire Wire Line
	6650 3050 6350 3050
Wire Wire Line
	7500 2900 7500 2800
Wire Wire Line
	6650 1600 6650 3050
Wire Wire Line
	6950 2250 6650 2250
Wire Wire Line
	7500 1600 8400 1600
Wire Wire Line
	8300 2800 8300 2750
Connection ~ 6750 3300
Wire Wire Line
	6750 3400 6750 3300
Wire Wire Line
	6650 3300 6800 3300
Wire Wire Line
	7600 1800 7600 1900
Wire Wire Line
	7500 1800 7600 1800
Wire Wire Line
	6650 1800 7000 1800
Wire Wire Line
	3950 3150 3800 3150
Wire Wire Line
	4600 3900 4600 4050
Wire Wire Line
	3800 3150 3800 2950
Wire Wire Line
	4600 3150 4600 3400
Wire Wire Line
	4450 3150 5350 3150
Wire Wire Line
	6400 3250 6350 3250
Wire Wire Line
	6400 3350 6400 3250
Connection ~ 3000 3050
Connection ~ 2750 3050
Wire Wire Line
	3000 3050 3000 3150
Connection ~ 2500 3050
Wire Wire Line
	2750 3050 2750 3150
Wire Wire Line
	2500 3650 2500 3600
Connection ~ 2750 3650
Wire Wire Line
	2750 3650 3250 3650
Wire Wire Line
	3000 3550 3000 3650
Wire Wire Line
	2750 3550 2750 3700
Wire Wire Line
	2400 3050 5350 3050
Wire Wire Line
	2500 3100 2500 3050
Wire Wire Line
	2500 4100 2500 4050
Wire Wire Line
	1800 3050 1900 3050
Wire Wire Line
	1800 2950 1800 3050
Connection ~ 7700 3300
Wire Wire Line
	6750 3850 6750 3800
Wire Wire Line
	7700 3850 7700 3800
Wire Wire Line
	7700 3400 7700 3300
Wire Wire Line
	3250 3050 3250 3150
Wire Wire Line
	3250 3650 3250 3550
Connection ~ 3250 3050
Connection ~ 3000 3650
Connection ~ 6650 2250
Connection ~ 6650 1800
Wire Wire Line
	7500 2400 7500 2250
Connection ~ 7500 2250
Text HLabel 7600 2250 2    60   Output ~ 0
XMOS_RST
Wire Wire Line
	7450 2250 7600 2250
$Comp
L R R713
U 1 1 57F2AA81
P 8400 3300
F 0 "R713" V 8300 3300 40  0000 C CNN
F 1 "0" V 8407 3301 40  0000 C CNN
F 2 "MyKiCadLibs-Footprints:SMD-0805" V 8330 3300 30  0001 C CNN
F 3 "" V 8320 3300 30  0000 C CNN
F 4 "100mW" V 8500 3300 40  0001 C CNN "Power"
F 5 "Thick or thin film resistor" V 8645 3300 40  0001 C CNN "Description"
F 6 "0805" V 8575 3300 40  0001 C CNN "Size"
F 7 "1%" V 8725 3300 40  0001 C CNN "Tolerance"
	1    8400 3300
	0    -1   1    0   
$EndComp
Wire Wire Line
	8750 3300 8650 3300
$Comp
L +3V3 #PWR701
U 1 1 57F2B715
P 1800 2950
F 0 "#PWR701" H 1800 2800 50  0001 C CNN
F 1 "+3V3" H 1800 3090 50  0000 C CNN
F 2 "" H 1800 2950 50  0000 C CNN
F 3 "" H 1800 2950 50  0000 C CNN
	1    1800 2950
	1    0    0    -1  
$EndComp
$Comp
L +1V0 #PWR704
U 1 1 57F2B7A1
P 3800 2950
F 0 "#PWR704" H 3800 2800 50  0001 C CNN
F 1 "+1V0" H 3800 3090 50  0000 C CNN
F 2 "" H 3800 2950 50  0000 C CNN
F 3 "" H 3800 2950 50  0000 C CNN
	1    3800 2950
	1    0    0    -1  
$EndComp
Wire Wire Line
	8300 2350 8300 1600
Connection ~ 8300 1600
$Comp
L IC-RST-TPS3808 U701
U 1 1 58642E7E
P 5350 3050
F 0 "U701" H 5850 3300 60  0000 C CNN
F 1 "TPS3808" H 5850 3200 60  0000 C CNN
F 2 "MyKiCadLibs-Footprints:IC-SOT23-6" H 5900 2650 60  0001 C CNN
F 3 "" H 5350 3050 60  0001 C CNN
F 4 "TI TPS3808 SOT-23 Reset Supervisor" H 5900 2550 60  0001 C CNN "Description"
	1    5350 3050
	1    0    0    -1  
$EndComp
Connection ~ 4600 3150
Wire Wire Line
	6650 3300 6650 3150
Wire Wire Line
	6650 3150 6350 3150
$Comp
L C C709
U 1 1 586435F7
P 5200 3750
F 0 "C709" H 5200 3850 40  0000 L CNN
F 1 "N/F" H 5210 3665 40  0000 L CNN
F 2 "MyKiCadLibs-Footprints:SMD-0805" H 5238 3600 30  0001 C CNN
F 3 "" H 5200 3850 60  0000 C CNN
F 4 "50V" H 5265 3600 40  0000 C CNN "Voltage"
F 5 "X7R" H 5270 3525 40  0000 C CNN "Type"
F 6 "Ceramic capacitor" H 5200 4050 40  0001 L CNN "Description"
F 7 "10%" H 5600 4250 40  0001 C CNN "Tolerance"
F 8 "0805" H 5200 3750 60  0001 C CNN "Size"
	1    5200 3750
	1    0    0    -1  
$EndComp
$Comp
L GNDD #PWR707
U 1 1 5864369D
P 5200 4050
F 0 "#PWR707" H 5200 3800 60  0001 C CNN
F 1 "GNDD" H 5200 3900 60  0000 C CNN
F 2 "" H 5200 4050 60  0000 C CNN
F 3 "" H 5200 4050 60  0000 C CNN
	1    5200 4050
	-1   0    0    -1  
$EndComp
Wire Wire Line
	5200 4050 5200 3950
Wire Wire Line
	5200 3550 5200 3250
Wire Wire Line
	4450 3250 5350 3250
$Comp
L R R704
U 1 1 5864380F
P 4200 3250
F 0 "R704" V 4150 3550 40  0000 C CNN
F 1 "100k" V 4207 3251 40  0000 C CNN
F 2 "MyKiCadLibs-Footprints:SMD-0805" V 4130 3250 30  0001 C CNN
F 3 "" V 4120 3250 30  0000 C CNN
F 4 "100mW" V 4300 3250 40  0001 C CNN "Power"
F 5 "Thick or thin film resistor" V 4445 3250 40  0001 C CNN "Description"
F 6 "0805" V 4375 3250 40  0001 C CNN "Size"
F 7 "1%" V 4525 3250 40  0001 C CNN "Tolerance"
	1    4200 3250
	0    -1   1    0   
$EndComp
Connection ~ 5200 3250
Wire Wire Line
	3950 3250 3450 3250
Wire Wire Line
	3450 3250 3450 3050
Connection ~ 3450 3050
$Comp
L C C708
U 1 1 5864398B
P 4900 3750
F 0 "C708" H 4900 3850 40  0000 L CNN
F 1 "10n" H 4910 3665 40  0000 L CNN
F 2 "MyKiCadLibs-Footprints:SMD-0805" H 4938 3600 30  0001 C CNN
F 3 "" H 4900 3850 60  0000 C CNN
F 4 "50V" H 4965 3600 40  0000 C CNN "Voltage"
F 5 "X7R" H 4970 3525 40  0000 C CNN "Type"
F 6 "Ceramic capacitor" H 4900 4050 40  0001 L CNN "Description"
F 7 "10%" H 5300 4250 40  0001 C CNN "Tolerance"
F 8 "0805" H 4900 3750 60  0001 C CNN "Size"
	1    4900 3750
	1    0    0    -1  
$EndComp
Wire Wire Line
	4900 3550 4900 3150
Connection ~ 4900 3150
$Comp
L GNDD #PWR706
U 1 1 58643B09
P 4900 4050
F 0 "#PWR706" H 4900 3800 60  0001 C CNN
F 1 "GNDD" H 4900 3900 60  0000 C CNN
F 2 "" H 4900 4050 60  0000 C CNN
F 3 "" H 4900 4050 60  0000 C CNN
	1    4900 4050
	-1   0    0    -1  
$EndComp
Wire Wire Line
	4900 4050 4900 3950
$EndSCHEMATC
