EESchema Schematic File Version 2
LIBS:power
LIBS:MyKiCadLibs-Lib
LIBS:DEV-CoreOne-cache
EELAYER 25 0
EELAYER END
$Descr A4 11693 8268
encoding utf-8
Sheet 7 8
Title "ADAU145x DSP - ADAU1452, ADAU1451, ADAU1450 supported"
Date "2016-05-25"
Rev "2.0"
Comp "Open Hardware DSP Platform - www.ohdsp.org"
Comment1 "MERCHANTABILITY, SATISFACTORY QUALITY AND FITNESS FOR A PARTICULAR PURPOSE."
Comment2 "is distributed WITHOUT ANY EXPRESS OR IMPLIED WARRANTY, INCLUDING OF"
Comment3 "Licensed under the TAPR Open Hardware License (www.tapr.org/OHL). This documentation"
Comment4 "Copyright Paul Janicki 2016"
$EndDescr
Text Notes 1000 1300 0    59   ~ 0
Generate a global reset based on voltage rails.\nUse ADM13307-5ARZ only! (Sense1=3v3, Sense2/3=Adj).\nSupports external reset signal.
Text Notes 1000 1000 0    118  ~ 0
Voltage Monitor Reset
$Comp
L SWITCH SW701
U 1 1 57DA6BD2
P 7700 3650
F 0 "SW701" H 7900 3780 70  0000 C CNN
F 1 "SWITCH" H 7900 3900 70  0000 C CNN
F 2 "MyKiCadLibs-Footprints:SW_TACT_SMD" H 7965 3650 60  0001 C CNN
F 3 "" H 7965 3650 60  0000 C CNN
F 4 "6mm x 6mm SMD tactile switch - e.g. TE FSM2JSMA" H 7700 3650 60  0001 C CNN "Description"
	1    7700 3650
	0    1    1    0   
$EndComp
$Comp
L GNDD #PWR711
U 1 1 57DA6BD9
P 7950 2050
F 0 "#PWR711" H 7950 1800 60  0001 C CNN
F 1 "GNDD" H 7950 1900 60  0000 C CNN
F 2 "" H 7950 2050 60  0000 C CNN
F 3 "" H 7950 2050 60  0000 C CNN
	1    7950 2050
	-1   0    0    -1  
$EndComp
Text Notes 9300 4000 0    59   ~ 0
External reset\ninput
$Comp
L IC-RST-ADM13307 U701
U 1 1 57DA6BE1
P 5350 3050
F 0 "U701" H 5650 3300 60  0000 C CNN
F 1 "ADM13307-5ARZ" H 6000 3200 60  0000 C CNN
F 2 "MyKiCadLibs-Footprints:IC_SOIC_8" H 5350 3050 60  0001 C CNN
F 3 "" H 5350 3050 60  0000 C CNN
F 4 "Triple Processor Supervisors - Use ADM13307-5ARZ only (Sense1 = 3v3, Sense2/3=Adj)" H 5350 3050 60  0001 C CNN "Description"
	1    5350 3050
	1    0    0    -1  
$EndComp
$Comp
L GNDD #PWR709
U 1 1 57DA6BE8
P 7700 4100
F 0 "#PWR709" H 7700 3850 60  0001 C CNN
F 1 "GNDD" H 7700 3950 60  0000 C CNN
F 2 "" H 7700 4100 60  0000 C CNN
F 3 "" H 7700 4100 60  0000 C CNN
	1    7700 4100
	-1   0    0    -1  
$EndComp
$Comp
L GNDD #PWR708
U 1 1 57DA6BEE
P 6750 4100
F 0 "#PWR708" H 6750 3850 60  0001 C CNN
F 1 "GNDD" H 6750 3950 60  0000 C CNN
F 2 "" H 6750 4100 60  0000 C CNN
F 3 "" H 6750 4100 60  0000 C CNN
	1    6750 4100
	-1   0    0    -1  
$EndComp
$Comp
L GNDD #PWR702
U 1 1 57DA6BF4
P 2500 4100
F 0 "#PWR702" H 2500 3850 60  0001 C CNN
F 1 "GNDD" H 2500 3950 60  0000 C CNN
F 2 "" H 2500 4100 60  0000 C CNN
F 3 "" H 2500 4100 60  0000 C CNN
	1    2500 4100
	-1   0    0    -1  
$EndComp
$Comp
L GNDD #PWR703
U 1 1 57DA6BFA
P 2750 3700
F 0 "#PWR703" H 2750 3450 60  0001 C CNN
F 1 "GNDD" H 2750 3550 60  0000 C CNN
F 2 "" H 2750 3700 60  0000 C CNN
F 3 "" H 2750 3700 60  0000 C CNN
	1    2750 3700
	-1   0    0    -1  
$EndComp
$Comp
L GNDD #PWR707
U 1 1 57DA6C00
P 5300 3650
F 0 "#PWR707" H 5300 3400 60  0001 C CNN
F 1 "GNDD" H 5300 3500 60  0000 C CNN
F 2 "" H 5300 3650 60  0000 C CNN
F 3 "" H 5300 3650 60  0000 C CNN
	1    5300 3650
	-1   0    0    -1  
$EndComp
$Comp
L GNDD #PWR706
U 1 1 57DA6C06
P 5100 4100
F 0 "#PWR706" H 5100 3850 60  0001 C CNN
F 1 "GNDD" H 5100 3950 60  0000 C CNN
F 2 "" H 5100 4100 60  0000 C CNN
F 3 "" H 5100 4100 60  0000 C CNN
	1    5100 4100
	-1   0    0    -1  
$EndComp
Text HLabel 8750 1750 2    60   Output ~ 0
GLB_RESET
$Comp
L VPP #PWR701
U 1 1 57DA6C19
P 1800 2950
F 0 "#PWR701" H 1800 2800 60  0001 C CNN
F 1 "VPP" H 1800 3100 60  0000 C CNN
F 2 "" H 1800 2950 60  0000 C CNN
F 3 "" H 1800 2950 60  0000 C CNN
	1    1800 2950
	1    0    0    -1  
$EndComp
Text Notes 3600 3900 0    59   ~ 0
USE 0.1% RESISTORS\n\nSENSE2 Vmin=2.973\nSENSE3 Vmin=1.1396
Text HLabel 8750 3550 2    60   Input ~ 0
RST_IN
$Comp
L GNDD #PWR713
U 1 1 57DA6C27
P 8650 2950
F 0 "#PWR713" H 8650 2700 60  0001 C CNN
F 1 "GNDD" H 8650 2800 60  0000 C CNN
F 2 "" H 8650 2950 60  0000 C CNN
F 3 "" H 8650 2950 60  0000 C CNN
	1    8650 2950
	-1   0    0    -1  
$EndComp
$Comp
L GNDD #PWR710
U 1 1 57DA6C2E
P 7850 3050
F 0 "#PWR710" H 7850 2800 60  0001 C CNN
F 1 "GNDD" H 7850 2900 60  0000 C CNN
F 2 "" H 7850 3050 60  0000 C CNN
F 3 "" H 7850 3050 60  0000 C CNN
	1    7850 3050
	-1   0    0    -1  
$EndComp
$Comp
L GNDD #PWR712
U 1 1 57DA6C34
P 8250 4200
F 0 "#PWR712" H 8250 3950 60  0001 C CNN
F 1 "GNDD" H 8250 4050 60  0000 C CNN
F 2 "" H 8250 4200 60  0000 C CNN
F 3 "" H 8250 4200 60  0000 C CNN
	1    8250 4200
	-1   0    0    -1  
$EndComp
$Comp
L PIN TP701
U 1 1 57DA6C3A
P 6800 2900
F 0 "TP701" V 7100 2900 40  0000 C CNN
F 1 "PIN" V 7140 2910 40  0001 C CNN
F 2 "MyKiCadLibs-Footprints:TP-TH-1mm" H 7140 2790 60  0001 C CNN
F 3 "" H 7140 2790 60  0000 C CNN
	1    6800 2900
	0    -1   -1   0   
$EndComp
$Comp
L PIN TP702
U 1 1 57DA6C41
P 7950 1600
F 0 "TP702" H 8325 1600 40  0000 C CNN
F 1 "PIN" H 8450 1600 40  0001 C CNN
F 2 "MyKiCadLibs-Footprints:TP-2mm" H 8290 1490 60  0001 C CNN
F 3 "" H 8290 1490 60  0000 C CNN
	1    7950 1600
	1    0    0    -1  
$EndComp
Text Notes 1650 3250 0    60   ~ 0
Replaced L202
$Comp
L CONN_2x1 P701
U 1 1 57DA6C4A
P 8300 3900
F 0 "P701" V 8795 3745 40  0000 C CNN
F 1 "CONN_2x1" V 8740 3860 40  0000 C CNN
F 2 "MyKiCadLibs-Footprints:CONN_SIL_2_1MM" H 8640 3790 60  0001 C CNN
F 3 "" H 8640 3790 60  0000 C CNN
F 4 "1x2 2.54mm pitch pin header" H 8550 3650 40  0001 C CNN "Description"
	1    8300 3900
	1    0    0    -1  
$EndComp
$Comp
L C C707
U 1 1 57DA6C56
P 7850 2750
F 0 "C707" H 7850 2850 40  0000 L CNN
F 1 "100n" H 7860 2665 40  0000 L CNN
F 2 "MyKiCadLibs-Footprints:SMD-0805" H 7888 2600 30  0001 C CNN
F 3 "" H 7850 2850 60  0000 C CNN
F 4 "50V" H 7915 2600 40  0000 C CNN "Voltage"
F 5 "X7R" H 7920 2525 40  0000 C CNN "Type"
F 6 "Ceramic capacitor" H 7850 3050 40  0001 L CNN "Description"
F 7 "10%" H 8250 3250 40  0001 C CNN "Tolerance"
F 8 "0805" H 7850 2750 60  0001 C CNN "Size"
	1    7850 2750
	1    0    0    -1  
$EndComp
$Comp
L C C706
U 1 1 57DA6C62
P 8650 2700
F 0 "C706" H 8650 2800 40  0000 L CNN
F 1 "100n" H 8660 2615 40  0000 L CNN
F 2 "MyKiCadLibs-Footprints:SMD-0805" H 8688 2550 30  0001 C CNN
F 3 "" H 8650 2800 60  0000 C CNN
F 4 "50V" H 8715 2550 40  0000 C CNN "Voltage"
F 5 "X7R" H 8720 2475 40  0000 C CNN "Type"
F 6 "Ceramic capacitor" H 8650 3000 40  0001 L CNN "Description"
F 7 "10%" H 9050 3200 40  0001 C CNN "Tolerance"
F 8 "0805" H 8650 2700 60  0001 C CNN "Size"
	1    8650 2700
	1    0    0    -1  
$EndComp
$Comp
L C C705
U 1 1 57DA6C6E
P 6750 3850
F 0 "C705" H 6750 3950 40  0000 L CNN
F 1 "10n" H 6760 3765 40  0000 L CNN
F 2 "MyKiCadLibs-Footprints:SMD-0805" H 6788 3700 30  0001 C CNN
F 3 "" H 6750 3950 60  0000 C CNN
F 4 "50V" H 6815 3700 40  0000 C CNN "Voltage"
F 5 "X7R" H 6820 3625 40  0000 C CNN "Type"
F 6 "Ceramic capacitor" H 6750 4150 40  0001 L CNN "Description"
F 7 "10%" H 7150 4350 40  0001 C CNN "Tolerance"
F 8 "0805" H 6750 3850 60  0001 C CNN "Size"
	1    6750 3850
	1    0    0    -1  
$EndComp
$Comp
L C C702
U 1 1 57DA6C86
P 2750 3350
F 0 "C702" H 2750 3450 40  0000 L CNN
F 1 "10u" H 2760 3265 40  0000 L CNN
F 2 "MyKiCadLibs-Footprints:SMD-0805" H 2788 3200 30  0001 C CNN
F 3 "" H 2750 3450 60  0000 C CNN
F 4 "10V" H 2815 3200 40  0000 C CNN "Voltage"
F 5 "X5R" H 2820 3125 40  0000 C CNN "Type"
F 6 "Ceramic capacitor" H 2750 3650 40  0001 L CNN "Description"
F 7 "20%" H 3150 3850 40  0001 C CNN "Tolerance"
F 8 "0805" H 2750 3350 60  0001 C CNN "Size"
	1    2750 3350
	1    0    0    -1  
$EndComp
$Comp
L C C703
U 1 1 57DA6C92
P 3000 3350
F 0 "C703" H 3000 3450 40  0000 L CNN
F 1 "100n" H 3010 3265 40  0000 L CNN
F 2 "MyKiCadLibs-Footprints:SMD-0805" H 3038 3200 30  0001 C CNN
F 3 "" H 3000 3450 60  0000 C CNN
F 4 "50V" H 3065 3200 40  0000 C CNN "Voltage"
F 5 "X7R" H 3070 3125 40  0000 C CNN "Type"
F 6 "Ceramic capacitor" H 3000 3650 40  0001 L CNN "Description"
F 7 "10%" H 3400 3850 40  0001 C CNN "Tolerance"
F 8 "0805" H 3000 3350 60  0001 C CNN "Size"
	1    3000 3350
	1    0    0    -1  
$EndComp
$Comp
L C C704
U 1 1 57DA6C9E
P 3250 3350
F 0 "C704" H 3250 3450 40  0000 L CNN
F 1 "10n" H 3260 3265 40  0000 L CNN
F 2 "MyKiCadLibs-Footprints:SMD-0805" H 3288 3200 30  0001 C CNN
F 3 "" H 3250 3450 60  0000 C CNN
F 4 "50V" H 3315 3200 40  0000 C CNN "Voltage"
F 5 "X7R" H 3320 3125 40  0000 C CNN "Type"
F 6 "Ceramic capacitor" H 3250 3650 40  0001 L CNN "Description"
F 7 "10%" H 3650 3850 40  0001 C CNN "Tolerance"
F 8 "0805" H 3250 3350 60  0001 C CNN "Size"
	1    3250 3350
	1    0    0    -1  
$EndComp
$Comp
L C C701
U 1 1 57DA6CAA
P 2500 3850
F 0 "C701" H 2500 3950 40  0000 L CNN
F 1 "100p" H 2510 3765 40  0000 L CNN
F 2 "MyKiCadLibs-Footprints:SMD-0805" H 2538 3700 30  0001 C CNN
F 3 "" H 2500 3950 60  0000 C CNN
F 4 "50V" H 2565 3700 40  0000 C CNN "Voltage"
F 5 "C0G" H 2570 3625 40  0000 C CNN "Type"
F 6 "Ceramic capacitor" H 2500 4150 40  0001 L CNN "Description"
F 7 "5%" H 2900 4350 40  0001 C CNN "Tolerance"
F 8 "0805" H 2500 3850 60  0001 C CNN "Size"
	1    2500 3850
	-1   0    0    -1  
$EndComp
$Comp
L R R702
U 1 1 57DA6CB5
P 2500 3350
F 0 "R702" V 2420 3350 40  0000 C CNN
F 1 "47" V 2507 3351 40  0000 C CNN
F 2 "MyKiCadLibs-Footprints:SMD-0805" V 2430 3350 30  0001 C CNN
F 3 "" V 2420 3350 30  0000 C CNN
F 4 "100mW" V 2600 3350 40  0001 C CNN "Power"
F 5 "Thick or thin film resistor" V 2745 3350 40  0001 C CNN "Description"
F 6 "0805" V 2675 3350 40  0001 C CNN "Size"
F 7 "1%" V 2825 3350 40  0001 C CNN "Tolerance"
	1    2500 3350
	1    0    0    -1  
$EndComp
$Comp
L R R701
U 1 1 57DA6CC0
P 2150 3050
F 0 "R701" V 2070 3050 40  0000 C CNN
F 1 "1" V 2157 3051 40  0000 C CNN
F 2 "MyKiCadLibs-Footprints:SMD-0805" V 2080 3050 30  0001 C CNN
F 3 "" V 2070 3050 30  0000 C CNN
F 4 "100mW" V 2250 3050 40  0001 C CNN "Power"
F 5 "Thick or thin film resistor" V 2395 3050 40  0001 C CNN "Description"
F 6 "0805" V 2325 3050 40  0001 C CNN "Size"
F 7 "1%" V 2475 3050 40  0001 C CNN "Tolerance"
	1    2150 3050
	0    1    1    0   
$EndComp
$Comp
L R R703
U 1 1 57DA6CCB
P 4350 3200
F 0 "R703" V 4300 3500 40  0000 C CNN
F 1 "0" V 4357 3201 40  0000 C CNN
F 2 "MyKiCadLibs-Footprints:SMD-0805" V 4280 3200 30  0001 C CNN
F 3 "" V 4270 3200 30  0000 C CNN
F 4 "100mW" V 4450 3200 40  0001 C CNN "Power"
F 5 "Thick or thin film resistor" V 4595 3200 40  0001 C CNN "Description"
F 6 "0805" V 4525 3200 40  0001 C CNN "Size"
F 7 "1%" V 4675 3200 40  0001 C CNN "Tolerance"
	1    4350 3200
	0    -1   1    0   
$EndComp
$Comp
L R R704
U 1 1 57DA6CD6
P 4350 3300
F 0 "R704" V 4300 3600 40  0000 C CNN
F 1 "2k7" V 4357 3301 40  0000 C CNN
F 2 "MyKiCadLibs-Footprints:SMD-0805" V 4280 3300 30  0001 C CNN
F 3 "" V 4270 3300 30  0000 C CNN
F 4 "100mW" V 4450 3300 40  0001 C CNN "Power"
F 5 "Thick or thin film resistor" V 4595 3300 40  0001 C CNN "Description"
F 6 "0805" V 4525 3300 40  0001 C CNN "Size"
F 7 "1%" V 4675 3300 40  0001 C CNN "Tolerance"
	1    4350 3300
	0    -1   1    0   
$EndComp
$Comp
L R R706
U 1 1 57DA6CEC
P 4700 3700
F 0 "R706" V 4620 3700 40  0000 C CNN
F 1 "N/F" V 4707 3701 40  0000 C CNN
F 2 "MyKiCadLibs-Footprints:SMD-0805" V 4630 3700 30  0001 C CNN
F 3 "" V 4620 3700 30  0000 C CNN
F 4 "100mW" V 4800 3700 40  0001 C CNN "Power"
F 5 "Thick or thin film resistor" V 4945 3700 40  0001 C CNN "Description"
F 6 "0805" V 4875 3700 40  0001 C CNN "Size"
F 7 "1%" V 5025 3700 40  0001 C CNN "Tolerance"
	1    4700 3700
	1    0    0    1   
$EndComp
$Comp
L R R707
U 1 1 57DA6CF7
P 4900 3700
F 0 "R707" V 4820 3700 40  0000 C CNN
F 1 "4k7" V 4907 3701 40  0000 C CNN
F 2 "MyKiCadLibs-Footprints:SMD-0805" V 4830 3700 30  0001 C CNN
F 3 "" V 4820 3700 30  0000 C CNN
F 4 "100mW" V 5000 3700 40  0001 C CNN "Power"
F 5 "Thick or thin film resistor" V 5145 3700 40  0001 C CNN "Description"
F 6 "0805" V 5075 3700 40  0001 C CNN "Size"
F 7 "1%" V 5225 3700 40  0001 C CNN "Tolerance"
	1    4900 3700
	1    0    0    1   
$EndComp
$Comp
L R R708
U 1 1 57DA6D02
P 5100 3700
F 0 "R708" V 5020 3700 40  0000 C CNN
F 1 "4k7" V 5107 3701 40  0000 C CNN
F 2 "MyKiCadLibs-Footprints:SMD-0805" V 5030 3700 30  0001 C CNN
F 3 "" V 5020 3700 30  0000 C CNN
F 4 "100mW" V 5200 3700 40  0001 C CNN "Power"
F 5 "Thick or thin film resistor" V 5345 3700 40  0001 C CNN "Description"
F 6 "0805" V 5275 3700 40  0001 C CNN "Size"
F 7 "1%" V 5425 3700 40  0001 C CNN "Tolerance"
	1    5100 3700
	1    0    0    1   
$EndComp
$Comp
L R R709
U 1 1 57DA6D0D
P 7050 3550
F 0 "R709" V 6950 3550 40  0000 C CNN
F 1 "100" V 7057 3551 40  0000 C CNN
F 2 "MyKiCadLibs-Footprints:SMD-0805" V 6980 3550 30  0001 C CNN
F 3 "" V 6970 3550 30  0000 C CNN
F 4 "100mW" V 7150 3550 40  0001 C CNN "Power"
F 5 "Thick or thin film resistor" V 7295 3550 40  0001 C CNN "Description"
F 6 "0805" V 7225 3550 40  0001 C CNN "Size"
F 7 "1%" V 7375 3550 40  0001 C CNN "Tolerance"
	1    7050 3550
	0    -1   1    0   
$EndComp
$Comp
L R R710
U 1 1 57DA6D18
P 7550 2400
F 0 "R710" V 7450 2400 40  0000 C CNN
F 1 "100" V 7557 2401 40  0000 C CNN
F 2 "MyKiCadLibs-Footprints:SMD-0805" V 7480 2400 30  0001 C CNN
F 3 "" V 7470 2400 30  0000 C CNN
F 4 "100mW" V 7650 2400 40  0001 C CNN "Power"
F 5 "Thick or thin film resistor" V 7795 2400 40  0001 C CNN "Description"
F 6 "0805" V 7725 2400 40  0001 C CNN "Size"
F 7 "1%" V 7875 2400 40  0001 C CNN "Tolerance"
	1    7550 2400
	0    1    1    0   
$EndComp
$Comp
L R R711
U 1 1 57DA6D23
P 7600 1750
F 0 "R711" V 7500 1750 40  0000 C CNN
F 1 "100" V 7607 1751 40  0000 C CNN
F 2 "MyKiCadLibs-Footprints:SMD-0805" V 7530 1750 30  0001 C CNN
F 3 "" V 7520 1750 30  0000 C CNN
F 4 "100mW" V 7700 1750 40  0001 C CNN "Power"
F 5 "Thick or thin film resistor" V 7845 1750 40  0001 C CNN "Description"
F 6 "0805" V 7775 1750 40  0001 C CNN "Size"
F 7 "1%" V 7925 1750 40  0001 C CNN "Tolerance"
	1    7600 1750
	0    1    1    0   
$EndComp
$Comp
L R R712
U 1 1 57DA6D2E
P 7600 1950
F 0 "R712" V 7700 1950 40  0000 C CNN
F 1 "100k" V 7607 1951 40  0000 C CNN
F 2 "MyKiCadLibs-Footprints:SMD-0805" V 7530 1950 30  0001 C CNN
F 3 "" V 7520 1950 30  0000 C CNN
F 4 "100mW" V 7700 1950 40  0001 C CNN "Power"
F 5 "Thick or thin film resistor" V 7845 1950 40  0001 C CNN "Description"
F 6 "0805" V 7775 1950 40  0001 C CNN "Size"
F 7 "1%" V 7925 1950 40  0001 C CNN "Tolerance"
	1    7600 1950
	0    1    1    0   
$EndComp
Wire Wire Line
	8250 4000 8300 4000
Wire Wire Line
	8250 4200 8250 4000
Connection ~ 8100 3550
Wire Wire Line
	7300 3550 8150 3550
Wire Wire Line
	8100 3550 8100 3900
Wire Wire Line
	8100 3900 8300 3900
Wire Wire Line
	7000 1750 7350 1750
Wire Wire Line
	7000 3200 6700 3200
Wire Wire Line
	7850 3050 7850 2950
Wire Wire Line
	7000 1750 7000 3200
Wire Wire Line
	7300 2400 7000 2400
Wire Wire Line
	7850 1750 8750 1750
Wire Wire Line
	8650 2950 8650 2900
Connection ~ 6750 3550
Wire Wire Line
	6750 3650 6750 3550
Wire Wire Line
	6700 3550 6800 3550
Wire Wire Line
	7950 1950 7950 2050
Wire Wire Line
	7850 1950 7950 1950
Wire Wire Line
	7000 1950 7350 1950
Wire Wire Line
	4100 3200 3950 3200
Wire Wire Line
	3700 3300 4100 3300
Connection ~ 4900 4050
Wire Wire Line
	4700 3950 4700 4050
Connection ~ 5100 4050
Wire Wire Line
	4700 4050 5100 4050
Wire Wire Line
	4900 3950 4900 4050
Wire Wire Line
	5100 3950 5100 4100
Connection ~ 4900 3300
Wire Wire Line
	4900 3450 4900 3300
Wire Wire Line
	3950 3200 3950 2950
Wire Wire Line
	3700 2950 3700 3400
Connection ~ 5100 3400
Wire Wire Line
	5100 3450 5100 3400
Connection ~ 4700 3200
Wire Wire Line
	4700 3450 4700 3200
Wire Wire Line
	4600 3200 5350 3200
Wire Wire Line
	4600 3300 5350 3300
Wire Wire Line
	4600 3400 5350 3400
Wire Wire Line
	5300 3550 5350 3550
Wire Wire Line
	5300 3650 5300 3550
Connection ~ 3000 3050
Connection ~ 2750 3050
Wire Wire Line
	3000 3050 3000 3150
Connection ~ 2500 3050
Wire Wire Line
	2750 3050 2750 3150
Wire Wire Line
	2500 3650 2500 3600
Connection ~ 2750 3650
Wire Wire Line
	2750 3650 3250 3650
Wire Wire Line
	3000 3550 3000 3650
Wire Wire Line
	2750 3550 2750 3700
Wire Wire Line
	2400 3050 5350 3050
Wire Wire Line
	2500 3100 2500 3050
Wire Wire Line
	2500 4100 2500 4050
Wire Wire Line
	1800 3050 1900 3050
Wire Wire Line
	1800 2950 1800 3050
Connection ~ 7700 3550
Wire Wire Line
	6750 4100 6750 4050
Wire Wire Line
	7700 4100 7700 4050
Wire Wire Line
	7700 3650 7700 3550
Wire Wire Line
	6800 2900 6800 3050
Wire Wire Line
	6800 3050 6700 3050
Wire Wire Line
	7900 1600 7950 1600
Wire Wire Line
	7900 1600 7900 1750
Connection ~ 7900 1750
Wire Wire Line
	3250 3050 3250 3150
Wire Wire Line
	3250 3650 3250 3550
Connection ~ 3250 3050
Connection ~ 3000 3650
Connection ~ 7000 2400
Connection ~ 7000 1950
Wire Wire Line
	7850 2550 7850 2400
Connection ~ 7850 2400
Text HLabel 7950 2400 2    60   Output ~ 0
XMOS_RST
Wire Wire Line
	7800 2400 7950 2400
$Comp
L R R713
U 1 1 57F2AA81
P 8400 3550
F 0 "R713" V 8300 3550 40  0000 C CNN
F 1 "0" V 8407 3551 40  0000 C CNN
F 2 "MyKiCadLibs-Footprints:SMD-0805" V 8330 3550 30  0001 C CNN
F 3 "" V 8320 3550 30  0000 C CNN
F 4 "100mW" V 8500 3550 40  0001 C CNN "Power"
F 5 "Thick or thin film resistor" V 8645 3550 40  0001 C CNN "Description"
F 6 "0805" V 8575 3550 40  0001 C CNN "Size"
F 7 "1%" V 8725 3550 40  0001 C CNN "Tolerance"
	1    8400 3550
	0    -1   1    0   
$EndComp
Wire Wire Line
	8750 3550 8650 3550
$Comp
L +3V3 #PWR705
U 1 1 57F2B715
P 3950 2950
F 0 "#PWR705" H 3950 2800 50  0001 C CNN
F 1 "+3V3" H 3950 3090 50  0000 C CNN
F 2 "" H 3950 2950 50  0000 C CNN
F 3 "" H 3950 2950 50  0000 C CNN
	1    3950 2950
	1    0    0    -1  
$EndComp
$Comp
L +1V0 #PWR704
U 1 1 57F2B7A1
P 3700 2950
F 0 "#PWR704" H 3700 2800 50  0001 C CNN
F 1 "+1V0" H 3700 3090 50  0000 C CNN
F 2 "" H 3700 2950 50  0000 C CNN
F 3 "" H 3700 2950 50  0000 C CNN
	1    3700 2950
	1    0    0    -1  
$EndComp
Wire Wire Line
	8650 2500 8650 1750
Connection ~ 8650 1750
Wire Wire Line
	3700 3400 4100 3400
Connection ~ 3700 3300
$Comp
L R R705
U 1 1 57DA6CE1
P 4350 3400
F 0 "R705" V 4300 3700 40  0000 C CNN
F 1 "2k7" V 4357 3401 40  0000 C CNN
F 2 "MyKiCadLibs-Footprints:SMD-0805" V 4280 3400 30  0001 C CNN
F 3 "" V 4270 3400 30  0000 C CNN
F 4 "100mW" V 4450 3400 40  0001 C CNN "Power"
F 5 "Thick or thin film resistor" V 4595 3400 40  0001 C CNN "Description"
F 6 "0805" V 4525 3400 40  0001 C CNN "Size"
F 7 "1%" V 4675 3400 40  0001 C CNN "Tolerance"
	1    4350 3400
	0    -1   1    0   
$EndComp
$EndSCHEMATC
