EESchema Schematic File Version 2
LIBS:power
LIBS:MyKiCadLibs-Lib
LIBS:DEV-CoreTwo-cache
EELAYER 25 0
EELAYER END
$Descr A3 16535 11693
encoding utf-8
Sheet 8 8
Title "CoreOne - XMOS 200 Platform"
Date "2017-02-08"
Rev "1.0"
Comp "Open Hardware DSP Platform - www.ohdsp.org"
Comment1 "MERCHANTABILITY, SATISFACTORY QUALITY AND FITNESS FOR A PARTICULAR PURPOSE."
Comment2 "is distributed WITHOUT ANY EXPRESS OR IMPLIED WARRANTY, INCLUDING OF"
Comment3 "Licensed under the TAPR Open Hardware License (www.tapr.org/OHL). This documentation"
Comment4 "Copyright Paul Janicki 2017"
$EndDescr
Text HLabel 5150 5600 0    60   BiDi ~ 0
I2S_BCLK0
$Comp
L GNDD #PWR804
U 1 1 54DACD02
P 1550 2500
F 0 "#PWR804" H 1550 2250 60  0001 C CNN
F 1 "GNDD" H 1550 2350 60  0000 C CNN
F 2 "" H 1550 2500 60  0000 C CNN
F 3 "" H 1550 2500 60  0000 C CNN
	1    1550 2500
	1    0    0    -1  
$EndComp
Text Label 6050 3200 2    60   ~ 0
DVDD
$Comp
L GNDD #PWR815
U 1 1 54DB1F60
P 9400 2350
F 0 "#PWR815" H 9400 2100 60  0001 C CNN
F 1 "GNDD" H 9400 2200 60  0000 C CNN
F 2 "" H 9400 2350 60  0000 C CNN
F 3 "" H 9400 2350 60  0000 C CNN
	1    9400 2350
	1    0    0    -1  
$EndComp
Text Label 12350 1200 2    60   ~ 0
IOVDD
$Comp
L GNDD #PWR819
U 1 1 54DB858F
P 12650 7150
F 0 "#PWR819" H 12650 6900 60  0001 C CNN
F 1 "GNDD" H 12650 7000 60  0000 C CNN
F 2 "" H 12650 7150 60  0000 C CNN
F 3 "" H 12650 7150 60  0000 C CNN
	1    12650 7150
	1    0    0    -1  
$EndComp
Text Label 9550 4900 2    60   ~ 0
MODE1
Text Notes 12100 5150 0    118  ~ 0
Mode Select Jumpers
Text Notes 12100 5300 0    59   ~ 0
To allow configuration options to be hardware selected
$Comp
L GNDD #PWR829
U 1 1 54DFF973
P 14500 4400
F 0 "#PWR829" H 14500 4150 60  0001 C CNN
F 1 "GNDD" H 14500 4250 60  0000 C CNN
F 2 "" H 14500 4400 60  0000 C CNN
F 3 "" H 14500 4400 60  0000 C CNN
	1    14500 4400
	1    0    0    -1  
$EndComp
Text Notes 1300 8500 0    118  ~ 0
I2C Pull-ups
Text Notes 1300 7050 0    118  ~ 0
I2C
Text Notes 1250 6825 0    118  ~ 0
Control ports
$Comp
L GNDD #PWR816
U 1 1 54E400D8
P 12100 4300
F 0 "#PWR816" H 12100 4050 60  0001 C CNN
F 1 "GNDD" H 12100 4150 60  0000 C CNN
F 2 "" H 12100 4300 60  0000 C CNN
F 3 "" H 12100 4300 60  0000 C CNN
	1    12100 4300
	1    0    0    -1  
$EndComp
$Comp
L GNDD #PWR831
U 1 1 54E66110
P 14800 4400
F 0 "#PWR831" H 14800 4150 60  0001 C CNN
F 1 "GNDD" H 14800 4250 60  0000 C CNN
F 2 "" H 14800 4400 60  0000 C CNN
F 3 "" H 14800 4400 60  0000 C CNN
	1    14800 4400
	1    0    0    -1  
$EndComp
Text HLabel 1800 7800 0    60   Input ~ 0
SPI_MISO
Text HLabel 1800 7900 0    60   Output ~ 0
SPI_SCLK
Text HLabel 1800 8000 0    60   Output ~ 0
SPI_MOSI
Text HLabel 1800 8100 0    60   Output ~ 0
SPI_CS
Text Notes 1300 7700 0    118  ~ 0
SPI
$Comp
L GNDD #PWR828
U 1 1 564DE494
P 14200 4400
F 0 "#PWR828" H 14200 4150 60  0001 C CNN
F 1 "GNDD" H 14200 4250 60  0000 C CNN
F 2 "" H 14200 4400 60  0000 C CNN
F 3 "" H 14200 4400 60  0000 C CNN
	1    14200 4400
	1    0    0    -1  
$EndComp
$Comp
L C C806
U 1 1 570D735C
P 2250 1950
F 0 "C806" H 2250 2050 40  0000 L CNN
F 1 "22u" H 2260 1865 40  0000 L CNN
F 2 "MyKiCadLibs-Footprints:SMD-0805" H 2288 1800 30  0001 C CNN
F 3 "" H 2250 2050 60  0000 C CNN
F 4 "10V" H 2315 1800 40  0000 C CNN "Voltage"
F 5 "X5R" H 2320 1725 40  0000 C CNN "Type"
F 6 "Ceramic capacitor" H 2250 2250 40  0001 L CNN "Description"
F 7 "20%" H 2650 2450 40  0001 C CNN "Tolerance"
F 8 "0805" H 2250 1950 60  0001 C CNN "Size"
	1    2250 1950
	1    0    0    -1  
$EndComp
$Comp
L C C808
U 1 1 570DA942
P 2550 1950
F 0 "C808" H 2550 2050 40  0000 L CNN
F 1 "100n" H 2560 1865 40  0000 L CNN
F 2 "MyKiCadLibs-Footprints:SMD-0805" H 2588 1800 30  0001 C CNN
F 3 "" H 2550 2050 60  0000 C CNN
F 4 "50V" H 2615 1800 40  0000 C CNN "Voltage"
F 5 "X7R" H 2620 1725 40  0000 C CNN "Type"
F 6 "Ceramic capacitor" H 2550 2250 40  0001 L CNN "Description"
F 7 "10%" H 2950 2450 40  0001 C CNN "Tolerance"
F 8 "0805" H 2550 1950 60  0001 C CNN "Size"
	1    2550 1950
	1    0    0    -1  
$EndComp
$Comp
L C C802
U 1 1 57109530
P 1550 2150
F 0 "C802" H 1550 2250 40  0000 L CNN
F 1 "100p" H 1560 2065 40  0000 L CNN
F 2 "MyKiCadLibs-Footprints:SMD-0805" H 1588 2000 30  0001 C CNN
F 3 "" H 1550 2250 60  0000 C CNN
F 4 "50V" H 1615 2000 40  0000 C CNN "Voltage"
F 5 "C0G" H 1620 1925 40  0000 C CNN "Type"
F 6 "Ceramic capacitor" H 1550 2450 40  0001 L CNN "Description"
F 7 "5%" H 1950 2650 40  0001 C CNN "Tolerance"
F 8 "0805" H 1550 2150 60  0001 C CNN "Size"
	1    1550 2150
	1    0    0    -1  
$EndComp
$Comp
L CP1 C804
U 1 1 57114F85
P 1900 1950
F 0 "C804" H 1950 2050 50  0000 L CNN
F 1 "220u" H 1950 1850 50  0000 L CNN
F 2 "MyKiCadLibs-Footprints:CAP-TH-D6.3mmP2.5mm" H 1900 1950 60  0001 C CNN
F 3 "" H 1900 1950 60  0000 C CNN
F 4 "10V" H 1955 1765 50  0000 L CNN "Voltage"
F 5 "2.5mm pitch, 6.3mm diameter" H 1900 2250 40  0001 L CNN "Type"
F 6 "Low impedance aluminium electrolytic capacitor - Panasonic FC, FR or similar" H 1900 2350 40  0001 L CNN "Description"
	1    1900 1950
	1    0    0    -1  
$EndComp
$Comp
L CP1 C856
U 1 1 5711D623
P 9700 1800
F 0 "C856" H 9750 1900 50  0000 L CNN
F 1 "220u" H 9750 1700 50  0000 L CNN
F 2 "MyKiCadLibs-Footprints:CAP-TH-D6.3mmP2.5mm" H 9700 1800 60  0001 C CNN
F 3 "" H 9700 1800 60  0000 C CNN
F 4 "10V" H 9755 1615 50  0000 L CNN "Voltage"
F 5 "2.5mm pitch, 6.3mm diameter" H 9700 2100 40  0001 L CNN "Type"
F 6 "Low impedance aluminium electrolytic capacitor - Panasonic FC, FR or similar" H 9700 2200 40  0001 L CNN "Description"
	1    9700 1800
	1    0    0    -1  
$EndComp
$Comp
L INDUCTOR L801
U 1 1 57167F59
P 1200 1350
F 0 "L801" V 1150 1350 40  0000 C CNN
F 1 "600R@100MHz" V 1300 1350 40  0000 C CNN
F 2 "MyKiCadLibs-Footprints:SMD-0805" H 1200 1350 60  0001 C CNN
F 3 "" H 1200 1350 60  0000 C CNN
F 4 "=>1A" V 1350 1350 40  0000 C CNN "Current"
F 5 "Ferrite bead, current rating 1A or higher, 600R@100MHz" V 1400 1400 40  0001 C CNN "Description"
F 6 "0805" V 1200 1350 60  0001 C CNN "Size"
	1    1200 1350
	0    -1   -1   0   
$EndComp
$Comp
L INDUCTOR L804
U 1 1 5716B38F
P 9000 1200
F 0 "L804" V 8950 1200 40  0000 C CNN
F 1 "600R@100MHz" V 9100 1200 40  0000 C CNN
F 2 "MyKiCadLibs-Footprints:SMD-0805" H 9000 1200 60  0001 C CNN
F 3 "" H 9000 1200 60  0000 C CNN
F 4 "=>1A" V 9150 1200 40  0000 C CNN "Current"
F 5 "Ferrite bead, current rating 1A or higher, 600R@100MHz" V 9200 1250 40  0001 C CNN "Description"
F 6 "0805" V 9000 1200 60  0001 C CNN "Size"
	1    9000 1200
	0    -1   -1   0   
$EndComp
$Comp
L CONN_2x1 JP801
U 1 1 5718B00F
P 12600 6550
F 0 "JP801" V 13095 6395 40  0000 C CNN
F 1 "CONN_2x1" V 13040 6510 40  0000 C CNN
F 2 "MyKiCadLibs-Footprints:CONN_SIL_2_1MM" H 12940 6440 60  0001 C CNN
F 3 "" H 12940 6440 60  0000 C CNN
F 4 "1x2 2.54mm pitch pin header" H 12850 6300 40  0001 C CNN "Description"
	1    12600 6550
	-1   0    0    -1  
$EndComp
$Comp
L C C810
U 1 1 570F50BB
P 2850 1950
F 0 "C810" H 2850 2050 40  0000 L CNN
F 1 "1u" H 2860 1865 40  0000 L CNN
F 2 "MyKiCadLibs-Footprints:SMD-0603" H 2888 1800 30  0001 C CNN
F 3 "" H 2850 2050 60  0000 C CNN
F 4 "10V" H 2865 1795 40  0000 L CNN "Voltage"
F 5 "X7R" H 2865 1725 40  0000 L CNN "Type"
F 6 "Ceramic capacitor" H 2850 2250 40  0001 L CNN "Description"
F 7 "10%" H 2920 1585 40  0001 C CNN "Tolerance"
F 8 "0603" H 2860 1655 40  0000 L CNN "Size"
	1    2850 1950
	1    0    0    -1  
$EndComp
$Comp
L C C814
U 1 1 570FD2A9
P 3350 1950
F 0 "C814" H 3350 2050 40  0000 L CNN
F 1 "1u" H 3360 1865 40  0000 L CNN
F 2 "MyKiCadLibs-Footprints:SMD-0603" H 3388 1800 30  0001 C CNN
F 3 "" H 3350 2050 60  0000 C CNN
F 4 "10V" H 3365 1795 40  0000 L CNN "Voltage"
F 5 "X7R" H 3365 1725 40  0000 L CNN "Type"
F 6 "Ceramic capacitor" H 3350 2250 40  0001 L CNN "Description"
F 7 "10%" H 3420 1585 40  0001 C CNN "Tolerance"
F 8 "0603" H 3360 1655 40  0000 L CNN "Size"
	1    3350 1950
	1    0    0    -1  
$EndComp
$Comp
L C C864
U 1 1 5710BAD4
P 10950 1800
F 0 "C864" H 10950 1900 40  0000 L CNN
F 1 "100n" H 10960 1715 40  0000 L CNN
F 2 "MyKiCadLibs-Footprints:SMD-0603" H 10988 1650 30  0001 C CNN
F 3 "" H 10950 1900 60  0000 C CNN
F 4 "50V" H 10965 1645 40  0000 L CNN "Voltage"
F 5 "X7R" H 10965 1575 40  0000 L CNN "Type"
F 6 "Ceramic capacitor" H 10950 2100 40  0001 L CNN "Description"
F 7 "10%" H 11020 1435 40  0001 C CNN "Tolerance"
F 8 "0603" H 10960 1505 40  0000 L CNN "Size"
	1    10950 1800
	1    0    0    -1  
$EndComp
$Comp
L C C871
U 1 1 5710D5BC
P 11800 1800
F 0 "C871" H 11800 1900 40  0000 L CNN
F 1 "100n" H 11810 1715 40  0000 L CNN
F 2 "MyKiCadLibs-Footprints:SMD-0603" H 11838 1650 30  0001 C CNN
F 3 "" H 11800 1900 60  0000 C CNN
F 4 "50V" H 11815 1645 40  0000 L CNN "Voltage"
F 5 "X7R" H 11815 1575 40  0000 L CNN "Type"
F 6 "Ceramic capacitor" H 11800 2100 40  0001 L CNN "Description"
F 7 "10%" H 11870 1435 40  0001 C CNN "Tolerance"
F 8 "0603" H 11810 1505 40  0000 L CNN "Size"
	1    11800 1800
	1    0    0    -1  
$EndComp
$Comp
L C C873
U 1 1 5710DC41
P 12050 1800
F 0 "C873" H 12050 1900 40  0000 L CNN
F 1 "100n" H 12060 1715 40  0000 L CNN
F 2 "MyKiCadLibs-Footprints:SMD-0603" H 12088 1650 30  0001 C CNN
F 3 "" H 12050 1900 60  0000 C CNN
F 4 "50V" H 12065 1645 40  0000 L CNN "Voltage"
F 5 "X7R" H 12065 1575 40  0000 L CNN "Type"
F 6 "Ceramic capacitor" H 12050 2100 40  0001 L CNN "Description"
F 7 "10%" H 12120 1435 40  0001 C CNN "Tolerance"
F 8 "0603" H 12060 1505 40  0000 L CNN "Size"
	1    12050 1800
	1    0    0    -1  
$EndComp
$Comp
L C C858
U 1 1 5711F306
P 10050 1800
F 0 "C858" H 10050 1900 40  0000 L CNN
F 1 "22u" H 10060 1715 40  0000 L CNN
F 2 "MyKiCadLibs-Footprints:SMD-0805" H 10088 1650 30  0001 C CNN
F 3 "" H 10050 1900 60  0000 C CNN
F 4 "10V" H 10115 1650 40  0000 C CNN "Voltage"
F 5 "X5R" H 10120 1575 40  0000 C CNN "Type"
F 6 "Ceramic capacitor" H 10050 2100 40  0001 L CNN "Description"
F 7 "20%" H 10450 2300 40  0001 C CNN "Tolerance"
F 8 "0805" H 10050 1800 60  0001 C CNN "Size"
	1    10050 1800
	1    0    0    -1  
$EndComp
$Comp
L C C860
U 1 1 5711F894
P 10350 1800
F 0 "C860" H 10350 1900 40  0000 L CNN
F 1 "100n" H 10360 1715 40  0000 L CNN
F 2 "MyKiCadLibs-Footprints:SMD-0805" H 10388 1650 30  0001 C CNN
F 3 "" H 10350 1900 60  0000 C CNN
F 4 "50V" H 10415 1650 40  0000 C CNN "Voltage"
F 5 "X7R" H 10420 1575 40  0000 C CNN "Type"
F 6 "Ceramic capacitor" H 10350 2100 40  0001 L CNN "Description"
F 7 "10%" H 10750 2300 40  0001 C CNN "Tolerance"
F 8 "0805" H 10350 1800 60  0001 C CNN "Size"
	1    10350 1800
	1    0    0    -1  
$EndComp
$Comp
L C C853
U 1 1 571256F0
P 14800 4150
F 0 "C853" H 14800 4250 40  0000 L CNN
F 1 "10u" H 14810 4065 40  0000 L CNN
F 2 "MyKiCadLibs-Footprints:SMD-0805" H 14838 4000 30  0001 C CNN
F 3 "" H 14800 4250 60  0000 C CNN
F 4 "10V" H 14865 4000 40  0000 C CNN "Voltage"
F 5 "X5R" H 14870 3925 40  0000 C CNN "Type"
F 6 "Ceramic capacitor" H 14800 4450 40  0001 L CNN "Description"
F 7 "20%" H 15200 4650 40  0001 C CNN "Tolerance"
F 8 "0805" H 14800 4150 60  0001 C CNN "Size"
	1    14800 4150
	1    0    0    -1  
$EndComp
$Comp
L C C852
U 1 1 571268EA
P 14500 4150
F 0 "C852" H 14500 4250 40  0000 L CNN
F 1 "100n" H 14510 4065 40  0000 L CNN
F 2 "MyKiCadLibs-Footprints:SMD-0805" H 14538 4000 30  0001 C CNN
F 3 "" H 14500 4250 60  0000 C CNN
F 4 "50V" H 14565 4000 40  0000 C CNN "Voltage"
F 5 "X7R" H 14570 3925 40  0000 C CNN "Type"
F 6 "Ceramic capacitor" H 14500 4450 40  0001 L CNN "Description"
F 7 "10%" H 14900 4650 40  0001 C CNN "Tolerance"
F 8 "0805" H 14500 4150 60  0001 C CNN "Size"
	1    14500 4150
	1    0    0    -1  
$EndComp
$Comp
L C C851
U 1 1 57126C60
P 14200 4150
F 0 "C851" H 14200 4250 40  0000 L CNN
F 1 "10n" H 14210 4065 40  0000 L CNN
F 2 "MyKiCadLibs-Footprints:SMD-0805" H 14238 4000 30  0001 C CNN
F 3 "" H 14200 4250 60  0000 C CNN
F 4 "50V" H 14265 4000 40  0000 C CNN "Voltage"
F 5 "X7R" H 14270 3925 40  0000 C CNN "Type"
F 6 "Ceramic capacitor" H 14200 4450 40  0001 L CNN "Description"
F 7 "10%" H 14600 4650 40  0001 C CNN "Tolerance"
F 8 "0805" H 14200 4150 60  0001 C CNN "Size"
	1    14200 4150
	1    0    0    -1  
$EndComp
$Comp
L C C854
U 1 1 571526C6
P 9400 2000
F 0 "C854" H 9400 2100 40  0000 L CNN
F 1 "100p" H 9410 1915 40  0000 L CNN
F 2 "MyKiCadLibs-Footprints:SMD-0805" H 9438 1850 30  0001 C CNN
F 3 "" H 9400 2100 60  0000 C CNN
F 4 "50V" H 9465 1850 40  0000 C CNN "Voltage"
F 5 "C0G" H 9470 1775 40  0000 C CNN "Type"
F 6 "Ceramic capacitor" H 9400 2300 40  0001 L CNN "Description"
F 7 "5%" H 9800 2500 40  0001 C CNN "Tolerance"
F 8 "0805" H 9400 2000 60  0001 C CNN "Size"
	1    9400 2000
	1    0    0    -1  
$EndComp
$Comp
L R R801
U 1 1 570D4692
P 1550 1650
F 0 "R801" V 1470 1650 40  0000 C CNN
F 1 "47" V 1557 1651 40  0000 C CNN
F 2 "MyKiCadLibs-Footprints:SMD-0805" V 1480 1650 30  0001 C CNN
F 3 "" V 1470 1650 30  0000 C CNN
F 4 "100mW" V 1650 1650 40  0001 C CNN "Power"
F 5 "Thick or thin film resistor" V 1795 1650 40  0001 C CNN "Description"
F 6 "0805" V 1725 1650 40  0001 C CNN "Size"
F 7 "1%" V 1875 1650 40  0001 C CNN "Tolerance"
	1    1550 1650
	1    0    0    -1  
$EndComp
$Comp
L R R865
U 1 1 570D9F7F
P 9400 1500
F 0 "R865" V 9320 1500 40  0000 C CNN
F 1 "47" V 9407 1501 40  0000 C CNN
F 2 "MyKiCadLibs-Footprints:SMD-0805" V 9330 1500 30  0001 C CNN
F 3 "" V 9320 1500 30  0000 C CNN
F 4 "100mW" V 9500 1500 40  0001 C CNN "Power"
F 5 "Thick or thin film resistor" V 9645 1500 40  0001 C CNN "Description"
F 6 "0805" V 9575 1500 40  0001 C CNN "Size"
F 7 "1%" V 9725 1500 40  0001 C CNN "Tolerance"
	1    9400 1500
	1    0    0    -1  
$EndComp
$Comp
L R R803
U 1 1 570EAF09
P 2050 9200
F 0 "R803" V 2150 9200 40  0000 C CNN
F 1 "N/F" V 2057 9201 40  0000 C CNN
F 2 "MyKiCadLibs-Footprints:SMD-0805" V 1980 9200 30  0001 C CNN
F 3 "" V 1970 9200 30  0000 C CNN
F 4 "100mW" V 2150 9200 40  0001 C CNN "Power"
F 5 "Thick or thin film resistor" V 2295 9200 40  0001 C CNN "Description"
F 6 "0805" V 2225 9200 40  0001 C CNN "Size"
F 7 "1%" V 2375 9200 40  0001 C CNN "Tolerance"
	1    2050 9200
	-1   0    0    -1  
$EndComp
$Comp
L R R804
U 1 1 570EB851
P 2250 9200
F 0 "R804" V 2350 9200 40  0000 C CNN
F 1 "N/F" V 2257 9201 40  0000 C CNN
F 2 "MyKiCadLibs-Footprints:SMD-0805" V 2180 9200 30  0001 C CNN
F 3 "" V 2170 9200 30  0000 C CNN
F 4 "100mW" V 2350 9200 40  0001 C CNN "Power"
F 5 "Thick or thin film resistor" V 2495 9200 40  0001 C CNN "Description"
F 6 "0805" V 2425 9200 40  0001 C CNN "Size"
F 7 "1%" V 2575 9200 40  0001 C CNN "Tolerance"
	1    2250 9200
	-1   0    0    -1  
$EndComp
$Comp
L R R820
U 1 1 571117A6
P 12650 6100
F 0 "R820" V 12750 6100 40  0000 C CNN
F 1 "1k" V 12657 6101 40  0000 C CNN
F 2 "MyKiCadLibs-Footprints:SMD-0805" V 12580 6100 30  0001 C CNN
F 3 "" V 12570 6100 30  0000 C CNN
F 4 "100mW" V 12750 6100 40  0001 C CNN "Power"
F 5 "Thick or thin film resistor" V 12895 6100 40  0001 C CNN "Description"
F 6 "0805" V 12825 6100 40  0001 C CNN "Size"
F 7 "1%" V 12975 6100 40  0001 C CNN "Tolerance"
	1    12650 6100
	-1   0    0    -1  
$EndComp
Text Notes 750  750  0    118  ~ 0
XMOS 200 - XE216-512-TQ128 or XEF216-512-TQ128
$Comp
L IC-uC-XEF216-512-TQ128 U801
U 1 1 57B78904
P 1900 4500
F 0 "U801" H 2600 4750 60  0000 C CNN
F 1 "IC-uC-XE216-512-TQ128" H 2600 4650 60  0000 C CNN
F 2 "MyKiCadLibs-Footprints:IC-TQ128-XMOS-HF" H 1900 4850 60  0001 C CNN
F 3 "" H 1900 4850 60  0000 C CNN
F 4 "XMOS 200 XE216-512-TQ128 Microcontroller" H 1900 4500 60  0001 C CNN "Description"
	1    1900 4500
	1    0    0    -1  
$EndComp
$Comp
L IC-uC-XEF216-512-TQ128 U801
U 2 1 57B78A2B
P 6650 4500
F 0 "U801" H 7350 4750 60  0000 C CNN
F 1 "IC-uC-XE216-512-TQ128" H 7350 4650 60  0000 C CNN
F 2 "MyKiCadLibs-Footprints:IC-TQ128-XMOS-HF" H 6650 4850 60  0001 C CNN
F 3 "" H 6650 4850 60  0000 C CNN
F 4 "XMOS 200 XE216-512-TQ128 Microcontroller" H 6650 4500 60  0001 C CNN "Description"
	2    6650 4500
	1    0    0    -1  
$EndComp
$Comp
L IC-uC-XEF216-512-TQ128 U801
U 3 1 57B78B3C
P 6650 7150
F 0 "U801" H 7350 7400 60  0000 C CNN
F 1 "IC-uC-XE216-512-TQ128" H 7350 7300 60  0000 C CNN
F 2 "MyKiCadLibs-Footprints:IC-TQ128-XMOS-HF" H 6650 7500 60  0001 C CNN
F 3 "" H 6650 7500 60  0000 C CNN
F 4 "XMOS 200 XE216-512-TQ128 Microcontroller" H 6650 7150 60  0001 C CNN "Description"
	3    6650 7150
	1    0    0    -1  
$EndComp
$Comp
L IC-uC-XEF216-512-TQ128 U801
U 4 1 57B78C63
P 6700 9600
F 0 "U801" H 7400 9850 60  0000 C CNN
F 1 "IC-uC-XE216-512-TQ128" H 7400 9750 60  0000 C CNN
F 2 "MyKiCadLibs-Footprints:IC-TQ128-XMOS-HF" H 6700 9950 60  0001 C CNN
F 3 "" H 6700 9950 60  0000 C CNN
F 4 "XMOS 200 XE216-512-TQ128 Microcontroller" H 6700 9600 60  0001 C CNN "Description"
	4    6700 9600
	1    0    0    -1  
$EndComp
$Comp
L C C863
U 1 1 57B7B339
P 10700 1800
F 0 "C863" H 10700 1900 40  0000 L CNN
F 1 "100n" H 10710 1715 40  0000 L CNN
F 2 "MyKiCadLibs-Footprints:SMD-0603" H 10738 1650 30  0001 C CNN
F 3 "" H 10700 1900 60  0000 C CNN
F 4 "50V" H 10715 1645 40  0000 L CNN "Voltage"
F 5 "X7R" H 10715 1575 40  0000 L CNN "Type"
F 6 "Ceramic capacitor" H 10700 2100 40  0001 L CNN "Description"
F 7 "10%" H 10770 1435 40  0001 C CNN "Tolerance"
F 8 "0603" H 10710 1505 40  0000 L CNN "Size"
	1    10700 1800
	1    0    0    -1  
$EndComp
$Comp
L C C866
U 1 1 57B7B3C9
P 11250 1800
F 0 "C866" H 11250 1900 40  0000 L CNN
F 1 "100n" H 11260 1715 40  0000 L CNN
F 2 "MyKiCadLibs-Footprints:SMD-0603" H 11288 1650 30  0001 C CNN
F 3 "" H 11250 1900 60  0000 C CNN
F 4 "50V" H 11265 1645 40  0000 L CNN "Voltage"
F 5 "X7R" H 11265 1575 40  0000 L CNN "Type"
F 6 "Ceramic capacitor" H 11250 2100 40  0001 L CNN "Description"
F 7 "10%" H 11320 1435 40  0001 C CNN "Tolerance"
F 8 "0603" H 11260 1505 40  0000 L CNN "Size"
	1    11250 1800
	1    0    0    -1  
$EndComp
$Comp
L C C870
U 1 1 57B7B462
P 11500 1800
F 0 "C870" H 11500 1900 40  0000 L CNN
F 1 "100n" H 11510 1715 40  0000 L CNN
F 2 "MyKiCadLibs-Footprints:SMD-0603" H 11538 1650 30  0001 C CNN
F 3 "" H 11500 1900 60  0000 C CNN
F 4 "50V" H 11515 1645 40  0000 L CNN "Voltage"
F 5 "X7R" H 11515 1575 40  0000 L CNN "Type"
F 6 "Ceramic capacitor" H 11500 2100 40  0001 L CNN "Description"
F 7 "10%" H 11570 1435 40  0001 C CNN "Tolerance"
F 8 "0603" H 11510 1505 40  0000 L CNN "Size"
	1    11500 1800
	1    0    0    -1  
$EndComp
$Comp
L C C874
U 1 1 57B7D391
P 12350 1800
F 0 "C874" H 12350 1900 40  0000 L CNN
F 1 "100n" H 12360 1715 40  0000 L CNN
F 2 "MyKiCadLibs-Footprints:SMD-0603" H 12388 1650 30  0001 C CNN
F 3 "" H 12350 1900 60  0000 C CNN
F 4 "50V" H 12365 1645 40  0000 L CNN "Voltage"
F 5 "X7R" H 12365 1575 40  0000 L CNN "Type"
F 6 "Ceramic capacitor" H 12350 2100 40  0001 L CNN "Description"
F 7 "10%" H 12420 1435 40  0001 C CNN "Tolerance"
F 8 "0603" H 12360 1505 40  0000 L CNN "Size"
	1    12350 1800
	1    0    0    -1  
$EndComp
Text Label 1450 4500 0    60   ~ 0
IOVDD
$Comp
L GNDD #PWR823
U 1 1 57B82B92
P 13500 2350
F 0 "#PWR823" H 13500 2100 60  0001 C CNN
F 1 "GNDD" H 13500 2200 60  0000 C CNN
F 2 "" H 13500 2350 60  0000 C CNN
F 3 "" H 13500 2350 60  0000 C CNN
	1    13500 2350
	1    0    0    -1  
$EndComp
$Comp
L CP1 C857
U 1 1 57B82BAF
P 13800 1800
F 0 "C857" H 13850 1900 50  0000 L CNN
F 1 "220u" H 13850 1700 50  0000 L CNN
F 2 "MyKiCadLibs-Footprints:CAP-TH-D6.3mmP2.5mm" H 13800 1800 60  0001 C CNN
F 3 "" H 13800 1800 60  0000 C CNN
F 4 "10V" H 13855 1615 50  0000 L CNN "Voltage"
F 5 "2.5mm pitch, 6.3mm diameter" H 13800 2100 40  0001 L CNN "Type"
F 6 "Low impedance aluminium electrolytic capacitor - Panasonic FC, FR or similar" H 13800 2200 40  0001 L CNN "Description"
	1    13800 1800
	1    0    0    -1  
$EndComp
$Comp
L INDUCTOR L805
U 1 1 57B82BB8
P 13100 1200
F 0 "L805" V 13050 1200 40  0000 C CNN
F 1 "600R@100MHz" V 13200 1200 40  0000 C CNN
F 2 "MyKiCadLibs-Footprints:SMD-0805" H 13100 1200 60  0001 C CNN
F 3 "" H 13100 1200 60  0000 C CNN
F 4 "=>1A" V 13250 1200 40  0000 C CNN "Current"
F 5 "Ferrite bead, current rating 1A or higher, 600R@100MHz" V 13300 1250 40  0001 C CNN "Description"
F 6 "0805" V 13100 1200 60  0001 C CNN "Size"
	1    13100 1200
	0    -1   -1   0   
$EndComp
$Comp
L C C859
U 1 1 57B82BC3
P 14150 1800
F 0 "C859" H 14150 1900 40  0000 L CNN
F 1 "22u" H 14160 1715 40  0000 L CNN
F 2 "MyKiCadLibs-Footprints:SMD-0805" H 14188 1650 30  0001 C CNN
F 3 "" H 14150 1900 60  0000 C CNN
F 4 "10V" H 14215 1650 40  0000 C CNN "Voltage"
F 5 "X5R" H 14220 1575 40  0000 C CNN "Type"
F 6 "Ceramic capacitor" H 14150 2100 40  0001 L CNN "Description"
F 7 "20%" H 14550 2300 40  0001 C CNN "Tolerance"
F 8 "0805" H 14150 1800 60  0001 C CNN "Size"
	1    14150 1800
	1    0    0    -1  
$EndComp
$Comp
L C C861
U 1 1 57B82BCE
P 14450 1800
F 0 "C861" H 14450 1900 40  0000 L CNN
F 1 "100n" H 14460 1715 40  0000 L CNN
F 2 "MyKiCadLibs-Footprints:SMD-0805" H 14488 1650 30  0001 C CNN
F 3 "" H 14450 1900 60  0000 C CNN
F 4 "50V" H 14515 1650 40  0000 C CNN "Voltage"
F 5 "X7R" H 14520 1575 40  0000 C CNN "Type"
F 6 "Ceramic capacitor" H 14450 2100 40  0001 L CNN "Description"
F 7 "10%" H 14850 2300 40  0001 C CNN "Tolerance"
F 8 "0805" H 14450 1800 60  0001 C CNN "Size"
	1    14450 1800
	1    0    0    -1  
$EndComp
$Comp
L C C855
U 1 1 57B82BD9
P 13500 2000
F 0 "C855" H 13500 2100 40  0000 L CNN
F 1 "100p" H 13510 1915 40  0000 L CNN
F 2 "MyKiCadLibs-Footprints:SMD-0805" H 13538 1850 30  0001 C CNN
F 3 "" H 13500 2100 60  0000 C CNN
F 4 "50V" H 13565 1850 40  0000 C CNN "Voltage"
F 5 "C0G" H 13570 1775 40  0000 C CNN "Type"
F 6 "Ceramic capacitor" H 13500 2300 40  0001 L CNN "Description"
F 7 "5%" H 13900 2500 40  0001 C CNN "Tolerance"
F 8 "0805" H 13500 2000 60  0001 C CNN "Size"
	1    13500 2000
	1    0    0    -1  
$EndComp
$Comp
L R R866
U 1 1 57B82BE3
P 13500 1500
F 0 "R866" V 13420 1500 40  0000 C CNN
F 1 "47" V 13507 1501 40  0000 C CNN
F 2 "MyKiCadLibs-Footprints:SMD-0805" V 13430 1500 30  0001 C CNN
F 3 "" V 13420 1500 30  0000 C CNN
F 4 "100mW" V 13600 1500 40  0001 C CNN "Power"
F 5 "Thick or thin film resistor" V 13745 1500 40  0001 C CNN "Description"
F 6 "0805" V 13675 1500 40  0001 C CNN "Size"
F 7 "1%" V 13825 1500 40  0001 C CNN "Tolerance"
	1    13500 1500
	1    0    0    -1  
$EndComp
Text Label 15050 1200 2    60   ~ 0
PHYVDD
Text Label 1450 5600 0    60   ~ 0
PHYVDD
$Comp
L C C862
U 1 1 57B8811E
P 14750 1800
F 0 "C862" H 14750 1900 40  0000 L CNN
F 1 "100n" H 14760 1715 40  0000 L CNN
F 2 "MyKiCadLibs-Footprints:SMD-0603" H 14788 1650 30  0001 C CNN
F 3 "" H 14750 1900 60  0000 C CNN
F 4 "50V" H 14765 1645 40  0000 L CNN "Voltage"
F 5 "X7R" H 14765 1575 40  0000 L CNN "Type"
F 6 "Ceramic capacitor" H 14750 2100 40  0001 L CNN "Description"
F 7 "10%" H 14820 1435 40  0001 C CNN "Tolerance"
F 8 "0603" H 14760 1505 40  0000 L CNN "Size"
	1    14750 1800
	1    0    0    -1  
$EndComp
$Comp
L GNDD #PWR808
U 1 1 57B8A369
P 5700 3900
F 0 "#PWR808" H 5700 3650 60  0001 C CNN
F 1 "GNDD" H 5700 3750 60  0000 C CNN
F 2 "" H 5700 3900 60  0000 C CNN
F 3 "" H 5700 3900 60  0000 C CNN
	1    5700 3900
	1    0    0    -1  
$EndComp
$Comp
L C C833
U 1 1 57B8B9D2
P 6000 3500
F 0 "C833" H 6000 3600 40  0000 L CNN
F 1 "100n" H 6010 3415 40  0000 L CNN
F 2 "MyKiCadLibs-Footprints:SMD-0603" H 6038 3350 30  0001 C CNN
F 3 "" H 6000 3600 60  0000 C CNN
F 4 "50V" H 6015 3345 40  0000 L CNN "Voltage"
F 5 "X7R" H 6015 3275 40  0000 L CNN "Type"
F 6 "Ceramic capacitor" H 6000 3800 40  0001 L CNN "Description"
F 7 "10%" H 6070 3135 40  0001 C CNN "Tolerance"
F 8 "0603" H 6010 3205 40  0000 L CNN "Size"
	1    6000 3500
	1    0    0    -1  
$EndComp
$Comp
L C C831
U 1 1 57B8BA7D
P 5700 3500
F 0 "C831" H 5700 3600 40  0000 L CNN
F 1 "100n" H 5710 3415 40  0000 L CNN
F 2 "MyKiCadLibs-Footprints:SMD-0603" H 5738 3350 30  0001 C CNN
F 3 "" H 5700 3600 60  0000 C CNN
F 4 "50V" H 5715 3345 40  0000 L CNN "Voltage"
F 5 "X7R" H 5715 3275 40  0000 L CNN "Type"
F 6 "Ceramic capacitor" H 5700 3800 40  0001 L CNN "Description"
F 7 "10%" H 5770 3135 40  0001 C CNN "Tolerance"
F 8 "0603" H 5710 3205 40  0000 L CNN "Size"
	1    5700 3500
	1    0    0    -1  
$EndComp
$Comp
L C C839
U 1 1 57B8D36F
P 6300 3500
F 0 "C839" H 6300 3600 40  0000 L CNN
F 1 "100n" H 6310 3415 40  0000 L CNN
F 2 "MyKiCadLibs-Footprints:SMD-0603" H 6338 3350 30  0001 C CNN
F 3 "" H 6300 3600 60  0000 C CNN
F 4 "50V" H 6315 3345 40  0000 L CNN "Voltage"
F 5 "X7R" H 6315 3275 40  0000 L CNN "Type"
F 6 "Ceramic capacitor" H 6300 3800 40  0001 L CNN "Description"
F 7 "10%" H 6370 3135 40  0001 C CNN "Tolerance"
F 8 "0603" H 6310 3205 40  0000 L CNN "Size"
	1    6300 3500
	1    0    0    -1  
$EndComp
$Comp
L C C843
U 1 1 57B8D380
P 6600 3500
F 0 "C843" H 6600 3600 40  0000 L CNN
F 1 "100n" H 6610 3415 40  0000 L CNN
F 2 "MyKiCadLibs-Footprints:SMD-0603" H 6638 3350 30  0001 C CNN
F 3 "" H 6600 3600 60  0000 C CNN
F 4 "50V" H 6615 3345 40  0000 L CNN "Voltage"
F 5 "X7R" H 6615 3275 40  0000 L CNN "Type"
F 6 "Ceramic capacitor" H 6600 3800 40  0001 L CNN "Description"
F 7 "10%" H 6670 3135 40  0001 C CNN "Tolerance"
F 8 "0603" H 6610 3205 40  0000 L CNN "Size"
	1    6600 3500
	1    0    0    -1  
$EndComp
$Comp
L C C845
U 1 1 57B8D487
P 6900 3500
F 0 "C845" H 6900 3600 40  0000 L CNN
F 1 "100n" H 6910 3415 40  0000 L CNN
F 2 "MyKiCadLibs-Footprints:SMD-0603" H 6938 3350 30  0001 C CNN
F 3 "" H 6900 3600 60  0000 C CNN
F 4 "50V" H 6915 3345 40  0000 L CNN "Voltage"
F 5 "X7R" H 6915 3275 40  0000 L CNN "Type"
F 6 "Ceramic capacitor" H 6900 3800 40  0001 L CNN "Description"
F 7 "10%" H 6970 3135 40  0001 C CNN "Tolerance"
F 8 "0603" H 6910 3205 40  0000 L CNN "Size"
	1    6900 3500
	1    0    0    -1  
$EndComp
Text Label 3750 4500 2    60   ~ 0
DVDD
$Comp
L GNDD #PWR805
U 1 1 57B960EA
P 1850 6050
F 0 "#PWR805" H 1850 5800 60  0001 C CNN
F 1 "GNDD" H 1850 5900 60  0000 C CNN
F 2 "" H 1850 6050 60  0000 C CNN
F 3 "" H 1850 6050 60  0000 C CNN
	1    1850 6050
	1    0    0    -1  
$EndComp
$Comp
L R R822
U 1 1 57D8ABDC
P 6300 4600
F 0 "R822" V 6250 4900 40  0000 C CNN
F 1 "0" V 6307 4601 40  0000 C CNN
F 2 "MyKiCadLibs-Footprints:SMD-0805" V 6230 4600 30  0001 C CNN
F 3 "" V 6220 4600 30  0000 C CNN
F 4 "100mW" V 6400 4600 40  0001 C CNN "Power"
F 5 "Thick or thin film resistor" V 6545 4600 40  0001 C CNN "Description"
F 6 "0805" V 6475 4600 40  0001 C CNN "Size"
F 7 "1%" V 6625 4600 40  0001 C CNN "Tolerance"
	1    6300 4600
	0    -1   1    0   
$EndComp
$Comp
L R R825
U 1 1 57D8C917
P 6300 4900
F 0 "R825" V 6250 5200 40  0000 C CNN
F 1 "0" V 6307 4901 40  0000 C CNN
F 2 "MyKiCadLibs-Footprints:SMD-0805" V 6230 4900 30  0001 C CNN
F 3 "" V 6220 4900 30  0000 C CNN
F 4 "100mW" V 6400 4900 40  0001 C CNN "Power"
F 5 "Thick or thin film resistor" V 6545 4900 40  0001 C CNN "Description"
F 6 "0805" V 6475 4900 40  0001 C CNN "Size"
F 7 "1%" V 6625 4900 40  0001 C CNN "Tolerance"
	1    6300 4900
	0    -1   1    0   
$EndComp
$Comp
L R R826
U 1 1 57D8CAE1
P 6300 5000
F 0 "R826" V 6250 5300 40  0000 C CNN
F 1 "0" V 6307 5001 40  0000 C CNN
F 2 "MyKiCadLibs-Footprints:SMD-0805" V 6230 5000 30  0001 C CNN
F 3 "" V 6220 5000 30  0000 C CNN
F 4 "100mW" V 6400 5000 40  0001 C CNN "Power"
F 5 "Thick or thin film resistor" V 6545 5000 40  0001 C CNN "Description"
F 6 "0805" V 6475 5000 40  0001 C CNN "Size"
F 7 "1%" V 6625 5000 40  0001 C CNN "Tolerance"
	1    6300 5000
	0    -1   1    0   
$EndComp
$Comp
L R R827
U 1 1 57D8CC17
P 6300 5100
F 0 "R827" V 6250 5400 40  0000 C CNN
F 1 "0" V 6307 5101 40  0000 C CNN
F 2 "MyKiCadLibs-Footprints:SMD-0805" V 6230 5100 30  0001 C CNN
F 3 "" V 6220 5100 30  0000 C CNN
F 4 "100mW" V 6400 5100 40  0001 C CNN "Power"
F 5 "Thick or thin film resistor" V 6545 5100 40  0001 C CNN "Description"
F 6 "0805" V 6475 5100 40  0001 C CNN "Size"
F 7 "1%" V 6625 5100 40  0001 C CNN "Tolerance"
	1    6300 5100
	0    -1   1    0   
$EndComp
$Comp
L R R828
U 1 1 57D8CDDF
P 6300 5200
F 0 "R828" V 6250 5500 40  0000 C CNN
F 1 "0" V 6307 5201 40  0000 C CNN
F 2 "MyKiCadLibs-Footprints:SMD-0805" V 6230 5200 30  0001 C CNN
F 3 "" V 6220 5200 30  0000 C CNN
F 4 "100mW" V 6400 5200 40  0001 C CNN "Power"
F 5 "Thick or thin film resistor" V 6545 5200 40  0001 C CNN "Description"
F 6 "0805" V 6475 5200 40  0001 C CNN "Size"
F 7 "1%" V 6625 5200 40  0001 C CNN "Tolerance"
	1    6300 5200
	0    -1   1    0   
$EndComp
$Comp
L R R831
U 1 1 57D8DB8F
P 6300 5500
F 0 "R831" V 6250 5800 40  0000 C CNN
F 1 "0" V 6307 5501 40  0000 C CNN
F 2 "MyKiCadLibs-Footprints:SMD-0805" V 6230 5500 30  0001 C CNN
F 3 "" V 6220 5500 30  0000 C CNN
F 4 "100mW" V 6400 5500 40  0001 C CNN "Power"
F 5 "Thick or thin film resistor" V 6545 5500 40  0001 C CNN "Description"
F 6 "0805" V 6475 5500 40  0001 C CNN "Size"
F 7 "1%" V 6625 5500 40  0001 C CNN "Tolerance"
	1    6300 5500
	0    -1   1    0   
$EndComp
Text Label 5250 4600 0    60   ~ 0
MEM_SPI_CS
Text Label 5250 4900 0    60   ~ 0
MEM_SPI_D0
Text Label 5250 5000 0    60   ~ 0
MEM_SPI_D1
Text Label 5250 5100 0    60   ~ 0
MEM_SPI_D2
Text Label 5250 5200 0    60   ~ 0
MEM_SPI_D3
Text Label 5250 5500 0    60   ~ 0
MEM_SPI_CLK
$Comp
L IC-FLASH-SPI U802
U 1 1 57D96E73
P 12300 3900
F 0 "U802" H 12850 4150 60  0000 C CNN
F 1 "IC-FLASH-SPI" H 12850 4050 60  0000 C CNN
F 2 "MyKiCadLibs-Footprints:IC_SOIC_8" H 12850 3350 60  0001 C CNN
F 3 "" H 12300 3900 60  0001 C CNN
F 4 "SPI/Quad SPI Flash Memory - SOIC 8 - For use with XE-216-TQ128, XEF216-512-TQ128 has internal flash" H 12900 3450 60  0001 C CNN "Description"
	1    12300 3900
	1    0    0    -1  
$EndComp
$Comp
L R R844
U 1 1 5710CE81
P 12200 3550
F 0 "R844" V 12300 3450 40  0000 C CNN
F 1 "10k" V 12207 3551 40  0000 C CNN
F 2 "MyKiCadLibs-Footprints:SMD-0805" V 12130 3550 30  0001 C CNN
F 3 "" V 12120 3550 30  0000 C CNN
F 4 "100mW" V 12300 3550 40  0001 C CNN "Power"
F 5 "Thick or thin film resistor" V 12445 3550 40  0001 C CNN "Description"
F 6 "0805" V 12375 3550 40  0001 C CNN "Size"
F 7 "1%" V 12525 3550 40  0001 C CNN "Tolerance"
	1    12200 3550
	1    0    0    -1  
$EndComp
Text Label 11600 3900 0    60   ~ 0
MEM_SPI_CS
Text Label 14000 4200 2    60   ~ 0
MEM_SPI_D0
Text Label 11600 4000 0    60   ~ 0
MEM_SPI_D1
Text Label 11600 4100 0    60   ~ 0
MEM_SPI_D2
Text Label 14000 4000 2    60   ~ 0
MEM_SPI_D3
Text Label 14050 4100 2    60   ~ 0
MEM_SPI_CLK
$Comp
L R R887
U 1 1 57DBBF70
P 8550 9600
F 0 "R887" V 8500 9900 40  0000 C CNN
F 1 "0" V 8557 9601 40  0000 C CNN
F 2 "MyKiCadLibs-Footprints:SMD-0805" V 8480 9600 30  0001 C CNN
F 3 "" V 8470 9600 30  0000 C CNN
F 4 "100mW" V 8650 9600 40  0001 C CNN "Power"
F 5 "Thick or thin film resistor" V 8795 9600 40  0001 C CNN "Description"
F 6 "0805" V 8725 9600 40  0001 C CNN "Size"
F 7 "1%" V 8875 9600 40  0001 C CNN "Tolerance"
	1    8550 9600
	0    -1   1    0   
$EndComp
$Comp
L R R888
U 1 1 57DBC81A
P 8550 9700
F 0 "R888" V 8500 10000 40  0000 C CNN
F 1 "0" V 8557 9701 40  0000 C CNN
F 2 "MyKiCadLibs-Footprints:SMD-0805" V 8480 9700 30  0001 C CNN
F 3 "" V 8470 9700 30  0000 C CNN
F 4 "100mW" V 8650 9700 40  0001 C CNN "Power"
F 5 "Thick or thin film resistor" V 8795 9700 40  0001 C CNN "Description"
F 6 "0805" V 8725 9700 40  0001 C CNN "Size"
F 7 "1%" V 8875 9700 40  0001 C CNN "Tolerance"
	1    8550 9700
	0    -1   1    0   
$EndComp
$Comp
L R R889
U 1 1 57DBC991
P 8550 9800
F 0 "R889" V 8500 10100 40  0000 C CNN
F 1 "33" V 8557 9801 40  0000 C CNN
F 2 "MyKiCadLibs-Footprints:SMD-0805" V 8480 9800 30  0001 C CNN
F 3 "" V 8470 9800 30  0000 C CNN
F 4 "100mW" V 8650 9800 40  0001 C CNN "Power"
F 5 "Thick or thin film resistor" V 8795 9800 40  0001 C CNN "Description"
F 6 "0805" V 8725 9800 40  0001 C CNN "Size"
F 7 "1%" V 8875 9800 40  0001 C CNN "Tolerance"
	1    8550 9800
	0    -1   1    0   
$EndComp
$Comp
L R R890
U 1 1 57DBCB0B
P 8550 9900
F 0 "R890" V 8500 10200 40  0000 C CNN
F 1 "0" V 8557 9901 40  0000 C CNN
F 2 "MyKiCadLibs-Footprints:SMD-0805" V 8480 9900 30  0001 C CNN
F 3 "" V 8470 9900 30  0000 C CNN
F 4 "100mW" V 8650 9900 40  0001 C CNN "Power"
F 5 "Thick or thin film resistor" V 8795 9900 40  0001 C CNN "Description"
F 6 "0805" V 8725 9900 40  0001 C CNN "Size"
F 7 "1%" V 8875 9900 40  0001 C CNN "Tolerance"
	1    8550 9900
	0    -1   1    0   
$EndComp
Text HLabel 8950 9600 2    60   Input ~ 0
TCK
Text HLabel 8950 9700 2    60   Input ~ 0
TMS
Text HLabel 8950 9900 2    60   Input ~ 0
TDI
Text HLabel 8950 9800 2    60   Output ~ 0
TDO
$Comp
L R R891
U 1 1 57DC25A2
P 8550 10000
F 0 "R891" V 8500 10300 40  0000 C CNN
F 1 "0" V 8557 10001 40  0000 C CNN
F 2 "MyKiCadLibs-Footprints:SMD-0805" V 8480 10000 30  0001 C CNN
F 3 "" V 8470 10000 30  0000 C CNN
F 4 "100mW" V 8650 10000 40  0001 C CNN "Power"
F 5 "Thick or thin film resistor" V 8795 10000 40  0001 C CNN "Description"
F 6 "0805" V 8725 10000 40  0001 C CNN "Size"
F 7 "1%" V 8875 10000 40  0001 C CNN "Tolerance"
	1    8550 10000
	0    -1   1    0   
$EndComp
Text HLabel 8950 10000 2    60   Input ~ 0
~TRST~
$Comp
L R R892
U 1 1 57DC5FD3
P 8550 10100
F 0 "R892" V 8500 10400 40  0000 C CNN
F 1 "0" V 8557 10101 40  0000 C CNN
F 2 "MyKiCadLibs-Footprints:SMD-0805" V 8480 10100 30  0001 C CNN
F 3 "" V 8470 10100 30  0000 C CNN
F 4 "100mW" V 8650 10100 40  0001 C CNN "Power"
F 5 "Thick or thin film resistor" V 8795 10100 40  0001 C CNN "Description"
F 6 "0805" V 8725 10100 40  0001 C CNN "Size"
F 7 "1%" V 8875 10100 40  0001 C CNN "Tolerance"
	1    8550 10100
	0    -1   1    0   
$EndComp
Text HLabel 8950 10100 2    60   Input ~ 0
~RST~
$Comp
L R R893
U 1 1 57DC94B5
P 8550 10250
F 0 "R893" V 8500 10550 40  0000 C CNN
F 1 "0" V 8557 10251 40  0000 C CNN
F 2 "MyKiCadLibs-Footprints:SMD-0805" V 8480 10250 30  0001 C CNN
F 3 "" V 8470 10250 30  0000 C CNN
F 4 "100mW" V 8650 10250 40  0001 C CNN "Power"
F 5 "Thick or thin film resistor" V 8795 10250 40  0001 C CNN "Description"
F 6 "0805" V 8725 10250 40  0001 C CNN "Size"
F 7 "1%" V 8875 10250 40  0001 C CNN "Tolerance"
	1    8550 10250
	0    -1   1    0   
$EndComp
Text HLabel 8950 10250 2    60   Input ~ 0
SYS_CLK
NoConn ~ 8100 10400
NoConn ~ 8100 10500
Text HLabel 9650 6600 2    60   Output ~ 0
XL_UP1
$Comp
L R R863
U 1 1 57DC0EA1
P 8500 6500
F 0 "R863" V 8450 6800 40  0000 C CNN
F 1 "33" V 8507 6501 40  0000 C CNN
F 2 "MyKiCadLibs-Footprints:SMD-0805" V 8430 6500 30  0001 C CNN
F 3 "" V 8420 6500 30  0000 C CNN
F 4 "100mW" V 8600 6500 40  0001 C CNN "Power"
F 5 "Thick or thin film resistor" V 8745 6500 40  0001 C CNN "Description"
F 6 "0805" V 8675 6500 40  0001 C CNN "Size"
F 7 "1%" V 8825 6500 40  0001 C CNN "Tolerance"
	1    8500 6500
	0    1    1    0   
$EndComp
$Comp
L R R864
U 1 1 57DC1DFD
P 8500 6600
F 0 "R864" V 8450 6900 40  0000 C CNN
F 1 "33" V 8507 6601 40  0000 C CNN
F 2 "MyKiCadLibs-Footprints:SMD-0805" V 8430 6600 30  0001 C CNN
F 3 "" V 8420 6600 30  0000 C CNN
F 4 "100mW" V 8600 6600 40  0001 C CNN "Power"
F 5 "Thick or thin film resistor" V 8745 6600 40  0001 C CNN "Description"
F 6 "0805" V 8675 6600 40  0001 C CNN "Size"
F 7 "1%" V 8825 6600 40  0001 C CNN "Tolerance"
	1    8500 6600
	0    1    1    0   
$EndComp
Text HLabel 9650 6500 2    60   Output ~ 0
XL_UP0
Text HLabel 9650 6400 2    60   Output ~ 0
XL_DN1
Text HLabel 9650 6300 2    60   Output ~ 0
XL_DN0
$Comp
L R R821
U 1 1 57DCBCFC
P 6300 4500
F 0 "R821" V 6250 4800 40  0000 C CNN
F 1 "0" V 6307 4501 40  0000 C CNN
F 2 "MyKiCadLibs-Footprints:SMD-0805" V 6230 4500 30  0001 C CNN
F 3 "" V 6220 4500 30  0000 C CNN
F 4 "100mW" V 6400 4500 40  0001 C CNN "Power"
F 5 "Thick or thin film resistor" V 6545 4500 40  0001 C CNN "Description"
F 6 "0805" V 6475 4500 40  0001 C CNN "Size"
F 7 "1%" V 6625 4500 40  0001 C CNN "Tolerance"
	1    6300 4500
	0    -1   1    0   
$EndComp
Text Label 5250 4500 0    60   ~ 0
PLL_SYNC
$Comp
L R R877
U 1 1 57DD13E7
P 8500 7350
F 0 "R877" V 8450 7650 40  0000 C CNN
F 1 "33" V 8507 7351 40  0000 C CNN
F 2 "MyKiCadLibs-Footprints:SMD-0805" V 8430 7350 30  0001 C CNN
F 3 "" V 8420 7350 30  0000 C CNN
F 4 "100mW" V 8600 7350 40  0001 C CNN "Power"
F 5 "Thick or thin film resistor" V 8745 7350 40  0001 C CNN "Description"
F 6 "0805" V 8675 7350 40  0001 C CNN "Size"
F 7 "1%" V 8825 7350 40  0001 C CNN "Tolerance"
	1    8500 7350
	0    -1   1    0   
$EndComp
Text HLabel 9150 7550 2    60   Input ~ 0
ETH_RX_CLK
Text HLabel 9150 7350 2    60   Output ~ 0
ETH_TX_CLK
$Comp
L R R878
U 1 1 57DD24E4
P 8500 7450
F 0 "R878" V 8450 7750 40  0000 C CNN
F 1 "33" V 8507 7451 40  0000 C CNN
F 2 "MyKiCadLibs-Footprints:SMD-0805" V 8430 7450 30  0001 C CNN
F 3 "" V 8420 7450 30  0000 C CNN
F 4 "100mW" V 8600 7450 40  0001 C CNN "Power"
F 5 "Thick or thin film resistor" V 8745 7450 40  0001 C CNN "Description"
F 6 "0805" V 8675 7450 40  0001 C CNN "Size"
F 7 "1%" V 8825 7450 40  0001 C CNN "Tolerance"
	1    8500 7450
	0    -1   1    0   
$EndComp
Text HLabel 9150 7450 2    60   Output ~ 0
ETH_TX_CTL
Text HLabel 9150 7650 2    60   Input ~ 0
ETH_RX_CTL
Text HLabel 9150 7750 2    60   Input ~ 0
ETH_RX0
Text HLabel 9150 7850 2    60   Input ~ 0
ETH_RX1
Text HLabel 9150 7950 2    60   Input ~ 0
ETH_RX2
Text HLabel 5650 7450 0    60   Input ~ 0
ETH_INT
$Comp
L R R886
U 1 1 57DD3632
P 8500 8950
F 0 "R886" V 8450 9250 40  0000 C CNN
F 1 "33" V 8507 8951 40  0000 C CNN
F 2 "MyKiCadLibs-Footprints:SMD-0805" V 8430 8950 30  0001 C CNN
F 3 "" V 8420 8950 30  0000 C CNN
F 4 "100mW" V 8600 8950 40  0001 C CNN "Power"
F 5 "Thick or thin film resistor" V 8745 8950 40  0001 C CNN "Description"
F 6 "0805" V 8675 8950 40  0001 C CNN "Size"
F 7 "1%" V 8825 8950 40  0001 C CNN "Tolerance"
	1    8500 8950
	0    -1   1    0   
$EndComp
Text HLabel 9150 8950 2    60   Output ~ 0
ETH_TX0
$Comp
L R R885
U 1 1 57DD363E
P 8500 8850
F 0 "R885" V 8450 9150 40  0000 C CNN
F 1 "33" V 8507 8851 40  0000 C CNN
F 2 "MyKiCadLibs-Footprints:SMD-0805" V 8430 8850 30  0001 C CNN
F 3 "" V 8420 8850 30  0000 C CNN
F 4 "100mW" V 8600 8850 40  0001 C CNN "Power"
F 5 "Thick or thin film resistor" V 8745 8850 40  0001 C CNN "Description"
F 6 "0805" V 8675 8850 40  0001 C CNN "Size"
F 7 "1%" V 8825 8850 40  0001 C CNN "Tolerance"
	1    8500 8850
	0    -1   1    0   
$EndComp
Text HLabel 9150 8850 2    60   Output ~ 0
ETH_TX1
$Comp
L R R884
U 1 1 57DD36E5
P 8500 8750
F 0 "R884" V 8450 9050 40  0000 C CNN
F 1 "33" V 8507 8751 40  0000 C CNN
F 2 "MyKiCadLibs-Footprints:SMD-0805" V 8430 8750 30  0001 C CNN
F 3 "" V 8420 8750 30  0000 C CNN
F 4 "100mW" V 8600 8750 40  0001 C CNN "Power"
F 5 "Thick or thin film resistor" V 8745 8750 40  0001 C CNN "Description"
F 6 "0805" V 8675 8750 40  0001 C CNN "Size"
F 7 "1%" V 8825 8750 40  0001 C CNN "Tolerance"
	1    8500 8750
	0    -1   1    0   
$EndComp
Text HLabel 9150 8750 2    60   Output ~ 0
ETH_TX2
$Comp
L R R883
U 1 1 57DD36F1
P 8500 8650
F 0 "R883" V 8450 8950 40  0000 C CNN
F 1 "33" V 8507 8651 40  0000 C CNN
F 2 "MyKiCadLibs-Footprints:SMD-0805" V 8430 8650 30  0001 C CNN
F 3 "" V 8420 8650 30  0000 C CNN
F 4 "100mW" V 8600 8650 40  0001 C CNN "Power"
F 5 "Thick or thin film resistor" V 8745 8650 40  0001 C CNN "Description"
F 6 "0805" V 8675 8650 40  0001 C CNN "Size"
F 7 "1%" V 8825 8650 40  0001 C CNN "Tolerance"
	1    8500 8650
	0    -1   1    0   
$EndComp
Text HLabel 9150 8650 2    60   Output ~ 0
ETH_TX3
$Comp
L R R869
U 1 1 57DE1C73
P 6050 7350
F 0 "R869" V 6000 7650 40  0000 C CNN
F 1 "33" V 6057 7351 40  0000 C CNN
F 2 "MyKiCadLibs-Footprints:SMD-0805" V 5980 7350 30  0001 C CNN
F 3 "" V 5970 7350 30  0000 C CNN
F 4 "100mW" V 6150 7350 40  0001 C CNN "Power"
F 5 "Thick or thin film resistor" V 6295 7350 40  0001 C CNN "Description"
F 6 "0805" V 6225 7350 40  0001 C CNN "Size"
F 7 "1%" V 6375 7350 40  0001 C CNN "Tolerance"
	1    6050 7350
	0    1    1    0   
$EndComp
Text HLabel 5650 7350 0    60   Output ~ 0
ETH_RST
$Comp
L R R874
U 1 1 57DE604B
P 6050 8150
F 0 "R874" V 6000 8450 40  0000 C CNN
F 1 "0" V 6057 8151 40  0000 C CNN
F 2 "MyKiCadLibs-Footprints:SMD-0805" V 5980 8150 30  0001 C CNN
F 3 "" V 5970 8150 30  0000 C CNN
F 4 "100mW" V 6150 8150 40  0001 C CNN "Power"
F 5 "Thick or thin film resistor" V 6295 8150 40  0001 C CNN "Description"
F 6 "0805" V 6225 8150 40  0001 C CNN "Size"
F 7 "1%" V 6375 8150 40  0001 C CNN "Tolerance"
	1    6050 8150
	0    1    1    0   
$EndComp
Text HLabel 5650 8150 0    60   BiDi ~ 0
ETH_MDIO
$Comp
L R R875
U 1 1 57DE60EA
P 6050 8250
F 0 "R875" V 6000 8550 40  0000 C CNN
F 1 "0" V 6057 8251 40  0000 C CNN
F 2 "MyKiCadLibs-Footprints:SMD-0805" V 5980 8250 30  0001 C CNN
F 3 "" V 5970 8250 30  0000 C CNN
F 4 "100mW" V 6150 8250 40  0001 C CNN "Power"
F 5 "Thick or thin film resistor" V 6295 8250 40  0001 C CNN "Description"
F 6 "0805" V 6225 8250 40  0001 C CNN "Size"
F 7 "1%" V 6375 8250 40  0001 C CNN "Tolerance"
	1    6050 8250
	0    1    1    0   
$EndComp
Text HLabel 5650 8250 0    60   BiDi ~ 0
ETH_MDC
Text HLabel 5850 9800 0    60   Input ~ 0
USB_VBUS
Text HLabel 5850 9900 0    60   BiDi ~ 0
USBD_P
Text HLabel 5850 10000 0    60   BiDi ~ 0
USBD_N
$Comp
L R R823
U 1 1 57E2E249
P 6300 4700
F 0 "R823" V 6250 5000 40  0000 C CNN
F 1 "0" V 6307 4701 40  0000 C CNN
F 2 "MyKiCadLibs-Footprints:SMD-0805" V 6230 4700 30  0001 C CNN
F 3 "" V 6220 4700 30  0000 C CNN
F 4 "100mW" V 6400 4700 40  0001 C CNN "Power"
F 5 "Thick or thin film resistor" V 6545 4700 40  0001 C CNN "Description"
F 6 "0805" V 6475 4700 40  0001 C CNN "Size"
F 7 "1%" V 6625 4700 40  0001 C CNN "Tolerance"
	1    6300 4700
	0    -1   1    0   
$EndComp
$Comp
L R R824
U 1 1 57E2E253
P 6300 4800
F 0 "R824" V 6250 5100 40  0000 C CNN
F 1 "0" V 6307 4801 40  0000 C CNN
F 2 "MyKiCadLibs-Footprints:SMD-0805" V 6230 4800 30  0001 C CNN
F 3 "" V 6220 4800 30  0000 C CNN
F 4 "100mW" V 6400 4800 40  0001 C CNN "Power"
F 5 "Thick or thin film resistor" V 6545 4800 40  0001 C CNN "Description"
F 6 "0805" V 6475 4800 40  0001 C CNN "Size"
F 7 "1%" V 6625 4800 40  0001 C CNN "Tolerance"
	1    6300 4800
	0    -1   1    0   
$EndComp
$Comp
L R R829
U 1 1 57E2E664
P 6300 5300
F 0 "R829" V 6250 5600 40  0000 C CNN
F 1 "0" V 6307 5301 40  0000 C CNN
F 2 "MyKiCadLibs-Footprints:SMD-0805" V 6230 5300 30  0001 C CNN
F 3 "" V 6220 5300 30  0000 C CNN
F 4 "100mW" V 6400 5300 40  0001 C CNN "Power"
F 5 "Thick or thin film resistor" V 6545 5300 40  0001 C CNN "Description"
F 6 "0805" V 6475 5300 40  0001 C CNN "Size"
F 7 "1%" V 6625 5300 40  0001 C CNN "Tolerance"
	1    6300 5300
	0    -1   1    0   
$EndComp
$Comp
L R R830
U 1 1 57E2E66E
P 6300 5400
F 0 "R830" V 6250 5700 40  0000 C CNN
F 1 "0" V 6307 5401 40  0000 C CNN
F 2 "MyKiCadLibs-Footprints:SMD-0805" V 6230 5400 30  0001 C CNN
F 3 "" V 6220 5400 30  0000 C CNN
F 4 "100mW" V 6400 5400 40  0001 C CNN "Power"
F 5 "Thick or thin film resistor" V 6545 5400 40  0001 C CNN "Description"
F 6 "0805" V 6475 5400 40  0001 C CNN "Size"
F 7 "1%" V 6625 5400 40  0001 C CNN "Tolerance"
	1    6300 5400
	0    -1   1    0   
$EndComp
Text Label 5250 5800 0    60   ~ 0
DATA0
Text Label 5250 5700 0    60   ~ 0
LRCLK0
Text Label 5250 5600 0    60   ~ 0
BCLK0
Text Label 9550 5900 2    60   ~ 0
DATA2
Text Label 9550 5800 2    60   ~ 0
LRCLK2
Text Label 9550 6000 2    60   ~ 0
MCLKB/DATA3
Text Label 9550 4800 2    60   ~ 0
MCLKA
Text Label 9550 6100 2    60   ~ 0
MCLKC/DATA4
$Comp
L R R862
U 1 1 57E3AC91
P 8500 6200
F 0 "R862" V 8450 6500 40  0000 C CNN
F 1 "0" V 8507 6201 40  0000 C CNN
F 2 "MyKiCadLibs-Footprints:SMD-0805" V 8430 6200 30  0001 C CNN
F 3 "" V 8420 6200 30  0000 C CNN
F 4 "100mW" V 8600 6200 40  0001 C CNN "Power"
F 5 "Thick or thin film resistor" V 8745 6200 40  0001 C CNN "Description"
F 6 "0805" V 8675 6200 40  0001 C CNN "Size"
F 7 "1%" V 8825 6200 40  0001 C CNN "Tolerance"
	1    8500 6200
	0    1    1    0   
$EndComp
Text Label 9550 6200 2    60   ~ 0
SPDIF_TX
$Comp
L R R879
U 1 1 57E4223D
P 8500 8150
F 0 "R879" V 8450 8450 40  0000 C CNN
F 1 "33" V 8507 8151 40  0000 C CNN
F 2 "MyKiCadLibs-Footprints:SMD-0805" V 8430 8150 30  0001 C CNN
F 3 "" V 8420 8150 30  0000 C CNN
F 4 "100mW" V 8600 8150 40  0001 C CNN "Power"
F 5 "Thick or thin film resistor" V 8745 8150 40  0001 C CNN "Description"
F 6 "0805" V 8675 8150 40  0001 C CNN "Size"
F 7 "1%" V 8825 8150 40  0001 C CNN "Tolerance"
	1    8500 8150
	0    -1   1    0   
$EndComp
$Comp
L R R880
U 1 1 57E42302
P 8500 8250
F 0 "R880" V 8450 8550 40  0000 C CNN
F 1 "33" V 8507 8251 40  0000 C CNN
F 2 "MyKiCadLibs-Footprints:SMD-0805" V 8430 8250 30  0001 C CNN
F 3 "" V 8420 8250 30  0000 C CNN
F 4 "100mW" V 8600 8250 40  0001 C CNN "Power"
F 5 "Thick or thin film resistor" V 8745 8250 40  0001 C CNN "Description"
F 6 "0805" V 8675 8250 40  0001 C CNN "Size"
F 7 "1%" V 8825 8250 40  0001 C CNN "Tolerance"
	1    8500 8250
	0    -1   1    0   
$EndComp
$Comp
L R R881
U 1 1 57E4263B
P 8500 8350
F 0 "R881" V 8450 8650 40  0000 C CNN
F 1 "33" V 8507 8351 40  0000 C CNN
F 2 "MyKiCadLibs-Footprints:SMD-0805" V 8430 8350 30  0001 C CNN
F 3 "" V 8420 8350 30  0000 C CNN
F 4 "100mW" V 8600 8350 40  0001 C CNN "Power"
F 5 "Thick or thin film resistor" V 8745 8350 40  0001 C CNN "Description"
F 6 "0805" V 8675 8350 40  0001 C CNN "Size"
F 7 "1%" V 8825 8350 40  0001 C CNN "Tolerance"
	1    8500 8350
	0    -1   1    0   
$EndComp
Text HLabel 5650 7150 0    60   Input ~ 0
SPDIF_RX
Text HLabel 9650 4800 2    60   Input ~ 0
AUD_MCLKA
Text HLabel 5150 5700 0    60   BiDi ~ 0
I2S_LRCLK0
Text HLabel 5150 5800 0    60   BiDi ~ 0
I2S_DATA0
Text HLabel 5150 4500 0    60   Output ~ 0
AUD_PLLSYNC
Text HLabel 1750 7150 0    60   BiDi ~ 0
I2C1_SCL
Text HLabel 1750 7250 0    60   BiDi ~ 0
I2C1_SDA
Text HLabel 1750 7350 0    60   BiDi ~ 0
I2C2_SCL
Text HLabel 1750 7450 0    60   BiDi ~ 0
I2C2_SDA
Text HLabel 5150 8850 0    60   BiDi ~ 0
GPIOH
Text HLabel 5150 8550 0    60   BiDi ~ 0
GPIOE
Text HLabel 5150 8650 0    60   BiDi ~ 0
GPIOF
Text Label 5250 5400 0    60   ~ 0
I2C2_SDA
Text Label 5250 5300 0    60   ~ 0
I2C2_SCL
Text Label 5250 4800 0    60   ~ 0
I2C1_SDA
Text Label 5250 4700 0    60   ~ 0
I2C1_SCL
Text HLabel 5150 5900 0    60   BiDi ~ 0
GPIOA
Text HLabel 5150 6000 0    60   BiDi ~ 0
GPIOB
Text HLabel 5150 6100 0    60   Output ~ 0
AUD_MUTE
Text HLabel 5150 6500 0    60   BiDi ~ 0
GPIOC
Text HLabel 5150 6600 0    60   BiDi ~ 0
GPIOD
Text Label 9150 8150 2    60   ~ 0
XSPI_CLK
Text Label 9150 8250 2    60   ~ 0
XSPI_CS1
Text Label 9150 8350 2    60   ~ 0
XSPI_MOSI
Text Label 9150 8450 2    60   ~ 0
XSPI_MISO
Text Label 2400 7900 2    60   ~ 0
XSPI_CLK
Text Label 2400 8100 2    60   ~ 0
XSPI_CS1
Text Label 2400 8000 2    60   ~ 0
XSPI_MOSI
Text Label 2400 7800 2    60   ~ 0
XSPI_MISO
Text HLabel 9650 6200 2    60   Output ~ 0
SPDIF_TX
Text Notes 12600 3450 0    59   ~ 0
For use with XE-216-TQ128 part\nConnects to master serial port\nUses SPI Multi I/O Bus\nSize 2MBytes (16Mbits)
Text Notes 12600 3050 0    118  ~ 0
SPI Flash Memory
$Comp
L GNDD #PWR825
U 1 1 57EDF555
P 13950 7150
F 0 "#PWR825" H 13950 6900 60  0001 C CNN
F 1 "GNDD" H 13950 7000 60  0000 C CNN
F 2 "" H 13950 7150 60  0000 C CNN
F 3 "" H 13950 7150 60  0000 C CNN
	1    13950 7150
	1    0    0    -1  
$EndComp
Text Label 14600 6550 2    60   ~ 0
MODE2
$Comp
L CONN_2x1 JP802
U 1 1 57EDF563
P 13900 6550
F 0 "JP802" V 14395 6395 40  0000 C CNN
F 1 "CONN_2x1" V 14340 6510 40  0000 C CNN
F 2 "MyKiCadLibs-Footprints:CONN_SIL_2_1MM" H 14240 6440 60  0001 C CNN
F 3 "" H 14240 6440 60  0000 C CNN
F 4 "1x2 2.54mm pitch pin header" H 14150 6300 40  0001 C CNN "Description"
	1    13900 6550
	-1   0    0    -1  
$EndComp
$Comp
L R R843
U 1 1 57EDF56D
P 13950 6100
F 0 "R843" V 14050 6100 40  0000 C CNN
F 1 "1k" V 13957 6101 40  0000 C CNN
F 2 "MyKiCadLibs-Footprints:SMD-0805" V 13880 6100 30  0001 C CNN
F 3 "" V 13870 6100 30  0000 C CNN
F 4 "100mW" V 14050 6100 40  0001 C CNN "Power"
F 5 "Thick or thin film resistor" V 14195 6100 40  0001 C CNN "Description"
F 6 "0805" V 14125 6100 40  0001 C CNN "Size"
F 7 "1%" V 14275 6100 40  0001 C CNN "Tolerance"
	1    13950 6100
	-1   0    0    -1  
$EndComp
Text Label 7900 3200 2    60   ~ 0
DVDD
$Comp
L GNDD #PWR813
U 1 1 57EF8924
P 7550 3900
F 0 "#PWR813" H 7550 3650 60  0001 C CNN
F 1 "GNDD" H 7550 3750 60  0000 C CNN
F 2 "" H 7550 3900 60  0000 C CNN
F 3 "" H 7550 3900 60  0000 C CNN
	1    7550 3900
	1    0    0    -1  
$EndComp
$Comp
L C C834
U 1 1 57EF8945
P 7850 3500
F 0 "C834" H 7850 3600 40  0000 L CNN
F 1 "10n" H 7860 3415 40  0000 L CNN
F 2 "MyKiCadLibs-Footprints:SMD-0603" H 7888 3350 30  0001 C CNN
F 3 "" H 7850 3600 60  0000 C CNN
F 4 "50V" H 7865 3345 40  0000 L CNN "Voltage"
F 5 "X7R" H 7865 3275 40  0000 L CNN "Type"
F 6 "Ceramic capacitor" H 7850 3800 40  0001 L CNN "Description"
F 7 "10%" H 7920 3135 40  0001 C CNN "Tolerance"
F 8 "0603" H 7860 3205 40  0000 L CNN "Size"
	1    7850 3500
	1    0    0    -1  
$EndComp
$Comp
L C C832
U 1 1 57EF8950
P 7550 3500
F 0 "C832" H 7550 3600 40  0000 L CNN
F 1 "10n" H 7560 3415 40  0000 L CNN
F 2 "MyKiCadLibs-Footprints:SMD-0603" H 7588 3350 30  0001 C CNN
F 3 "" H 7550 3600 60  0000 C CNN
F 4 "50V" H 7565 3345 40  0000 L CNN "Voltage"
F 5 "X7R" H 7565 3275 40  0000 L CNN "Type"
F 6 "Ceramic capacitor" H 7550 3800 40  0001 L CNN "Description"
F 7 "10%" H 7620 3135 40  0001 C CNN "Tolerance"
F 8 "0603" H 7560 3205 40  0000 L CNN "Size"
	1    7550 3500
	1    0    0    -1  
$EndComp
$Comp
L C C840
U 1 1 57EF9A61
P 8150 3500
F 0 "C840" H 8150 3600 40  0000 L CNN
F 1 "10n" H 8160 3415 40  0000 L CNN
F 2 "MyKiCadLibs-Footprints:SMD-0603" H 8188 3350 30  0001 C CNN
F 3 "" H 8150 3600 60  0000 C CNN
F 4 "50V" H 8165 3345 40  0000 L CNN "Voltage"
F 5 "X7R" H 8165 3275 40  0000 L CNN "Type"
F 6 "Ceramic capacitor" H 8150 3800 40  0001 L CNN "Description"
F 7 "10%" H 8220 3135 40  0001 C CNN "Tolerance"
F 8 "0603" H 8160 3205 40  0000 L CNN "Size"
	1    8150 3500
	1    0    0    -1  
$EndComp
$Comp
L C C844
U 1 1 57EF9A6C
P 8450 3500
F 0 "C844" H 8450 3600 40  0000 L CNN
F 1 "10n" H 8460 3415 40  0000 L CNN
F 2 "MyKiCadLibs-Footprints:SMD-0603" H 8488 3350 30  0001 C CNN
F 3 "" H 8450 3600 60  0000 C CNN
F 4 "50V" H 8465 3345 40  0000 L CNN "Voltage"
F 5 "X7R" H 8465 3275 40  0000 L CNN "Type"
F 6 "Ceramic capacitor" H 8450 3800 40  0001 L CNN "Description"
F 7 "10%" H 8520 3135 40  0001 C CNN "Tolerance"
F 8 "0603" H 8460 3205 40  0000 L CNN "Size"
	1    8450 3500
	1    0    0    -1  
$EndComp
$Comp
L C C846
U 1 1 57EF9B50
P 8750 3500
F 0 "C846" H 8750 3600 40  0000 L CNN
F 1 "10n" H 8760 3415 40  0000 L CNN
F 2 "MyKiCadLibs-Footprints:SMD-0603" H 8788 3350 30  0001 C CNN
F 3 "" H 8750 3600 60  0000 C CNN
F 4 "50V" H 8765 3345 40  0000 L CNN "Voltage"
F 5 "X7R" H 8765 3275 40  0000 L CNN "Type"
F 6 "Ceramic capacitor" H 8750 3800 40  0001 L CNN "Description"
F 7 "10%" H 8820 3135 40  0001 C CNN "Tolerance"
F 8 "0603" H 8760 3205 40  0000 L CNN "Size"
	1    8750 3500
	1    0    0    -1  
$EndComp
$Comp
L C C812
U 1 1 57EFBA10
P 3100 1950
F 0 "C812" H 3100 2050 40  0000 L CNN
F 1 "1u" H 3110 1865 40  0000 L CNN
F 2 "MyKiCadLibs-Footprints:SMD-0603" H 3138 1800 30  0001 C CNN
F 3 "" H 3100 2050 60  0000 C CNN
F 4 "10V" H 3115 1795 40  0000 L CNN "Voltage"
F 5 "X7R" H 3115 1725 40  0000 L CNN "Type"
F 6 "Ceramic capacitor" H 3100 2250 40  0001 L CNN "Description"
F 7 "10%" H 3170 1585 40  0001 C CNN "Tolerance"
F 8 "0603" H 3110 1655 40  0000 L CNN "Size"
	1    3100 1950
	1    0    0    -1  
$EndComp
$Comp
L C C867
U 1 1 57F0AC81
P 15050 1800
F 0 "C867" H 15050 1900 40  0000 L CNN
F 1 "10n" H 15060 1715 40  0000 L CNN
F 2 "MyKiCadLibs-Footprints:SMD-0603" H 15088 1650 30  0001 C CNN
F 3 "" H 15050 1900 60  0000 C CNN
F 4 "50V" H 15065 1645 40  0000 L CNN "Voltage"
F 5 "X7R" H 15065 1575 40  0000 L CNN "Type"
F 6 "Ceramic capacitor" H 15050 2100 40  0001 L CNN "Description"
F 7 "10%" H 15120 1435 40  0001 C CNN "Tolerance"
F 8 "0603" H 15060 1505 40  0000 L CNN "Size"
	1    15050 1800
	1    0    0    -1  
$EndComp
$Comp
L GNDD #PWR807
U 1 1 57F148CF
P 4550 2500
F 0 "#PWR807" H 4550 2250 60  0001 C CNN
F 1 "GNDD" H 4550 2350 60  0000 C CNN
F 2 "" H 4550 2500 60  0000 C CNN
F 3 "" H 4550 2500 60  0000 C CNN
	1    4550 2500
	1    0    0    -1  
$EndComp
$Comp
L C C807
U 1 1 57F148E0
P 5250 1950
F 0 "C807" H 5250 2050 40  0000 L CNN
F 1 "22u" H 5260 1865 40  0000 L CNN
F 2 "MyKiCadLibs-Footprints:SMD-0805" H 5288 1800 30  0001 C CNN
F 3 "" H 5250 2050 60  0000 C CNN
F 4 "10V" H 5315 1800 40  0000 C CNN "Voltage"
F 5 "X5R" H 5320 1725 40  0000 C CNN "Type"
F 6 "Ceramic capacitor" H 5250 2250 40  0001 L CNN "Description"
F 7 "20%" H 5650 2450 40  0001 C CNN "Tolerance"
F 8 "0805" H 5250 1950 60  0001 C CNN "Size"
	1    5250 1950
	1    0    0    -1  
$EndComp
$Comp
L C C803
U 1 1 57F148F6
P 4550 2150
F 0 "C803" H 4550 2250 40  0000 L CNN
F 1 "100p" H 4560 2065 40  0000 L CNN
F 2 "MyKiCadLibs-Footprints:SMD-0805" H 4588 2000 30  0001 C CNN
F 3 "" H 4550 2250 60  0000 C CNN
F 4 "50V" H 4615 2000 40  0000 C CNN "Voltage"
F 5 "C0G" H 4620 1925 40  0000 C CNN "Type"
F 6 "Ceramic capacitor" H 4550 2450 40  0001 L CNN "Description"
F 7 "5%" H 4950 2650 40  0001 C CNN "Tolerance"
F 8 "0805" H 4550 2150 60  0001 C CNN "Size"
	1    4550 2150
	1    0    0    -1  
$EndComp
$Comp
L CP1 C805
U 1 1 57F148FF
P 4900 1950
F 0 "C805" H 4950 2050 50  0000 L CNN
F 1 "220u" H 4950 1850 50  0000 L CNN
F 2 "MyKiCadLibs-Footprints:CAP-TH-D6.3mmP2.5mm" H 4900 1950 60  0001 C CNN
F 3 "" H 4900 1950 60  0000 C CNN
F 4 "10V" H 4955 1765 50  0000 L CNN "Voltage"
F 5 "2.5mm pitch, 6.3mm diameter" H 4900 2250 40  0001 L CNN "Type"
F 6 "Low impedance aluminium electrolytic capacitor - Panasonic FC, FR or similar" H 4900 2350 40  0001 L CNN "Description"
	1    4900 1950
	1    0    0    -1  
$EndComp
$Comp
L INDUCTOR L802
U 1 1 57F14908
P 4200 1350
F 0 "L802" V 4150 1350 40  0000 C CNN
F 1 "600R@100MHz" V 4300 1350 40  0000 C CNN
F 2 "MyKiCadLibs-Footprints:SMD-0805" H 4200 1350 60  0001 C CNN
F 3 "" H 4200 1350 60  0000 C CNN
F 4 "=>1A" V 4350 1350 40  0000 C CNN "Current"
F 5 "Ferrite bead, current rating 1A or higher, 600R@100MHz" V 4400 1400 40  0001 C CNN "Description"
F 6 "0805" V 4200 1350 60  0001 C CNN "Size"
	1    4200 1350
	0    -1   -1   0   
$EndComp
$Comp
L R R802
U 1 1 57F14912
P 4550 1650
F 0 "R802" V 4470 1650 40  0000 C CNN
F 1 "47" V 4557 1651 40  0000 C CNN
F 2 "MyKiCadLibs-Footprints:SMD-0805" V 4480 1650 30  0001 C CNN
F 3 "" V 4470 1650 30  0000 C CNN
F 4 "100mW" V 4650 1650 40  0001 C CNN "Power"
F 5 "Thick or thin film resistor" V 4795 1650 40  0001 C CNN "Description"
F 6 "0805" V 4725 1650 40  0001 C CNN "Size"
F 7 "1%" V 4875 1650 40  0001 C CNN "Tolerance"
	1    4550 1650
	1    0    0    -1  
$EndComp
$Comp
L C C811
U 1 1 57F15B49
P 5900 1950
F 0 "C811" H 5900 2050 40  0000 L CNN
F 1 "10n" H 5910 1865 40  0000 L CNN
F 2 "MyKiCadLibs-Footprints:SMD-0603" H 5938 1800 30  0001 C CNN
F 3 "" H 5900 2050 60  0000 C CNN
F 4 "50V" H 5915 1795 40  0000 L CNN "Voltage"
F 5 "X7R" H 5915 1725 40  0000 L CNN "Type"
F 6 "Ceramic capacitor" H 5900 2250 40  0001 L CNN "Description"
F 7 "10%" H 5970 1585 40  0001 C CNN "Tolerance"
F 8 "0603" H 5910 1655 40  0000 L CNN "Size"
	1    5900 1950
	1    0    0    -1  
$EndComp
Text Label 3600 1350 2    60   ~ 0
DVDD
Text Label 5900 1350 2    60   ~ 0
USB_VDD
Text Label 5900 10200 0    60   ~ 0
USB_VDD
Text Label 5900 9700 0    60   ~ 0
IOVDD
$Comp
L GNDD #PWR812
U 1 1 57F22872
P 7000 2500
F 0 "#PWR812" H 7000 2250 60  0001 C CNN
F 1 "GNDD" H 7000 2350 60  0000 C CNN
F 2 "" H 7000 2500 60  0000 C CNN
F 3 "" H 7000 2500 60  0000 C CNN
	1    7000 2500
	1    0    0    -1  
$EndComp
$Comp
L C C820
U 1 1 57F22883
P 7700 1950
F 0 "C820" H 7700 2050 40  0000 L CNN
F 1 "22u" H 7710 1865 40  0000 L CNN
F 2 "MyKiCadLibs-Footprints:SMD-0805" H 7738 1800 30  0001 C CNN
F 3 "" H 7700 2050 60  0000 C CNN
F 4 "10V" H 7765 1800 40  0000 C CNN "Voltage"
F 5 "X5R" H 7770 1725 40  0000 C CNN "Type"
F 6 "Ceramic capacitor" H 7700 2250 40  0001 L CNN "Description"
F 7 "20%" H 8100 2450 40  0001 C CNN "Tolerance"
F 8 "0805" H 7700 1950 60  0001 C CNN "Size"
	1    7700 1950
	1    0    0    -1  
$EndComp
$Comp
L C C816
U 1 1 57F22899
P 7000 2150
F 0 "C816" H 7000 2250 40  0000 L CNN
F 1 "100p" H 7010 2065 40  0000 L CNN
F 2 "MyKiCadLibs-Footprints:SMD-0805" H 7038 2000 30  0001 C CNN
F 3 "" H 7000 2250 60  0000 C CNN
F 4 "50V" H 7065 2000 40  0000 C CNN "Voltage"
F 5 "C0G" H 7070 1925 40  0000 C CNN "Type"
F 6 "Ceramic capacitor" H 7000 2450 40  0001 L CNN "Description"
F 7 "5%" H 7400 2650 40  0001 C CNN "Tolerance"
F 8 "0805" H 7000 2150 60  0001 C CNN "Size"
	1    7000 2150
	1    0    0    -1  
$EndComp
$Comp
L CP1 C818
U 1 1 57F228A2
P 7350 1950
F 0 "C818" H 7400 2050 50  0000 L CNN
F 1 "220u" H 7400 1850 50  0000 L CNN
F 2 "MyKiCadLibs-Footprints:CAP-TH-D6.3mmP2.5mm" H 7350 1950 60  0001 C CNN
F 3 "" H 7350 1950 60  0000 C CNN
F 4 "10V" H 7405 1765 50  0000 L CNN "Voltage"
F 5 "2.5mm pitch, 6.3mm diameter" H 7350 2250 40  0001 L CNN "Type"
F 6 "Low impedance aluminium electrolytic capacitor - Panasonic FC, FR or similar" H 7350 2350 40  0001 L CNN "Description"
	1    7350 1950
	1    0    0    -1  
$EndComp
$Comp
L INDUCTOR L803
U 1 1 57F228AB
P 6650 1350
F 0 "L803" V 6600 1350 40  0000 C CNN
F 1 "600R@100MHz" V 6750 1350 40  0000 C CNN
F 2 "MyKiCadLibs-Footprints:SMD-0805" H 6650 1350 60  0001 C CNN
F 3 "" H 6650 1350 60  0000 C CNN
F 4 "=>1A" V 6800 1350 40  0000 C CNN "Current"
F 5 "Ferrite bead, current rating 1A or higher, 600R@100MHz" V 6850 1400 40  0001 C CNN "Description"
F 6 "0805" V 6650 1350 60  0001 C CNN "Size"
	1    6650 1350
	0    -1   -1   0   
$EndComp
$Comp
L R R817
U 1 1 57F228B5
P 7000 1650
F 0 "R817" V 6920 1650 40  0000 C CNN
F 1 "47" V 7007 1651 40  0000 C CNN
F 2 "MyKiCadLibs-Footprints:SMD-0805" V 6930 1650 30  0001 C CNN
F 3 "" V 6920 1650 30  0000 C CNN
F 4 "100mW" V 7100 1650 40  0001 C CNN "Power"
F 5 "Thick or thin film resistor" V 7245 1650 40  0001 C CNN "Description"
F 6 "0805" V 7175 1650 40  0001 C CNN "Size"
F 7 "1%" V 7325 1650 40  0001 C CNN "Tolerance"
	1    7000 1650
	1    0    0    -1  
$EndComp
$Comp
L C C824
U 1 1 57F228D4
P 8350 1950
F 0 "C824" H 8350 2050 40  0000 L CNN
F 1 "10n" H 8360 1865 40  0000 L CNN
F 2 "MyKiCadLibs-Footprints:SMD-0603" H 8388 1800 30  0001 C CNN
F 3 "" H 8350 2050 60  0000 C CNN
F 4 "50V" H 8365 1795 40  0000 L CNN "Voltage"
F 5 "X7R" H 8365 1725 40  0000 L CNN "Type"
F 6 "Ceramic capacitor" H 8350 2250 40  0001 L CNN "Description"
F 7 "10%" H 8420 1585 40  0001 C CNN "Tolerance"
F 8 "0603" H 8360 1655 40  0000 L CNN "Size"
	1    8350 1950
	1    0    0    -1  
$EndComp
Text Label 7950 1350 2    60   ~ 0
PLL_VDD
Text Label 5900 10400 0    60   ~ 0
PLL_VDD
$Comp
L GNDD #PWR811
U 1 1 57F274A5
P 6600 10700
F 0 "#PWR811" H 6600 10450 60  0001 C CNN
F 1 "GNDD" H 6600 10550 60  0000 C CNN
F 2 "" H 6600 10700 60  0000 C CNN
F 3 "" H 6600 10700 60  0000 C CNN
	1    6600 10700
	1    0    0    -1  
$EndComp
Text Label 5900 10600 0    60   ~ 0
IOVDD
$Comp
L R R876
U 1 1 57F2C30C
P 6100 10750
F 0 "R876" V 6050 11050 40  0000 C CNN
F 1 "43R2" V 6107 10751 40  0000 C CNN
F 2 "MyKiCadLibs-Footprints:SMD-0805" V 6030 10750 30  0001 C CNN
F 3 "" V 6020 10750 30  0000 C CNN
F 4 "100mW" V 6200 10750 40  0001 C CNN "Power"
F 5 "Thick or thin film resistor" V 6345 10750 40  0001 C CNN "Description"
F 6 "0805" V 6275 10750 40  0001 C CNN "Size"
F 7 "1%" V 6425 10750 40  0001 C CNN "Tolerance"
	1    6100 10750
	0    -1   1    0   
$EndComp
$Comp
L GNDD #PWR809
U 1 1 57F2C5EF
P 5750 10850
F 0 "#PWR809" H 5750 10600 60  0001 C CNN
F 1 "GNDD" H 5750 10700 60  0000 C CNN
F 2 "" H 5750 10850 60  0000 C CNN
F 3 "" H 5750 10850 60  0000 C CNN
	1    5750 10850
	1    0    0    -1  
$EndComp
$Comp
L PIN TP803
U 1 1 57F30938
P 6050 9600
F 0 "TP803" H 6350 9600 40  0000 L CNN
F 1 "PIN" H 6310 9565 40  0001 L CNN
F 2 "MyKiCadLibs-Footprints:TP-1mm" H 6390 9490 60  0001 C CNN
F 3 "" H 6390 9490 60  0000 C CNN
F 4 "Text description" H 6315 9505 40  0001 L CNN "Description"
	1    6050 9600
	-1   0    0    1   
$EndComp
$Comp
L +1V0 #PWR801
U 1 1 57F40412
P 800 1200
F 0 "#PWR801" H 800 1050 50  0001 C CNN
F 1 "+1V0" H 800 1340 50  0000 C CNN
F 2 "" H 800 1200 50  0000 C CNN
F 3 "" H 800 1200 50  0000 C CNN
	1    800  1200
	1    0    0    -1  
$EndComp
$Comp
L +1V0 #PWR806
U 1 1 57F40E17
P 3800 1200
F 0 "#PWR806" H 3800 1050 50  0001 C CNN
F 1 "+1V0" H 3800 1340 50  0000 C CNN
F 2 "" H 3800 1200 50  0000 C CNN
F 3 "" H 3800 1200 50  0000 C CNN
	1    3800 1200
	1    0    0    -1  
$EndComp
$Comp
L +1V0 #PWR810
U 1 1 57F41041
P 6250 1200
F 0 "#PWR810" H 6250 1050 50  0001 C CNN
F 1 "+1V0" H 6250 1340 50  0000 C CNN
F 2 "" H 6250 1200 50  0000 C CNN
F 3 "" H 6250 1200 50  0000 C CNN
	1    6250 1200
	1    0    0    -1  
$EndComp
$Comp
L +3V3 #PWR814
U 1 1 57F4577F
P 8650 1050
F 0 "#PWR814" H 8650 900 50  0001 C CNN
F 1 "+3V3" H 8650 1190 50  0000 C CNN
F 2 "" H 8650 1050 50  0000 C CNN
F 3 "" H 8650 1050 50  0000 C CNN
	1    8650 1050
	1    0    0    -1  
$EndComp
$Comp
L +3V3 #PWR822
U 1 1 57F459B0
P 12750 1050
F 0 "#PWR822" H 12750 900 50  0001 C CNN
F 1 "+3V3" H 12750 1190 50  0000 C CNN
F 2 "" H 12750 1050 50  0000 C CNN
F 3 "" H 12750 1050 50  0000 C CNN
	1    12750 1050
	1    0    0    -1  
$EndComp
$Comp
L +3V3 #PWR818
U 1 1 57F48DD6
P 12650 5750
F 0 "#PWR818" H 12650 5600 50  0001 C CNN
F 1 "+3V3" H 12650 5890 50  0000 C CNN
F 2 "" H 12650 5750 50  0000 C CNN
F 3 "" H 12650 5750 50  0000 C CNN
	1    12650 5750
	1    0    0    -1  
$EndComp
$Comp
L +3V3 #PWR824
U 1 1 57F4C233
P 13950 5750
F 0 "#PWR824" H 13950 5600 50  0001 C CNN
F 1 "+3V3" H 13950 5890 50  0000 C CNN
F 2 "" H 13950 5750 50  0000 C CNN
F 3 "" H 13950 5750 50  0000 C CNN
	1    13950 5750
	1    0    0    -1  
$EndComp
$Comp
L +3V3 #PWR817
U 1 1 57F4C3A8
P 12200 3250
F 0 "#PWR817" H 12200 3100 50  0001 C CNN
F 1 "+3V3" H 12200 3390 50  0000 C CNN
F 2 "" H 12200 3250 50  0000 C CNN
F 3 "" H 12200 3250 50  0000 C CNN
	1    12200 3250
	1    0    0    -1  
$EndComp
$Comp
L +3V3 #PWR802
U 1 1 57F4FFEB
P 1450 8800
F 0 "#PWR802" H 1450 8650 50  0001 C CNN
F 1 "+3V3" H 1450 8940 50  0000 C CNN
F 2 "" H 1450 8800 50  0000 C CNN
F 3 "" H 1450 8800 50  0000 C CNN
	1    1450 8800
	1    0    0    -1  
$EndComp
$Comp
L +3V3 #PWR830
U 1 1 57F519DB
P 14800 3750
F 0 "#PWR830" H 14800 3600 50  0001 C CNN
F 1 "+3V3" H 14800 3890 50  0000 C CNN
F 2 "" H 14800 3750 50  0000 C CNN
F 3 "" H 14800 3750 50  0000 C CNN
	1    14800 3750
	1    0    0    -1  
$EndComp
Text Label 2900 9550 2    60   ~ 0
I2C2_SDA
Text Label 2900 9450 2    60   ~ 0
I2C2_SCL
Text Label 2900 10550 2    60   ~ 0
I2C1_SDA
Text Label 2900 10450 2    60   ~ 0
I2C1_SCL
$Comp
L R R818
U 1 1 57F89336
P 2050 10200
F 0 "R818" V 2150 10200 40  0000 C CNN
F 1 "2k2" V 2057 10201 40  0000 C CNN
F 2 "MyKiCadLibs-Footprints:SMD-0805" V 1980 10200 30  0001 C CNN
F 3 "" V 1970 10200 30  0000 C CNN
F 4 "100mW" V 2150 10200 40  0001 C CNN "Power"
F 5 "Thick or thin film resistor" V 2295 10200 40  0001 C CNN "Description"
F 6 "0805" V 2225 10200 40  0001 C CNN "Size"
F 7 "1%" V 2375 10200 40  0001 C CNN "Tolerance"
	1    2050 10200
	-1   0    0    -1  
$EndComp
$Comp
L R R819
U 1 1 57F89340
P 2250 10200
F 0 "R819" V 2350 10200 40  0000 C CNN
F 1 "2k2" V 2257 10201 40  0000 C CNN
F 2 "MyKiCadLibs-Footprints:SMD-0805" V 2180 10200 30  0001 C CNN
F 3 "" V 2170 10200 30  0000 C CNN
F 4 "100mW" V 2350 10200 40  0001 C CNN "Power"
F 5 "Thick or thin film resistor" V 2495 10200 40  0001 C CNN "Description"
F 6 "0805" V 2425 10200 40  0001 C CNN "Size"
F 7 "1%" V 2575 10200 40  0001 C CNN "Tolerance"
	1    2250 10200
	-1   0    0    -1  
$EndComp
$Comp
L +3V3 #PWR803
U 1 1 57F89352
P 1450 9800
F 0 "#PWR803" H 1450 9650 50  0001 C CNN
F 1 "+3V3" H 1450 9940 50  0000 C CNN
F 2 "" H 1450 9800 50  0000 C CNN
F 3 "" H 1450 9800 50  0000 C CNN
	1    1450 9800
	1    0    0    -1  
$EndComp
Text Label 2400 7350 2    60   ~ 0
I2C2_SCL
Text Label 2400 7450 2    60   ~ 0
I2C2_SDA
Text Label 2400 7250 2    60   ~ 0
I2C1_SDA
Text Label 2400 7150 2    60   ~ 0
I2C1_SCL
Text HLabel 9150 8050 2    60   Input ~ 0
ETH_RX3
$Comp
L C C849
U 1 1 57E661CD
P 7200 3500
F 0 "C849" H 7200 3600 40  0000 L CNN
F 1 "100n" H 7210 3415 40  0000 L CNN
F 2 "MyKiCadLibs-Footprints:SMD-0603" H 7238 3350 30  0001 C CNN
F 3 "" H 7200 3600 60  0000 C CNN
F 4 "50V" H 7215 3345 40  0000 L CNN "Voltage"
F 5 "X7R" H 7215 3275 40  0000 L CNN "Type"
F 6 "Ceramic capacitor" H 7200 3800 40  0001 L CNN "Description"
F 7 "10%" H 7270 3135 40  0001 C CNN "Tolerance"
F 8 "0603" H 7210 3205 40  0000 L CNN "Size"
	1    7200 3500
	1    0    0    -1  
$EndComp
$Comp
L C C850
U 1 1 57E66414
P 9050 3500
F 0 "C850" H 9050 3600 40  0000 L CNN
F 1 "10n" H 9060 3415 40  0000 L CNN
F 2 "MyKiCadLibs-Footprints:SMD-0603" H 9088 3350 30  0001 C CNN
F 3 "" H 9050 3600 60  0000 C CNN
F 4 "50V" H 9065 3345 40  0000 L CNN "Voltage"
F 5 "X7R" H 9065 3275 40  0000 L CNN "Type"
F 6 "Ceramic capacitor" H 9050 3800 40  0001 L CNN "Description"
F 7 "10%" H 9120 3135 40  0001 C CNN "Tolerance"
F 8 "0603" H 9060 3205 40  0000 L CNN "Size"
	1    9050 3500
	1    0    0    -1  
$EndComp
Text Label 5950 9900 0    60   ~ 0
USBD_P
Text Label 5950 10000 0    60   ~ 0
USBD_N
Text Label 9550 5000 2    60   ~ 0
MODE2
Text Label 13300 6550 2    60   ~ 0
MODE1
$Comp
L C C823
U 1 1 586979CF
P 8000 1950
F 0 "C823" H 8000 2050 40  0000 L CNN
F 1 "100n" H 8010 1865 40  0000 L CNN
F 2 "MyKiCadLibs-Footprints:SMD-0603" H 8038 1800 30  0001 C CNN
F 3 "" H 8000 2050 60  0000 C CNN
F 4 "50V" H 8015 1795 40  0000 L CNN "Voltage"
F 5 "X7R" H 8015 1725 40  0000 L CNN "Type"
F 6 "Ceramic capacitor" H 8000 2250 40  0001 L CNN "Description"
F 7 "10%" H 8070 1585 40  0001 C CNN "Tolerance"
F 8 "0603" H 8010 1655 40  0000 L CNN "Size"
	1    8000 1950
	1    0    0    -1  
$EndComp
$Comp
L C C809
U 1 1 5869D15D
P 5550 1950
F 0 "C809" H 5550 2050 40  0000 L CNN
F 1 "100n" H 5560 1865 40  0000 L CNN
F 2 "MyKiCadLibs-Footprints:SMD-0603" H 5588 1800 30  0001 C CNN
F 3 "" H 5550 2050 60  0000 C CNN
F 4 "50V" H 5565 1795 40  0000 L CNN "Voltage"
F 5 "X7R" H 5565 1725 40  0000 L CNN "Type"
F 6 "Ceramic capacitor" H 5550 2250 40  0001 L CNN "Description"
F 7 "10%" H 5620 1585 40  0001 C CNN "Tolerance"
F 8 "0603" H 5560 1655 40  0000 L CNN "Size"
	1    5550 1950
	1    0    0    -1  
$EndComp
Wire Wire Line
	1800 7800 2400 7800
Wire Wire Line
	1800 7900 2400 7900
Wire Wire Line
	1800 8100 2400 8100
Wire Wire Line
	1800 8000 2400 8000
Wire Wire Line
	1750 7250 2400 7250
Wire Wire Line
	1750 7150 2400 7150
Wire Wire Line
	9700 2000 9700 2300
Connection ~ 12650 6550
Wire Wire Line
	12600 6550 13300 6550
Wire Wire Line
	14800 4400 14800 4350
Connection ~ 14500 3900
Wire Wire Line
	14800 3750 14800 3950
Wire Wire Line
	5150 5600 6650 5600
Wire Wire Line
	5150 5700 6650 5700
Wire Wire Line
	5150 5800 6650 5800
Wire Wire Line
	8150 4500 9650 4500
Wire Wire Line
	8150 4600 9650 4600
Wire Wire Line
	8150 4700 9650 4700
Wire Wire Line
	1450 8800 1450 8900
Wire Wire Line
	2050 9550 2050 9450
Connection ~ 2050 8900
Wire Wire Line
	2050 8900 2050 8950
Wire Wire Line
	2250 8900 2250 8950
Wire Wire Line
	1450 8900 2250 8900
Wire Wire Line
	2050 9550 2900 9550
Wire Wire Line
	2250 9450 2900 9450
Wire Wire Line
	12100 4200 12300 4200
Wire Wire Line
	12100 4300 12100 4200
Wire Wire Line
	14500 4350 14500 4400
Wire Wire Line
	14500 3900 14500 3950
Wire Wire Line
	8150 5700 9650 5700
Wire Wire Line
	8150 5800 9650 5800
Wire Wire Line
	8150 5900 9650 5900
Wire Wire Line
	12650 5850 12650 5750
Wire Wire Line
	12650 6550 12650 6350
Wire Wire Line
	12650 6650 12600 6650
Wire Wire Line
	12650 6650 12650 7150
Wire Wire Line
	9700 1200 9700 1600
Connection ~ 11250 1200
Connection ~ 11500 1200
Connection ~ 11800 1200
Connection ~ 12050 1200
Connection ~ 12050 2300
Connection ~ 11800 2300
Connection ~ 11500 2300
Connection ~ 11250 2300
Wire Wire Line
	12050 1200 12050 1600
Wire Wire Line
	12050 2300 12050 2000
Wire Wire Line
	11500 1200 11500 1600
Wire Wire Line
	11500 2300 11500 2000
Wire Wire Line
	8650 1200 8700 1200
Wire Wire Line
	8650 1050 8650 1200
Connection ~ 10950 1200
Connection ~ 10700 1200
Wire Wire Line
	10950 1200 10950 1600
Connection ~ 10950 2300
Connection ~ 10700 2300
Wire Wire Line
	10950 2300 10950 2000
Connection ~ 10050 2300
Connection ~ 9400 2300
Wire Wire Line
	10050 2300 10050 2000
Wire Wire Line
	9400 2200 9400 2350
Connection ~ 10050 1200
Connection ~ 9400 1200
Wire Wire Line
	10050 1200 10050 1600
Wire Wire Line
	9400 1750 9400 1800
Wire Wire Line
	9400 1200 9400 1250
Wire Wire Line
	800  1350 900  1350
Wire Wire Line
	800  1200 800  1350
Connection ~ 3350 1350
Wire Wire Line
	3350 1350 3350 1750
Wire Wire Line
	3350 2450 3350 2150
Connection ~ 3100 1350
Wire Wire Line
	3100 1350 3100 1750
Connection ~ 2850 1350
Wire Wire Line
	2850 1350 2850 1750
Connection ~ 3100 2450
Wire Wire Line
	3100 2450 3100 2150
Connection ~ 2850 2450
Wire Wire Line
	2850 2450 2850 2150
Wire Wire Line
	2550 2450 2550 2150
Wire Wire Line
	2550 1350 2550 1750
Connection ~ 2250 2450
Connection ~ 1900 2450
Wire Wire Line
	2250 2450 2250 2150
Connection ~ 1550 2450
Wire Wire Line
	1900 2450 1900 2150
Wire Wire Line
	1550 2350 1550 2500
Connection ~ 2250 1350
Connection ~ 1900 1350
Wire Wire Line
	2250 1350 2250 1750
Connection ~ 1550 1350
Wire Wire Line
	1900 1350 1900 1750
Wire Wire Line
	1550 1900 1550 1950
Wire Wire Line
	1550 1350 1550 1400
Wire Wire Line
	10350 1200 10350 1600
Connection ~ 10350 1200
Wire Wire Line
	10350 2300 10350 2000
Connection ~ 10350 2300
Connection ~ 2550 1350
Connection ~ 2550 2450
Wire Wire Line
	14200 4350 14200 4400
Wire Wire Line
	14200 3900 14200 3950
Connection ~ 14200 3900
Connection ~ 9700 2300
Connection ~ 9700 1200
Wire Wire Line
	10700 1200 10700 1600
Wire Wire Line
	10700 2300 10700 2000
Wire Wire Line
	11250 1200 11250 1600
Wire Wire Line
	11250 2300 11250 2000
Wire Wire Line
	11800 1200 11800 1600
Wire Wire Line
	11800 2300 11800 2000
Wire Wire Line
	12350 1200 12350 1600
Wire Wire Line
	12350 2300 12350 2000
Wire Wire Line
	1450 4500 1900 4500
Wire Wire Line
	1900 4600 1850 4600
Wire Wire Line
	1850 4500 1850 5450
Connection ~ 1850 4500
Wire Wire Line
	1850 4700 1900 4700
Connection ~ 1850 4600
Wire Wire Line
	1850 4800 1900 4800
Connection ~ 1850 4700
Wire Wire Line
	1850 4900 1900 4900
Connection ~ 1850 4800
Wire Wire Line
	1850 5050 1900 5050
Connection ~ 1850 4900
Wire Wire Line
	1850 5150 1900 5150
Connection ~ 1850 5050
Wire Wire Line
	1850 5250 1900 5250
Connection ~ 1850 5150
Wire Wire Line
	1850 5350 1900 5350
Connection ~ 1850 5250
Wire Wire Line
	1850 5450 1900 5450
Connection ~ 1850 5350
Wire Wire Line
	13800 2000 13800 2300
Wire Wire Line
	13800 1200 13800 1600
Wire Wire Line
	12750 1200 12800 1200
Connection ~ 14150 2300
Connection ~ 13500 2300
Wire Wire Line
	14150 2300 14150 2000
Wire Wire Line
	13500 2200 13500 2350
Connection ~ 14150 1200
Connection ~ 13500 1200
Wire Wire Line
	14150 1200 14150 1600
Wire Wire Line
	13500 1750 13500 1800
Wire Wire Line
	13500 1200 13500 1250
Wire Wire Line
	14450 1200 14450 1600
Connection ~ 14450 1200
Wire Wire Line
	14450 2300 14450 2000
Connection ~ 14450 2300
Connection ~ 13800 2300
Connection ~ 13800 1200
Wire Wire Line
	12750 1200 12750 1050
Wire Wire Line
	1450 5600 1900 5600
Wire Wire Line
	1900 5700 1850 5700
Wire Wire Line
	1850 5700 1850 5600
Connection ~ 1850 5600
Wire Wire Line
	14750 1200 14750 1600
Wire Wire Line
	14750 2300 14750 2000
Wire Wire Line
	15050 1200 15050 1600
Wire Wire Line
	15050 2300 15050 2000
Connection ~ 14750 1200
Connection ~ 14750 2300
Wire Wire Line
	5700 3300 5700 3200
Wire Wire Line
	5700 3700 5700 3900
Wire Wire Line
	6000 3300 6000 3200
Connection ~ 6000 3200
Wire Wire Line
	6000 3700 6000 3850
Connection ~ 5700 3850
Wire Wire Line
	6300 3850 6300 3700
Connection ~ 6000 3850
Wire Wire Line
	6300 3200 6300 3300
Wire Wire Line
	6900 3850 6900 3700
Wire Wire Line
	6900 3200 6900 3300
Wire Wire Line
	6600 3200 6600 3300
Wire Wire Line
	6600 3850 6600 3700
Connection ~ 6600 3200
Connection ~ 6300 3200
Connection ~ 6300 3850
Connection ~ 6600 3850
Wire Wire Line
	7200 3200 7200 3300
Connection ~ 6900 3200
Wire Wire Line
	7200 3850 7200 3700
Connection ~ 6900 3850
Wire Wire Line
	3300 4500 3750 4500
Wire Wire Line
	3300 4600 3350 4600
Wire Wire Line
	3350 4500 3350 6000
Connection ~ 3350 4500
Wire Wire Line
	3350 4700 3300 4700
Connection ~ 3350 4600
Wire Wire Line
	3350 4800 3300 4800
Connection ~ 3350 4700
Wire Wire Line
	3350 4900 3300 4900
Connection ~ 3350 4800
Wire Wire Line
	3350 5000 3300 5000
Connection ~ 3350 4900
Wire Wire Line
	3350 5100 3300 5100
Connection ~ 3350 5000
Wire Wire Line
	3350 5200 3300 5200
Connection ~ 3350 5100
Wire Wire Line
	3350 5300 3300 5300
Connection ~ 3350 5200
Wire Wire Line
	3350 5400 3300 5400
Connection ~ 3350 5300
Wire Wire Line
	3350 5500 3300 5500
Connection ~ 3350 5400
Wire Wire Line
	3350 5600 3300 5600
Connection ~ 3350 5500
Wire Wire Line
	3350 5700 3300 5700
Connection ~ 3350 5600
Wire Wire Line
	3350 5800 3300 5800
Connection ~ 3350 5700
Wire Wire Line
	3350 5900 3300 5900
Connection ~ 3350 5800
Wire Wire Line
	3350 6000 3300 6000
Connection ~ 3350 5900
Wire Wire Line
	1850 6050 1850 6000
Wire Wire Line
	1850 6000 1900 6000
Wire Wire Line
	1500 1350 3600 1350
Wire Wire Line
	1550 2450 3350 2450
Wire Wire Line
	6650 5500 6550 5500
Wire Wire Line
	6650 5200 6550 5200
Wire Wire Line
	6650 5100 6550 5100
Wire Wire Line
	6550 5000 6650 5000
Wire Wire Line
	6650 4900 6550 4900
Wire Wire Line
	6550 4600 6650 4600
Wire Wire Line
	5250 4600 6050 4600
Wire Wire Line
	5250 4900 6050 4900
Wire Wire Line
	5250 5000 6050 5000
Wire Wire Line
	5250 5100 6050 5100
Wire Wire Line
	5250 5200 6050 5200
Wire Wire Line
	5250 5500 6050 5500
Wire Wire Line
	13450 3900 14800 3900
Wire Wire Line
	11600 3900 12300 3900
Wire Wire Line
	12200 3900 12200 3800
Wire Wire Line
	14000 4200 13450 4200
Wire Wire Line
	11600 4000 12300 4000
Wire Wire Line
	11600 4100 12300 4100
Wire Wire Line
	14000 4000 13450 4000
Wire Wire Line
	14050 4100 13450 4100
Connection ~ 12200 3900
Connection ~ 14800 3900
Wire Wire Line
	12200 3250 12200 3300
Wire Wire Line
	8300 9600 8100 9600
Wire Wire Line
	8100 9700 8300 9700
Wire Wire Line
	8300 9800 8100 9800
Wire Wire Line
	8100 9900 8300 9900
Wire Wire Line
	8950 9600 8800 9600
Wire Wire Line
	8800 9700 8950 9700
Wire Wire Line
	8950 9800 8800 9800
Wire Wire Line
	8800 9900 8950 9900
Wire Wire Line
	8300 10000 8100 10000
Wire Wire Line
	8950 10000 8800 10000
Wire Wire Line
	8300 10100 8100 10100
Wire Wire Line
	8950 10100 8800 10100
Wire Wire Line
	8300 10250 8100 10250
Wire Wire Line
	8950 10250 8800 10250
Wire Wire Line
	9650 6300 8150 6300
Wire Wire Line
	8150 6400 9650 6400
Wire Wire Line
	9650 6500 8750 6500
Wire Wire Line
	8750 6600 9650 6600
Wire Wire Line
	8250 6500 8150 6500
Wire Wire Line
	8150 6600 8250 6600
Wire Wire Line
	6550 4500 6650 4500
Wire Wire Line
	5150 4500 6050 4500
Wire Wire Line
	8150 7550 9150 7550
Wire Wire Line
	9150 7350 8750 7350
Wire Wire Line
	9150 7450 8750 7450
Wire Wire Line
	8150 7650 9150 7650
Wire Wire Line
	8150 7750 9150 7750
Wire Wire Line
	8150 7850 9150 7850
Wire Wire Line
	8150 7950 9150 7950
Wire Wire Line
	5650 7450 6650 7450
Wire Wire Line
	9150 8950 8750 8950
Wire Wire Line
	9150 8850 8750 8850
Wire Wire Line
	9150 8750 8750 8750
Wire Wire Line
	9150 8650 8750 8650
Wire Wire Line
	8250 8950 8150 8950
Wire Wire Line
	8150 8850 8250 8850
Wire Wire Line
	8250 8750 8150 8750
Wire Wire Line
	8150 8650 8250 8650
Wire Wire Line
	8250 7450 8150 7450
Wire Wire Line
	8150 7350 8250 7350
Wire Wire Line
	5650 7350 5800 7350
Wire Wire Line
	6650 7350 6300 7350
Wire Wire Line
	5800 8150 5650 8150
Wire Wire Line
	6300 8150 6650 8150
Wire Wire Line
	5800 8250 5650 8250
Wire Wire Line
	6300 8250 6650 8250
Wire Wire Line
	5850 9800 6700 9800
Wire Wire Line
	5850 9900 6700 9900
Wire Wire Line
	5850 10000 6700 10000
Wire Wire Line
	6550 4800 6650 4800
Wire Wire Line
	6650 4700 6550 4700
Wire Wire Line
	5250 4700 6050 4700
Wire Wire Line
	5250 4800 6050 4800
Wire Wire Line
	6550 5400 6650 5400
Wire Wire Line
	6650 5300 6550 5300
Wire Wire Line
	5250 5300 6050 5300
Wire Wire Line
	5250 5400 6050 5400
Wire Wire Line
	8150 6000 9650 6000
Wire Wire Line
	8150 4800 9650 4800
Wire Wire Line
	8150 6100 9650 6100
Wire Wire Line
	8150 6200 8250 6200
Wire Wire Line
	8750 6200 9650 6200
Wire Wire Line
	9150 8150 8750 8150
Wire Wire Line
	8250 8150 8150 8150
Wire Wire Line
	9150 8250 8750 8250
Wire Wire Line
	8150 8250 8250 8250
Wire Wire Line
	9150 8350 8750 8350
Wire Wire Line
	8150 8450 9150 8450
Wire Wire Line
	8150 8350 8250 8350
Wire Wire Line
	5650 7150 6650 7150
Wire Wire Line
	8150 4900 9550 4900
Wire Wire Line
	8150 5000 9550 5000
Wire Wire Line
	6650 8750 5150 8750
Wire Wire Line
	6650 8850 5150 8850
Wire Wire Line
	6650 8550 5150 8550
Wire Wire Line
	6650 8650 5150 8650
Wire Wire Line
	5150 5900 6650 5900
Wire Wire Line
	5150 6000 6650 6000
Wire Wire Line
	5150 6100 6650 6100
Wire Wire Line
	5150 6500 6650 6500
Wire Wire Line
	5150 6600 6650 6600
Connection ~ 13950 6550
Wire Wire Line
	13900 6550 14600 6550
Wire Wire Line
	13950 5850 13950 5750
Wire Wire Line
	13950 6550 13950 6350
Wire Wire Line
	13950 6650 13900 6650
Wire Wire Line
	13950 6650 13950 7150
Wire Wire Line
	7550 3300 7550 3200
Wire Wire Line
	7550 3700 7550 3900
Wire Wire Line
	7850 3300 7850 3200
Connection ~ 7850 3200
Wire Wire Line
	7850 3700 7850 3850
Connection ~ 7550 3850
Wire Wire Line
	8150 3850 8150 3700
Connection ~ 7850 3850
Wire Wire Line
	8150 3200 8150 3300
Wire Wire Line
	8750 3850 8750 3700
Wire Wire Line
	8750 3200 8750 3300
Wire Wire Line
	8450 3200 8450 3300
Wire Wire Line
	8450 3850 8450 3700
Connection ~ 8450 3200
Connection ~ 8150 3200
Connection ~ 8150 3850
Connection ~ 8450 3850
Wire Wire Line
	9050 3200 9050 3300
Connection ~ 8750 3200
Wire Wire Line
	9050 3850 9050 3700
Connection ~ 8750 3850
Wire Wire Line
	3800 1350 3900 1350
Wire Wire Line
	3800 1200 3800 1350
Wire Wire Line
	5550 2450 5550 2150
Wire Wire Line
	5550 1350 5550 1750
Connection ~ 5250 2450
Connection ~ 4900 2450
Wire Wire Line
	5250 2450 5250 2150
Connection ~ 4550 2450
Wire Wire Line
	4900 2450 4900 2150
Wire Wire Line
	4550 2350 4550 2500
Connection ~ 5250 1350
Connection ~ 4900 1350
Wire Wire Line
	5250 1350 5250 1750
Connection ~ 4550 1350
Wire Wire Line
	4900 1350 4900 1750
Wire Wire Line
	4550 1900 4550 1950
Wire Wire Line
	4550 1350 4550 1400
Connection ~ 5550 1350
Connection ~ 5550 2450
Wire Wire Line
	5900 1350 5900 1750
Wire Wire Line
	4500 1350 5900 1350
Wire Wire Line
	5900 2450 5900 2150
Wire Wire Line
	4550 2450 5900 2450
Wire Wire Line
	6700 10200 5900 10200
Wire Wire Line
	5900 9700 6700 9700
Wire Wire Line
	6250 1350 6350 1350
Wire Wire Line
	6250 1200 6250 1350
Wire Wire Line
	8000 2450 8000 2150
Wire Wire Line
	8000 1350 8000 1750
Connection ~ 7700 2450
Connection ~ 7350 2450
Wire Wire Line
	7700 2450 7700 2150
Connection ~ 7000 2450
Wire Wire Line
	7350 2450 7350 2150
Wire Wire Line
	7000 2350 7000 2500
Connection ~ 7700 1350
Connection ~ 7350 1350
Wire Wire Line
	7700 1350 7700 1750
Connection ~ 7000 1350
Wire Wire Line
	7350 1350 7350 1750
Wire Wire Line
	7000 1900 7000 1950
Wire Wire Line
	7000 1350 7000 1400
Connection ~ 8000 1350
Connection ~ 8000 2450
Wire Wire Line
	8350 1350 8350 1750
Wire Wire Line
	6950 1350 8350 1350
Wire Wire Line
	8350 2450 8350 2150
Wire Wire Line
	7000 2450 8350 2450
Wire Wire Line
	5900 10400 6700 10400
Wire Wire Line
	6600 10700 6600 10500
Wire Wire Line
	6600 10500 6700 10500
Wire Wire Line
	5900 10600 6700 10600
Wire Wire Line
	5750 10850 5750 10750
Wire Wire Line
	5750 10750 5850 10750
Wire Wire Line
	6350 10750 6450 10750
Wire Wire Line
	6450 10750 6450 10100
Wire Wire Line
	6450 10100 6700 10100
Wire Wire Line
	6050 9600 6700 9600
Wire Wire Line
	2050 10550 2050 10450
Connection ~ 2050 9900
Wire Wire Line
	2050 9900 2050 9950
Wire Wire Line
	2250 9900 2250 9950
Wire Wire Line
	1450 9900 2250 9900
Wire Wire Line
	2050 10550 2900 10550
Wire Wire Line
	2250 10450 2900 10450
Wire Wire Line
	1750 7450 2400 7450
Wire Wire Line
	1750 7350 2400 7350
Wire Wire Line
	8150 8050 9150 8050
Wire Wire Line
	8150 5600 9550 5600
Wire Wire Line
	8150 5500 9550 5500
Text Label 9550 5500 2    60   ~ 0
MODE3
Text Label 9550 5600 2    60   ~ 0
MODE4
$Comp
L GNDD #PWR821
U 1 1 5896FB12
P 12650 9100
F 0 "#PWR821" H 12650 8850 60  0001 C CNN
F 1 "GNDD" H 12650 8950 60  0000 C CNN
F 2 "" H 12650 9100 60  0000 C CNN
F 3 "" H 12650 9100 60  0000 C CNN
	1    12650 9100
	1    0    0    -1  
$EndComp
$Comp
L CONN_2x1 JP803
U 1 1 5896FB19
P 12600 8500
F 0 "JP803" V 13095 8345 40  0000 C CNN
F 1 "CONN_2x1" V 13040 8460 40  0000 C CNN
F 2 "MyKiCadLibs-Footprints:CONN_SIL_2_1MM" H 12940 8390 60  0001 C CNN
F 3 "" H 12940 8390 60  0000 C CNN
F 4 "1x2 2.54mm pitch pin header" H 12850 8250 40  0001 C CNN "Description"
	1    12600 8500
	-1   0    0    -1  
$EndComp
$Comp
L R R805
U 1 1 5896FB23
P 12650 8050
F 0 "R805" V 12750 8050 40  0000 C CNN
F 1 "1k" V 12657 8051 40  0000 C CNN
F 2 "MyKiCadLibs-Footprints:SMD-0805" V 12580 8050 30  0001 C CNN
F 3 "" V 12570 8050 30  0000 C CNN
F 4 "100mW" V 12750 8050 40  0001 C CNN "Power"
F 5 "Thick or thin film resistor" V 12895 8050 40  0001 C CNN "Description"
F 6 "0805" V 12825 8050 40  0001 C CNN "Size"
F 7 "1%" V 12975 8050 40  0001 C CNN "Tolerance"
	1    12650 8050
	-1   0    0    -1  
$EndComp
$Comp
L GNDD #PWR827
U 1 1 5896FB29
P 13950 9100
F 0 "#PWR827" H 13950 8850 60  0001 C CNN
F 1 "GNDD" H 13950 8950 60  0000 C CNN
F 2 "" H 13950 9100 60  0000 C CNN
F 3 "" H 13950 9100 60  0000 C CNN
	1    13950 9100
	1    0    0    -1  
$EndComp
Text Label 14600 8500 2    60   ~ 0
MODE4
$Comp
L CONN_2x1 JP804
U 1 1 5896FB31
P 13900 8500
F 0 "JP804" V 14395 8345 40  0000 C CNN
F 1 "CONN_2x1" V 14340 8460 40  0000 C CNN
F 2 "MyKiCadLibs-Footprints:CONN_SIL_2_1MM" H 14240 8390 60  0001 C CNN
F 3 "" H 14240 8390 60  0000 C CNN
F 4 "1x2 2.54mm pitch pin header" H 14150 8250 40  0001 C CNN "Description"
	1    13900 8500
	-1   0    0    -1  
$EndComp
$Comp
L R R806
U 1 1 5896FB3B
P 13950 8050
F 0 "R806" V 14050 8050 40  0000 C CNN
F 1 "1k" V 13957 8051 40  0000 C CNN
F 2 "MyKiCadLibs-Footprints:SMD-0805" V 13880 8050 30  0001 C CNN
F 3 "" V 13870 8050 30  0000 C CNN
F 4 "100mW" V 14050 8050 40  0001 C CNN "Power"
F 5 "Thick or thin film resistor" V 14195 8050 40  0001 C CNN "Description"
F 6 "0805" V 14125 8050 40  0001 C CNN "Size"
F 7 "1%" V 14275 8050 40  0001 C CNN "Tolerance"
	1    13950 8050
	-1   0    0    -1  
$EndComp
$Comp
L +3V3 #PWR820
U 1 1 5896FB41
P 12650 7700
F 0 "#PWR820" H 12650 7550 50  0001 C CNN
F 1 "+3V3" H 12650 7840 50  0000 C CNN
F 2 "" H 12650 7700 50  0000 C CNN
F 3 "" H 12650 7700 50  0000 C CNN
	1    12650 7700
	1    0    0    -1  
$EndComp
$Comp
L +3V3 #PWR826
U 1 1 5896FB47
P 13950 7700
F 0 "#PWR826" H 13950 7550 50  0001 C CNN
F 1 "+3V3" H 13950 7840 50  0000 C CNN
F 2 "" H 13950 7700 50  0000 C CNN
F 3 "" H 13950 7700 50  0000 C CNN
	1    13950 7700
	1    0    0    -1  
$EndComp
Text Label 13300 8500 2    60   ~ 0
MODE3
Connection ~ 12650 8500
Wire Wire Line
	12600 8500 13300 8500
Wire Wire Line
	12650 7800 12650 7700
Wire Wire Line
	12650 8500 12650 8300
Wire Wire Line
	12650 8600 12600 8600
Wire Wire Line
	12650 8600 12650 9100
Connection ~ 13950 8500
Wire Wire Line
	13900 8500 14600 8500
Wire Wire Line
	13950 7800 13950 7700
Wire Wire Line
	13950 8500 13950 8300
Wire Wire Line
	13950 8600 13900 8600
Wire Wire Line
	13950 8600 13950 9100
Wire Wire Line
	5700 3200 7200 3200
Wire Wire Line
	5700 3850 7200 3850
Wire Wire Line
	7550 3200 9050 3200
Wire Wire Line
	7550 3850 9050 3850
Wire Wire Line
	9300 1200 12350 1200
Wire Wire Line
	9400 2300 12350 2300
Wire Wire Line
	13400 1200 15150 1200
Wire Wire Line
	13500 2300 15050 2300
Wire Wire Line
	1450 9900 1450 9800
$Comp
L VDD #PWR832
U 1 1 589896DC
P 15150 1100
F 0 "#PWR832" H 15150 950 50  0001 C CNN
F 1 "VDD" H 15150 1250 50  0000 C CNN
F 2 "" H 15150 1100 50  0000 C CNN
F 3 "" H 15150 1100 50  0000 C CNN
	1    15150 1100
	1    0    0    -1  
$EndComp
Wire Wire Line
	15150 1200 15150 1100
Connection ~ 15050 1200
Text Notes 15250 1300 0    60   ~ 0
Power to Ethernet \nPhy (KSZ8081)\nIO VDD Supply
Text HLabel 5150 8750 0    60   BiDi ~ 0
GPIOG
Text Notes 6500 3000 0    60   ~ 0
Local decoupling around U801
Text Notes 10750 2450 0    60   ~ 0
Local decoupling around U801
Text Notes 1050 2850 0    59   ~ 0
Note:\nRemote and local supply decoupling is lumped together
Text Notes 750  900  0    59   ~ 0
Note: Can use XE216-512-TQ128 or XEF216-512-TQ128. XEF216-512-TQ128 has internal flash memory so do not fit SPI flash memory U802.
Text Label 9550 4700 2    60   ~ 0
DATA1
Text HLabel 9650 4700 2    60   BiDi ~ 0
I2S_DATA1
Text Label 9550 5700 2    60   ~ 0
BCLK2
Text Label 9550 4600 2    60   ~ 0
LRCLK1
Text Label 9550 4500 2    60   ~ 0
BCLK1
$EndSCHEMATC
